{
    "_id": "VcDeM8A5oI6VqhbM",
    "data": {
        "active": true,
        "alsoApplies": {
            "linked": [
                {
                    "condition": "Flat-Footed"
                },
                {
                    "condition": "Immobilized"
                }
            ],
            "unlinked": []
        },
        "base": "Restrained",
        "description": {
            "chat": "",
            "unidentified": "",
            "value": "<p>You're tied up and can barely move, or a creature has you pinned. You have the @Compendium[pf2e.conditionitems.Flat-Footed]{Flat-Footed} and @Compendium[pf2e.conditionitems.Immobilized]{Immobilized} conditions, and you can't use any actions with the attack or manipulate traits except to attempt to @Compendium[pf2e.actionspf2e.Escape]{Escape} or @Compendium[pf2e.actionspf2e.Force Open]{Force Open} your bonds. Restrained overrides @Compendium[pf2e.conditionitems.Grabbed]{Grabbed}.</p>"
        },
        "duration": {
            "perpetual": true,
            "text": "",
            "value": 0
        },
        "group": "",
        "hud": {
            "img": {
                "useStatusName": true,
                "value": "systems/pf2e/icons/conditions-2/restrained.webp"
            },
            "selectable": true,
            "statusName": "restrained"
        },
        "modifiers": [],
        "overrides": [
            "Grabbed"
        ],
        "references": {
            "children": [],
            "immunityFrom": [],
            "overriddenBy": [],
            "overrides": []
        },
        "removable": true,
        "rules": [],
        "schema": {
            "lastMigration": null,
            "version": 0.649
        },
        "source": {
            "value": ""
        },
        "sources": {
            "hud": true
        },
        "traits": {
            "custom": "",
            "rarity": {
                "value": "common"
            },
            "value": []
        },
        "value": {
            "immutable": false,
            "isValued": false,
            "modifiers": [],
            "value": null
        }
    },
    "effects": [],
    "flags": {
        "pf2e": {
            "condition": true
        }
    },
    "img": "systems/pf2e/icons/conditions/restrained.webp",
    "name": "Restrained",
    "type": "condition"
}
