{
    "_id": "6vsoyCZKqxG0lVe8",
    "data": {
        "boosts": {
            "0": {
                "value": [
                    "con",
                    "wis"
                ]
            },
            "1": {
                "value": [
                    "cha",
                    "con",
                    "dex",
                    "int",
                    "str",
                    "wis"
                ]
            }
        },
        "description": {
            "chat": "",
            "unidentified": "",
            "value": "<p><strong>Prerequisite</strong>: Region - Absalom and Starstone Isle</p>\n<hr />\n<p>You grew up in an untamed region of the Isle of Kortos, and you know how to survive in the wild.</p>\n<p>Choose two ability boosts. One must be to <strong>Constitution</strong> or <strong>Wisdom</strong>, and one is a free ability boost.</p>\n<p>You're trained in the Survival skill and a Lore skill related to the terrain type associated with your home region (such as Hills Lore or Mountains Lore). You gain the @Compendium[pf2e.feats-srd.Survey Wildlife]{Survey Wildlife} skill feat.</p>"
        },
        "items": {
            "yy4um": {
                "id": "tGIXuk0XeWmG04CX",
                "img": "systems/pf2e/icons/features/feats/feats.webp",
                "level": "1",
                "name": "Survey Wildlife",
                "pack": "pf2e.feats-srd"
            }
        },
        "rules": [
            {
                "key": "PF2E.RuleElement.ActiveEffectLike",
                "mode": "upgrade",
                "path": "data.skills.sur.rank",
                "value": 1
            }
        ],
        "schema": {
            "lastMigration": null,
            "version": 0.649
        },
        "source": {
            "value": ""
        },
        "trainedLore": "<Terrain> Lore",
        "trainedSkills": {
            "value": [
                "sur"
            ]
        },
        "traits": {
            "custom": "",
            "rarity": {
                "value": "common"
            },
            "value": []
        }
    },
    "effects": [],
    "flags": {},
    "img": "systems/pf2e/icons/default-icons/background.svg",
    "name": "Inlander",
    "type": "background"
}
