{
    "_id": "QnL7hqUi9HPenrbC",
    "data": {
        "boosts": {
            "0": {
                "value": [
                    "con",
                    "dex"
                ]
            },
            "1": {
                "value": [
                    "cha",
                    "con",
                    "dex",
                    "int",
                    "str",
                    "wis"
                ]
            }
        },
        "description": {
            "value": "<p>You're a Gokan native in a bad spot, and you're going to need a miracle to get you out of your current fix. Miracles are in short supply, but the title of Ruby Phoenix Champion might just do the trick. Maybe you need the prize money to pay for a relative's expensive operation or to free your family from debt to Golden League gangsters. Or maybe there's a particular prize in Hao Jin's vault that could literally save your life - an amulet you can use to flee to the farthest corners of the multiverse or even an artifact that could resurrect you if you die, just like the Ruby Phoenix. The tough circumstances of your upbringing in one of Goka's more downtrodden neighborhoods - such as industrial Oldtown, the slums of the Scales district, or even the crime-ridden undercity taught you lessons of self-reliance and how to quickly make friends in unlikely circumstances. You've scraped together an entry into the Ruby Phoenix Tournament's prequalifier with a team you can trust. Now all that's left is to pull off the impossible and win this thing once and for all.</p>\n<p>Choose two ability boosts. One must be to <strong>Constitution</strong> or <strong>Dexterity</strong>, and one is a free ability boost.</p>\n<p>You're trained in Society and the Goka Lore skill. You gain the @Compendium[pf2e.feats-srd.Streetwise]{Streetwise} skill feat.</p>"
        },
        "items": {
            "rj5hr": {
                "id": "X2jGFfLU5qI5XVot",
                "img": "systems/pf2e/icons/features/feats/feats.webp",
                "level": 1,
                "name": "Streetwise",
                "pack": "pf2e.feats-srd"
            }
        },
        "rules": [
            {
                "key": "PF2E.RuleElement.ActiveEffectLike",
                "mode": "upgrade",
                "path": "data.skills.soc.rank",
                "value": 1
            }
        ],
        "schema": {
            "lastMigration": null,
            "version": 0.649
        },
        "source": {
            "value": ""
        },
        "trainedLore": "Goka",
        "trainedSkills": {
            "value": [
                "soc"
            ]
        },
        "traits": {
            "custom": "",
            "rarity": {
                "value": "common"
            },
            "value": []
        }
    },
    "effects": [],
    "flags": {},
    "img": "systems/pf2e/icons/default-icons/background.svg",
    "name": "Newcomer In Need",
    "type": "background"
}
