{
    "_id": "V3nYEAhyA54RtYky",
    "data": {
        "boosts": {
            "0": {
                "value": [
                    "cha",
                    "str"
                ]
            },
            "1": {
                "value": [
                    "cha",
                    "con",
                    "dex",
                    "int",
                    "str",
                    "wis"
                ]
            }
        },
        "description": {
            "chat": "",
            "unidentified": "",
            "value": "<p><strong>Prerequisite</strong>: Region - Saga Lands</p>\n<hr />\n<p>You are an Ulfen warrior, feared among Avistan for the merciless and devastating raids your people once conducted along the shores. Though the days of these Ulfen raids are largely past, you have been trained to strike terror into the hearts of those who face you.</p>\n<p>Choose two ability boosts. One must be to <strong>Strength</strong> or <strong>Charisma</strong>, and one is a free ability boost.</p>\n<p>You're trained in the Intimidation skill and the Sailing Lore skill. You gain the @Compendium[pf2e.feats-srd.Intimidating Glare]{Intimidating Glare} skill feat.</p>"
        },
        "items": {
            "leo7o": {
                "id": "xQMz6eDgX75WX2ce",
                "img": "systems/pf2e/icons/features/feats/feats.webp",
                "level": "1",
                "name": "Intimidating Glare",
                "pack": "pf2e.feats-srd"
            }
        },
        "rules": [
            {
                "key": "PF2E.RuleElement.ActiveEffectLike",
                "mode": "upgrade",
                "path": "data.skills.itm.rank",
                "value": 1
            }
        ],
        "schema": {
            "lastMigration": null,
            "version": 0.649
        },
        "source": {
            "value": ""
        },
        "trainedLore": "Sailing Lore",
        "trainedSkills": {
            "value": [
                "itm"
            ]
        },
        "traits": {
            "custom": "",
            "rarity": {
                "value": "common"
            },
            "value": []
        }
    },
    "effects": [],
    "flags": {},
    "img": "systems/pf2e/icons/default-icons/background.svg",
    "name": "Ulfen Raider",
    "type": "background"
}
