{
    "_id": "5SKGqxahAGsJgzRF",
    "data": {
        "baseItem": null,
        "brokenThreshold": {
            "value": 0
        },
        "bulkCapacity": {
            "value": ""
        },
        "collapsed": {
            "value": false
        },
        "containerId": {
            "value": ""
        },
        "description": {
            "chat": "",
            "unidentified": "",
            "value": "<p>While invested, this aeon stone grants the benefit of the @Compendium[pf2e.equipment-srd.Ghost Touch]{Ghost Touch} property rune to your weapons and unarmed attacks.</p>\n<p>The resonant power grants a special activation.</p>\n<hr />\n<p><strong>Activate</strong><strong></strong> <span class=\"pf2-icon\">1</span> Envision;</p>\n<p><strong>Frequency</strong> once per minute;</p>\n<p><strong>Effect</strong> You gain the effects of @Compendium[pf2e.spells-srd.See Invisibility]{See Invisibility} for 1 round.</p>"
        },
        "equipped": {
            "value": false
        },
        "equippedBulk": {
            "value": ""
        },
        "hardness": {
            "value": 0
        },
        "hp": {
            "value": 0
        },
        "identification": {
            "misidentified": {},
            "status": "identified",
            "unidentified": {
                "data": {
                    "description": {
                        "value": ""
                    }
                },
                "img": "",
                "name": ""
            }
        },
        "invested": {
            "value": false
        },
        "level": {
            "value": 10
        },
        "maxHp": {
            "value": 0
        },
        "negateBulk": {
            "value": "0"
        },
        "preciousMaterial": {
            "value": ""
        },
        "preciousMaterialGrade": {
            "value": ""
        },
        "price": {
            "value": "900 gp"
        },
        "quantity": {
            "value": 1
        },
        "rules": [],
        "schema": {
            "lastMigration": null,
            "version": 0.649
        },
        "size": {
            "value": "med"
        },
        "source": {
            "value": ""
        },
        "stackGroup": {
            "value": ""
        },
        "traits": {
            "custom": "",
            "rarity": {
                "value": "uncommon"
            },
            "usage": {
                "value": "held-in-one-hand"
            },
            "value": [
                "invested",
                "magical",
                "transmutation"
            ]
        },
        "usage": {
            "value": "held-in-one-hand"
        },
        "weight": {
            "value": "-"
        }
    },
    "effects": [],
    "flags": {},
    "img": "systems/pf2e/icons/equipment/worn-items/other-worn-items/aeon-stone-pearlescent-pyramid.webp",
    "name": "Aeon Stone (Pearlescent Pyramid)",
    "type": "equipment"
}
