{
    "_id": "pRjJ2aBDpCH1NKRz",
    "data": {
        "baseItem": null,
        "brokenThreshold": {
            "value": 0
        },
        "bulkCapacity": {
            "value": ""
        },
        "collapsed": {
            "value": false
        },
        "containerId": {
            "value": null
        },
        "description": {
            "value": "<p><strong>Perception</strong> +15; vision (<span style=\"color: var(--body); font-size: 1em;\">precise)</span><span style=\"color: var(--body); font-size: 1em;\"> 30 feet, hearing (</span><span style=\"color: var(--body); font-size: 1em;\">imprecise</span><span style=\"color: var(--body); font-size: 1em;\"> )</span><span style=\"color: var(--body); font-size: 1em;\">30 </span><span style=\"color: var(--body); font-size: 1em;\">feet</span></p>\n<p><strong>Communication</strong> speech (all languages known in life)</p>\n<p><strong>Skills</strong> varies</p>\n<p><strong>Int</strong> +2, <strong>Wis</strong> +2, <strong>Cha</strong> +2</p>\n<p><strong>AC</strong> 21; <strong>Fort</strong> +10, <strong>Ref</strong> +8, <strong>Will</strong> +15</p>\n<p><strong>HP</strong> 68; <strong>Immunities</strong> bleed, disease, death effects, paralyzed, poison; <strong>Weaknesses</strong> bludgeoning 7, sonic 7; <strong>Resistances</strong> fire 7, piercing 7, slashing 7;</p>\n<hr />\n<p>A brain cylinder allows the extracted brain of a Large or smaller creature to continue to function even after it has been removed from the body. As long as the brain remains in the cylinder, the creature remains alive and can continue to think, even though its body is dead. Detachable modules that fit into the base of the cylinder allow the brain to see, hear, or speak using a raspy speaker. So long as these are attached, the brain can speak and understand any languages it knew in life, though nothing within the cylinder compels it to do so if it is unwilling. It also retains its living alignment, and can use Intelligence-, Wisdom-, and Charisma-based skills. A standard brain cylinder has one skill at +15, one at +13, and two at +11, as chosen by the GM.</p>\n<p>The brain retains no other abilities it possessed in life, including purely mental ones. Mi-go typically preserve humanoid brains in this manner when they wish to interrogate a creature at a later date, or when they wish to preserve a creature as a resource for consultation or research purposes, as a brain preserved in this manner can live for centuries. If a brain cylinder is destroyed, the brain dies and its soul finally moves on to the Boneyard. Restoring a brain in a brain cylinder to its former body can be done by any effect that restores life (and, in most cases, any capable of creating a new body, since the original is typically missing or long gone).</p>\n<p>Note that the level 6 brain cylinder presented represents a level 6 creature’s brain. A less powerful or more powerful brain can be placed in a brain cylinder, which can affect the brain cylinder’s Perception, mental ability scores, Will save, and skill modifiers (and can drastically alter the value of the brain cylinder), but the physical properties of the brain cylinder remain unchanged. Higher-level brain cylinders can be crafted, with resistances and weaknesses increasing as appropriate to their level. However, they always have low AC and HP and terrible Fortitude and Reflex saves for a creature of the brain cylinder’s level.</p>\n<p>You can open a brain cylinder by taking three consecutive actions with the manipulate trait. If the brain cylinder contains a brain, the brain dies 3 rounds after it’s removed or if the cylinder is left open for more than 10 minutes. You can transfer a brain from one brain cylinder to another with a DC 25 Medicine (expert) or Occultism (expert) check. This is a two-action activity with the manipulate trait. On a critical failure, the brain dies.</p>"
        },
        "equipped": {
            "value": false
        },
        "equippedBulk": {
            "value": ""
        },
        "hardness": {
            "value": 0
        },
        "hp": {
            "value": 0
        },
        "identification": {
            "misidentified": {},
            "status": "identified",
            "unidentified": {
                "data": {
                    "description": {
                        "value": ""
                    }
                },
                "img": "",
                "name": ""
            }
        },
        "invested": {
            "value": null
        },
        "level": {
            "value": 6
        },
        "maxHp": {
            "value": 0
        },
        "negateBulk": {
            "value": "0"
        },
        "preciousMaterial": {
            "value": null
        },
        "preciousMaterialGrade": {
            "value": null
        },
        "price": {
            "value": "250 gp"
        },
        "quantity": {
            "value": 1
        },
        "rules": [],
        "schema": {
            "lastMigration": null,
            "version": 0.649
        },
        "size": {
            "value": "med"
        },
        "source": {
            "value": ""
        },
        "stackGroup": {
            "value": ""
        },
        "traits": {
            "custom": "",
            "rarity": {
                "value": "rare"
            },
            "usage": {
                "value": "held-in-one-hand"
            },
            "value": [
                "magical",
                "necromancy"
            ]
        },
        "usage": {
            "value": ""
        },
        "weight": {
            "value": "1"
        }
    },
    "effects": [],
    "flags": {},
    "img": "systems/pf2e/icons/default-icons/equipment.svg",
    "name": "Brain Cylinder",
    "type": "equipment"
}
