{
    "_id": "XKON66YXYLXlGPPg",
    "data": {
        "armor": {
            "value": 4
        },
        "armorType": {
            "value": "medium"
        },
        "baseItem": "breastplate",
        "brokenThreshold": {
            "value": null
        },
        "bulkCapacity": {
            "value": ""
        },
        "check": {
            "value": -3
        },
        "collapsed": {
            "value": false
        },
        "containerId": {
            "value": ""
        },
        "description": {
            "chat": "",
            "unidentified": "",
            "value": "<p>This +2 greater resilient breastplate is made from shining bronze overlaid with reinforcing golden panels in the shape of lion's heads. Wearing this breastplate grants you a commanding aura. You gain a +3 item bonus to Diplomacy checks, but you take a -3 item penalty to Stealth checks to Hide and Sneak and Deception checks to Impersonate.</p>\n<p><strong>Activate</strong><span class=\"pf2-icon\">A</span>Command</p>\n<p><strong>Frequency</strong> once per day</p>\n<p><strong>Effect</strong> You grant allies within 100 feet a +2 status bonus to saves against fear effects for 1 minute. When you activate this ability, each affected ally who's frightened reduces their frightened value by 1.</p>\n<p>@Compendium[pf2e.equipment-effects.Effect: Breastplate of Command]{Effect: Breastplate of Command}</p>\n<hr />\n<p>Automatically applied effects:</p>\n<ul>\n<li>+3 item bonus to Diplomacy checks</li>\n<li>-3 item penalty to Stealth checks to Hide and Sneak</li>\n<li>-3 item penalty to Deception checks to Impersonate</li>\n</ul>"
        },
        "dex": {
            "value": 1
        },
        "equipped": {
            "value": false
        },
        "equippedBulk": {
            "value": "2"
        },
        "group": {
            "value": "plate"
        },
        "hardness": {
            "value": null
        },
        "hp": {
            "value": null
        },
        "identification": {
            "misidentified": {},
            "status": "identified",
            "unidentified": {
                "data": {
                    "description": {
                        "value": ""
                    }
                },
                "img": "",
                "name": ""
            }
        },
        "invested": {
            "value": false
        },
        "level": {
            "value": 18
        },
        "maxHp": {
            "value": null
        },
        "negateBulk": {
            "value": "0"
        },
        "potency": {},
        "potencyRune": {
            "value": 2
        },
        "preciousMaterial": {
            "value": ""
        },
        "preciousMaterialGrade": {
            "value": ""
        },
        "price": {
            "value": "22,000 gp"
        },
        "propertyRune1": {
            "value": ""
        },
        "propertyRune2": {
            "value": ""
        },
        "propertyRune3": {
            "value": ""
        },
        "propertyRune4": {
            "value": ""
        },
        "quantity": {
            "value": 1
        },
        "resiliencyRune": {
            "value": "greaterResilient"
        },
        "resilient": {},
        "rules": [
            {
                "key": "PF2E.RuleElement.FlatModifier",
                "selector": "diplomacy",
                "type": "item",
                "value": 3
            },
            {
                "key": "PF2E.RuleElement.FlatModifier",
                "label": "Breastplate of Command (Hide, Sneak)",
                "predicate": {
                    "any": [
                        "action:hide",
                        "action:sneak"
                    ]
                },
                "selector": "stealth",
                "type": "item",
                "value": -3
            },
            {
                "key": "PF2E.RuleElement.FlatModifier",
                "label": "Breastplate of Command (Impersonate)",
                "predicate": {
                    "any": [
                        "action:impersonate"
                    ]
                },
                "selector": "deception",
                "type": "item",
                "value": -3
            },
            {
                "key": "PF2E.RuleElement.FlatModifier",
                "predicate": {
                    "not": [
                        "unburdened-iron"
                    ]
                },
                "roll-options": [
                    "all"
                ],
                "selector": "speed",
                "type": "untyped",
                "value": {
                    "brackets": [
                        {
                            "end": 15,
                            "value": -5
                        }
                    ],
                    "field": "actor|data.abilities.str.value"
                }
            }
        ],
        "schema": {
            "lastMigration": null,
            "version": 0.649
        },
        "size": {
            "value": "med"
        },
        "source": {
            "value": ""
        },
        "speed": {
            "value": -5
        },
        "stackGroup": {
            "value": ""
        },
        "strength": {
            "value": 16
        },
        "traits": {
            "custom": "",
            "rarity": {
                "value": "common"
            },
            "value": [
                "enchantment",
                "invested",
                "magical"
            ]
        },
        "usage": {
            "value": "wornarmor"
        },
        "weight": {
            "value": "3"
        }
    },
    "effects": [],
    "flags": {},
    "img": "systems/pf2e/icons/equipment/armor/specific-magic-armor/breastplate-of-command.webp",
    "name": "Breastplate of Command (Greater)",
    "type": "armor"
}
