{
    "_id": "fw1lODFkJJk3umz0",
    "data": {
        "baseItem": null,
        "brokenThreshold": {
            "value": 0
        },
        "bulkCapacity": {
            "value": ""
        },
        "collapsed": {
            "value": false
        },
        "containerId": {
            "value": null
        },
        "description": {
            "value": "<p>This cloth of gold cape was originally gifted to one of Goka's emperors centuries ago. Since then, it has spawned many imitations, which are all alike in that they are dyed with an elaborate seal depicting two drakes flanking Goka's palace and the Seven Dragons Bridge. The beautiful cape grants you a +3 item bonus to checks to Lie and to Make an Impression. While you wear the cape, the weather (including wind and fog) doesn't affect your movement or vision. Additionally, whenever you fall while wearing the cape of the open sky, the cape automatically casts @Compendium[pf2e.spells-srd.Feather Fall]{Feather Fall} on you.</p>\n<hr />\n<p><strong>Activate</strong> <span class=\"pf2-icon\">2 </span> Interact;</p>\n<p><strong>Effect</strong> The cape becomes a pair of golden drake wings that grant you a fly Speed of 30 feet for 1 hour.</p>\n<p>@Compendium[pf2e.equipment-effects.Effect: Cape of the Open Sky]{Effect: Cape of the Open Sky}</p>\n<hr />\n<p><strong>Activate</strong> <span class=\"pf2-icon\">1 </span> command;</p>\n<p><strong>Frequency</strong> once per minute;</p>\n<p><strong>Effect</strong> The cloak pushes you onward. You Stride or Fly up to your Speed, but you can move only in a straight line. You gain a +15-foot status bonus to your Speed and fly Speed for this movement.</p>"
        },
        "equipped": {
            "value": false
        },
        "equippedBulk": {
            "value": ""
        },
        "hardness": {
            "value": 0
        },
        "hp": {
            "value": 0
        },
        "identification": {
            "misidentified": {},
            "status": "identified",
            "unidentified": {
                "data": {
                    "description": {
                        "value": ""
                    }
                },
                "img": "",
                "name": ""
            }
        },
        "invested": {
            "value": null
        },
        "level": {
            "value": 18
        },
        "maxHp": {
            "value": 0
        },
        "negateBulk": {
            "value": "0"
        },
        "preciousMaterial": {
            "value": null
        },
        "preciousMaterialGrade": {
            "value": null
        },
        "price": {
            "value": "22000 gp"
        },
        "quantity": {
            "value": 1
        },
        "rules": [
            {
                "key": "PF2E.RuleElement.FlatModifier",
                "predicate": {
                    "all": [
                        "action:lie"
                    ]
                },
                "selector": "deception",
                "type": "item",
                "value": 3
            },
            {
                "key": "PF2E.RuleElement.FlatModifier",
                "predicate": {
                    "all": [
                        "action:make-an-impression"
                    ]
                },
                "selector": "diplomacy",
                "type": "item",
                "value": 3
            }
        ],
        "schema": {
            "lastMigration": null,
            "version": 0.649
        },
        "size": {
            "value": "med"
        },
        "source": {
            "value": ""
        },
        "stackGroup": {
            "value": ""
        },
        "traits": {
            "custom": "",
            "rarity": {
                "value": "rare"
            },
            "usage": {
                "value": "worncloak"
            },
            "value": [
                "invested",
                "magical",
                "transmutation"
            ]
        },
        "usage": {
            "value": ""
        },
        "weight": {
            "value": "L"
        }
    },
    "effects": [],
    "flags": {},
    "img": "systems/pf2e/icons/default-icons/equipment.svg",
    "name": "Cape of the Open Sky",
    "type": "equipment"
}
