{
    "_id": "kjFFmqci69k2zMXF",
    "data": {
        "baseItem": null,
        "brokenThreshold": {
            "value": 0
        },
        "bulkCapacity": {
            "value": ""
        },
        "collapsed": {
            "value": false
        },
        "containerId": {
            "value": ""
        },
        "description": {
            "chat": "",
            "unidentified": "",
            "value": "<p><span>These brightly colored, soft-soled boots motivate you to perform risky stunts and grant you the agility to succeed. The boots grant you a +3 item bonus to Acrobatics checks and a +2 circumstance bonus to checks to Tumble Through an enemy's space.<br /></span></p>\n<p><span>The boots can grip solid surfaces and help you avoid a fall, allowing you to use the Grab an Edge reaction even if your hands aren't free. You treat falls as 10 feet shorter or, if you have the @Compendium[pf2e.feats-srd.Cat Fall]{Cat Fall} feat, treat your proficiency rank in Acrobatics as one degree better to determine the benefits of that feat. If you have Cat Fall and are already legendary in Acrobatics, you can choose the speed of your fall, from 60 feet per round up to normal falling speed.</span></p>\n<p><span><strong>Activate</strong> <span class=\"pf2-icon\">D</span> command; <strong>Frequency</strong> once per day; <strong>Effect</strong> The boots cast @Compendium[pf2e.spells-srd.Freedom of Movement]{Freedom of Movement} on you.</span></p>\n<hr />\n<p>Automatically applied effects:</p>\n<ul>\n<li>+3 item bonus to Acrobatics checks</li>\n<li>+2 circumstance bonus to checks to Tumble Through an enemy's space</li>\n</ul>"
        },
        "equipped": {
            "value": false
        },
        "equippedBulk": {
            "value": ""
        },
        "hardness": {
            "value": 0
        },
        "hp": {
            "value": 0
        },
        "identification": {
            "misidentified": {},
            "status": "identified",
            "unidentified": {
                "data": {
                    "description": {
                        "value": ""
                    }
                },
                "img": "",
                "name": ""
            }
        },
        "invested": {
            "value": false
        },
        "level": {
            "value": 17
        },
        "maxHp": {
            "value": 0
        },
        "negateBulk": {
            "value": "0"
        },
        "preciousMaterial": {
            "value": ""
        },
        "preciousMaterialGrade": {
            "value": ""
        },
        "price": {
            "value": "14,000 gp"
        },
        "quantity": {
            "value": 1
        },
        "rules": [
            {
                "key": "PF2E.RuleElement.FlatModifier",
                "selector": "acrobatics",
                "type": "item",
                "value": 3
            },
            {
                "key": "PF2E.RuleElement.FlatModifier",
                "label": "Daredevil Boots (Greater) (Tumble Through)",
                "predicate": {
                    "any": [
                        "action:tumble-through"
                    ]
                },
                "selector": "acrobatics",
                "type": "circumstance",
                "value": 2
            }
        ],
        "schema": {
            "lastMigration": null,
            "version": 0.649
        },
        "size": {
            "value": "med"
        },
        "source": {
            "value": ""
        },
        "stackGroup": {
            "value": ""
        },
        "traits": {
            "custom": "",
            "rarity": {
                "value": "common"
            },
            "value": [
                "abjuration",
                "invested",
                "magical"
            ]
        },
        "usage": {
            "value": "wornshoes"
        },
        "weight": {
            "value": "L"
        }
    },
    "effects": [],
    "flags": {},
    "img": "systems/pf2e/icons/equipment/worn-items/other-worn-items/daredevil-boots.webp",
    "name": "Daredevil Boots (Greater)",
    "type": "equipment"
}
