{
    "_id": "OHs7L8CJMdp2UV0P",
    "data": {
        "baseItem": null,
        "brokenThreshold": {
            "value": 0
        },
        "bulkCapacity": {
            "value": ""
        },
        "collapsed": {
            "value": false
        },
        "containerId": {
            "value": ""
        },
        "description": {
            "chat": "",
            "unidentified": "",
            "value": "<p>This strand of ordinary-looking prayer beads glows with a soft light and becomes warm to the touch the first time you cast a divine spell while holding it. When you do, the prayer beads become attuned to your deity, changing their form and iconography to prominently incorporate your deity's religious symbol and iconography. The beads don't transform or function for an evil spellcaster.</p>\n<p>Whenever you cast a divine spell from your own spell slots while holding the prayer beads, you recover 1d4 Hit Point; this is a positive healing effect. If the spell you cast was a healing spell, you can grant this additional healing to one of the spell's targets instead of yourself.</p>\n<p><strong>Activate</strong> Cast a Spell</p>\n<p><strong>Effect</strong> Cast 4th-level versions of @Compendium[pf2e.spells-srd.Bless]{Bless}, @Compendium[pf2e.spells-srd.Heal]{Heal}, @Compendium[pf2e.spells-srd.Divine Wrath]{Divine Wrath}, @Compendium[pf2e.spells-srd.Neutralize Poison]{Neutralize Poison}, or @Compendium[pf2e.spells-srd.Remove Disease]{Remove Disease} each once per day.</p>\n<hr />\n<p><strong>Craft Requirements</strong> You have a spellcasting class feature with the divine tradition.</p>"
        },
        "equipped": {
            "value": false
        },
        "equippedBulk": {
            "value": ""
        },
        "hardness": {
            "value": 0
        },
        "hp": {
            "value": 0
        },
        "identification": {
            "misidentified": {},
            "status": "identified",
            "unidentified": {
                "data": {
                    "description": {
                        "value": ""
                    }
                },
                "img": "",
                "name": ""
            }
        },
        "invested": {
            "value": false
        },
        "level": {
            "value": 11
        },
        "maxHp": {
            "value": 0
        },
        "negateBulk": {
            "value": ""
        },
        "preciousMaterial": {
            "value": ""
        },
        "preciousMaterialGrade": {
            "value": ""
        },
        "price": {
            "value": "1,400 gp"
        },
        "quantity": {
            "value": 1
        },
        "rules": [],
        "schema": {
            "lastMigration": null,
            "version": 0.649
        },
        "size": {
            "value": "med"
        },
        "source": {
            "value": ""
        },
        "stackGroup": {
            "value": ""
        },
        "traits": {
            "custom": "",
            "rarity": {
                "value": "uncommon"
            },
            "usage": {
                "value": "held-in-one-hand"
            },
            "value": [
                "divine",
                "healing",
                "necromancy",
                "positive"
            ]
        },
        "usage": {
            "value": "held-in-one-hand"
        },
        "weight": {
            "value": "-"
        }
    },
    "effects": [],
    "flags": {},
    "img": "systems/pf2e/icons/equipment/held-items/holy-prayer-beads.webp",
    "name": "Holy Prayer Beads (Greater)",
    "type": "equipment"
}
