{
    "_id": "PDEhZSibXvQdVsSq",
    "data": {
        "baseItem": null,
        "brokenThreshold": {
            "value": 0
        },
        "bulkCapacity": {
            "value": ""
        },
        "collapsed": {
            "value": false
        },
        "containerId": {
            "value": null
        },
        "description": {
            "value": "<p>You gain fire and mental resistance 5. When you die, you rise as an undead creature with the zombie trait on the next round; if you are a PC, you become an NPC under Walkena's control. Your stats remain the same, except that your alignment changes to evil. If you reach 0 Hit Points as a zombie, you are destroyed and do not rise again.</p>\n<hr />\n<p><strong>Activate</strong> <span class=\"pf2-icon\">1</span> command;</p>\n<p><strong>Frequency</strong> once per day;</p>\n<p><strong>Effect</strong> You gain a +1 status bonus to Will saves. Choose a weapon or an unarmed Strike; your chosen attack deals an extra [[/r 1d6 #fire]] fire damage for the next 1 minute.</p>\n<p>@Compendium[pf2e.equipment-effects.Effect: Oath of the Devoted]{Effect: Oath of the Devoted}</p>\n<hr />\n<p><strong>Special</strong> If you are a zombie at a time when Mzali is entirely purged of foreigners, your duty is fulfilled and you are immediately destroyed.</p>"
        },
        "equipped": {
            "value": false
        },
        "equippedBulk": {
            "value": ""
        },
        "hardness": {
            "value": 0
        },
        "hp": {
            "value": 0
        },
        "identification": {
            "misidentified": {},
            "status": "identified",
            "unidentified": {
                "data": {
                    "description": {
                        "value": ""
                    }
                },
                "img": "",
                "name": ""
            }
        },
        "invested": {
            "value": null
        },
        "level": {
            "value": 9
        },
        "maxHp": {
            "value": 0
        },
        "negateBulk": {
            "value": "0"
        },
        "preciousMaterial": {
            "value": null
        },
        "preciousMaterialGrade": {
            "value": null
        },
        "price": {
            "value": "0 gp"
        },
        "quantity": {
            "value": 1
        },
        "rules": [],
        "schema": {
            "lastMigration": null,
            "version": 0.649
        },
        "size": {
            "value": "med"
        },
        "source": {
            "value": ""
        },
        "stackGroup": {
            "value": ""
        },
        "traits": {
            "custom": "",
            "rarity": {
                "value": "rare"
            },
            "usage": {
                "value": "held-in-one-hand"
            },
            "value": [
                "contract",
                "divine",
                "invested",
                "magical",
                "necromancy"
            ]
        },
        "usage": {
            "value": ""
        },
        "weight": {
            "value": "-"
        }
    },
    "effects": [],
    "flags": {},
    "img": "systems/pf2e/icons/default-icons/equipment.svg",
    "name": "Oath of the Devoted",
    "type": "equipment"
}
