{
    "_id": "0PPQl3TEr1yNhhN6",
    "data": {
        "baseItem": null,
        "brokenThreshold": {
            "value": 0
        },
        "bulkCapacity": {
            "value": ""
        },
        "collapsed": {
            "value": false
        },
        "containerId": {
            "value": ""
        },
        "description": {
            "chat": "",
            "unidentified": "",
            "value": "<p>Despite covering the entire face, this alabaster mask does not hinder vision or other senses. Wearing the mask grants a +2 item bonus to Performance checks while acting, orating, performing comedy, or singing.</p>\n<p>The mask can be activated.</p>\n<p><strong>Activate</strong> <span class=\"pf2-icon\">R</span> envision (fortune)</p>\n<p><strong>Frequency</strong> once per day</p>\n<p><strong>Trigger</strong> You fail a Performance check that benefits from the mask's bonus</p>\n<p><strong>Effect</strong> You change the mask's character and reroll the Performance check, using the second result.</p>\n<hr />\n<p>Automatically applied effects:</p>\n<ul>\n<li>+2 item bonus to Performance checks while acting, orating, performing comedy, or singing.</li>\n</ul>"
        },
        "equipped": {
            "value": false
        },
        "equippedBulk": {
            "value": ""
        },
        "hardness": {
            "value": 0
        },
        "hp": {
            "value": 0
        },
        "identification": {
            "misidentified": {},
            "status": "identified",
            "unidentified": {
                "data": {
                    "description": {
                        "value": ""
                    }
                },
                "img": "",
                "name": ""
            }
        },
        "invested": {
            "value": false
        },
        "level": {
            "value": 9
        },
        "maxHp": {
            "value": 0
        },
        "negateBulk": {
            "value": "0"
        },
        "preciousMaterial": {
            "value": ""
        },
        "preciousMaterialGrade": {
            "value": ""
        },
        "price": {
            "value": "650 gp"
        },
        "quantity": {
            "value": 1
        },
        "rules": [
            {
                "key": "PF2E.RuleElement.FlatModifier",
                "label": "Persona Mask (acting, orating, comedy, singing)",
                "predicate": {
                    "any": [
                        "acting",
                        "orating",
                        "performing-comedy",
                        "singing"
                    ]
                },
                "selector": "performance",
                "type": "item",
                "value": 2
            }
        ],
        "schema": {
            "lastMigration": null,
            "version": 0.649
        },
        "size": {
            "value": "med"
        },
        "source": {
            "value": ""
        },
        "stackGroup": {
            "value": ""
        },
        "traits": {
            "custom": "",
            "rarity": {
                "value": "common"
            },
            "value": [
                "fortune",
                "illusion",
                "invested",
                "magical"
            ]
        },
        "usage": {
            "value": "wornmask"
        },
        "weight": {
            "value": "-"
        }
    },
    "effects": [],
    "flags": {},
    "img": "systems/pf2e/icons/equipment/worn-items/other-worn-items/persona-mask.webp",
    "name": "Persona Mask (Greater)",
    "type": "equipment"
}
