{
    "_id": "TSbuKm91qmqdqQW3",
    "data": {
        "activation": {
            "condition": "",
            "cost": 0,
            "type": ""
        },
        "autoDestroy": {
            "_deprecated": true,
            "value": true
        },
        "autoUse": {
            "_deprecated": true,
            "value": true
        },
        "baseItem": null,
        "brokenThreshold": {
            "value": 0
        },
        "bulkCapacity": {
            "value": ""
        },
        "charges": {
            "_deprecated": true,
            "max": "1",
            "value": "1"
        },
        "collapsed": {
            "value": false
        },
        "consumableType": {
            "value": "talisman"
        },
        "consume": {
            "_deprecated": true,
            "value": ""
        },
        "containerId": {
            "value": ""
        },
        "description": {
            "chat": "",
            "unidentified": "",
            "value": "<p><strong>Usage</strong> affixed to a weapon</p>\n<p><strong>Activation</strong> <span class=\"pf2-icon\">F</span> envision</p>\n<p><strong>Trigger</strong> You damage a creature that is @Compendium[pf2e.conditionitems.Sickened]{Sickened} 1 with a @Compendium[pf2e.actionspf2e.Strike]{Strike} using the affixed weapon;</p>\n<p><strong>Requirements</strong> You are an expert with the affixed weapon.</p>\n<hr />\n<p>This repulsive, hairy glob dangles from the end of your weapon. When you activate the putrescent glob, the creature you damaged must succeed at a <span data-pf2-check=\"fortitude\" data-pf2-dc=\"23\" data-pf2-traits=\"conjuration,consumable,magical,talisman\" data-pf2-label=\"Putrescent Glob DC\" data-pf2-show-dc=\"gm\">Fortitude</span> save or its sickened condition increases to sickened 2, and it can't reduce its sickened condition until the end of its next turn. On a critical failure, it's also @Compendium[pf2e.conditionitems.Slowed]{Slowed} 1 until the end of its next turn.</p>"
        },
        "duration": {
            "units": "",
            "value": null
        },
        "equipped": {
            "value": false
        },
        "equippedBulk": {
            "value": ""
        },
        "hardness": {
            "value": 0
        },
        "hp": {
            "value": 0
        },
        "identification": {
            "misidentified": {},
            "status": "identified",
            "unidentified": {
                "data": {
                    "description": {
                        "value": ""
                    }
                },
                "img": "",
                "name": ""
            }
        },
        "level": {
            "value": 7
        },
        "maxHp": {
            "value": 0
        },
        "negateBulk": {
            "value": "0"
        },
        "preciousMaterial": {
            "value": ""
        },
        "preciousMaterialGrade": {
            "value": ""
        },
        "price": {
            "value": "65 gp"
        },
        "quantity": {
            "value": 1
        },
        "range": {
            "long": null,
            "units": "",
            "value": null
        },
        "rules": [],
        "schema": {
            "lastMigration": null,
            "version": 0.649
        },
        "size": {
            "value": "med"
        },
        "source": {
            "value": ""
        },
        "spell": {
            "data": null,
            "heightenedLevel": null
        },
        "stackGroup": {
            "value": ""
        },
        "target": {
            "type": "",
            "units": "",
            "value": null
        },
        "traits": {
            "custom": "",
            "rarity": {
                "value": "uncommon"
            },
            "usage": {
                "value": "affixed-to-weapon"
            },
            "value": [
                "conjuration",
                "consumable",
                "magical",
                "talisman"
            ]
        },
        "usage": {
            "value": "held-in-one-hand"
        },
        "uses": {
            "autoDestroy": true,
            "autoUse": true,
            "max": 0,
            "per": null,
            "value": 0
        },
        "weight": {
            "value": "-"
        }
    },
    "effects": [],
    "flags": {},
    "img": "systems/pf2e/icons/equipment/consumables/talismans/putrescent-glob.webp",
    "name": "Putrescent Glob",
    "type": "consumable"
}
