{
    "_id": "cBKrXbxM02MlycpV",
    "data": {
        "baseItem": null,
        "brokenThreshold": {
            "value": 0
        },
        "bulkCapacity": {
            "value": ""
        },
        "collapsed": {
            "value": false
        },
        "containerId": {
            "value": ""
        },
        "description": {
            "chat": "",
            "unidentified": "",
            "value": "<p>This ornate silver ring bears two competing geometric designs of brightly colored and wildly clashing inlaid gemstones. A spellcaster can cast a single spell into this ring as long as no spell is currently stored within, expending the normal time, costs, and so forth to Cast the Spell. The spell's effect doesn't occur; the spell's power is instead stored within the ring.</p>\n<p>When you invest a <em>ring of counterspells</em>, you immediately know the name and level of the spell stored inside, if any. A <em>ring of counterspells</em> found as treasure has a 50% chance of having a spell stored in it. The GM determines that spell.</p>\n<hr />\n<p><strong>Activate</strong> <span class=\"pf2-icon\">R</span> envision</p>\n<p><strong>Trigger</strong> You are targeted by or within the area of the spell stored within the ring</p>\n<p><strong>Effect</strong> You can attempt to counteract the triggering spell, using the level of the spell stored in the ring and a counteract modifier of [[/r 1d20+19]]. Once you do, the stored spell's energy is spent, and the ring is empty.</p>\n<hr />\n<p><strong>Activate</strong> <span class=\"pf2-icon\">A</span> command</p>\n<p><strong>Effect</strong> You harmlessly expend the stored spell, having no effect but emptying the ring so that another spell can be cast into it.</p>"
        },
        "equipped": {
            "value": false
        },
        "equippedBulk": {
            "value": ""
        },
        "hardness": {
            "value": 0
        },
        "hp": {
            "value": 0
        },
        "identification": {
            "misidentified": {},
            "status": "identified",
            "unidentified": {
                "data": {
                    "description": {
                        "value": ""
                    }
                },
                "img": "",
                "name": ""
            }
        },
        "invested": {
            "value": false
        },
        "level": {
            "value": 10
        },
        "maxHp": {
            "value": 0
        },
        "negateBulk": {
            "value": ""
        },
        "preciousMaterial": {
            "value": ""
        },
        "preciousMaterialGrade": {
            "value": ""
        },
        "price": {
            "value": "925 gp"
        },
        "quantity": {
            "value": 1
        },
        "rules": [],
        "schema": {
            "lastMigration": null,
            "version": 0.649
        },
        "size": {
            "value": "med"
        },
        "source": {
            "value": ""
        },
        "stackGroup": {
            "value": ""
        },
        "traits": {
            "custom": "",
            "rarity": {
                "value": "uncommon"
            },
            "value": [
                "abjuration",
                "invested",
                "magical"
            ]
        },
        "usage": {
            "value": "worn"
        },
        "weight": {
            "value": "-"
        }
    },
    "effects": [],
    "flags": {},
    "img": "systems/pf2e/icons/equipment/worn-items/other-worn-items/ring-of-counterspells.webp",
    "name": "Ring of Counterspells",
    "type": "equipment"
}
