{
    "_id": "OX71iN2SXMWMeI5R",
    "data": {
        "baseItem": null,
        "brokenThreshold": {
            "value": 0
        },
        "bulkCapacity": {
            "value": ""
        },
        "collapsed": {
            "value": false
        },
        "containerId": {
            "value": ""
        },
        "description": {
            "value": "<p>Each of these full-face masks is made of stitched materials — often including humanoid skin — and has a single, bulbous eye. While wearing the mask, you gain a +1 item bonus to Deception checks to Lie and the mask doesn’t impair your vision. The mask can also be activated, with an ability based on its type.</p>\n<hr />\n<p>This monochrome mask is made of tattered rags of gray and black cloth and bleached fragments of skin.</p>\n<hr />\n<p><strong>Activate</strong> <span class=\"pf2-icon\">r</span> Interact (illusion, visual)</p>\n<p><strong>Trigger</strong> You succeed on a Thievery check to Steal an item of negligible Bulk</p>\n<p><strong>Frequency</strong> once per day</p>\n<p><strong>Effect</strong> You create an illusory duplicate of the item you just stole. This duplicate has the appropriate appearance and weight, but it doesn’t make sounds or generate smells. The illusion vanishes after 10 minutes, or earlier if anyone examines or manipulates the illusory duplicate (such as to try to use it).</p>"
        },
        "equipped": {
            "value": false
        },
        "equippedBulk": {
            "value": ""
        },
        "hardness": {
            "value": 0
        },
        "hp": {
            "value": 0
        },
        "identification": {
            "misidentified": {},
            "status": "identified",
            "unidentified": {
                "data": {
                    "description": {
                        "value": ""
                    }
                },
                "img": "",
                "name": ""
            }
        },
        "invested": {
            "value": false
        },
        "level": {
            "value": 5
        },
        "maxHp": {
            "value": 0
        },
        "negateBulk": {
            "value": "0"
        },
        "preciousMaterial": {
            "value": ""
        },
        "preciousMaterialGrade": {
            "value": ""
        },
        "price": {
            "value": "150 gp"
        },
        "quantity": {
            "value": 1
        },
        "rules": [
            {
                "key": "PF2E.RuleElement.FlatModifier",
                "label": "Secret-Keeper’s Mask",
                "predicate": {
                    "any": [
                        "action:lie"
                    ]
                },
                "selector": "deception",
                "type": "item",
                "value": 1
            }
        ],
        "schema": {
            "lastMigration": null,
            "version": 0.649
        },
        "size": {
            "value": "med"
        },
        "source": {
            "value": ""
        },
        "stackGroup": {
            "value": ""
        },
        "traits": {
            "custom": "",
            "rarity": {
                "value": "rare"
            },
            "usage": {
                "value": "wornmask"
            },
            "value": [
                "divination",
                "enchantment",
                "invested",
                "magical"
            ]
        },
        "usage": {
            "value": ""
        },
        "weight": {
            "value": "-"
        }
    },
    "effects": [],
    "flags": {},
    "img": "systems/pf2e/icons/equipment/worn-items/other-worn-items/secret-keepers-mask.webp",
    "name": "Secret-Keeper's Mask (Gray Master)",
    "type": "equipment"
}
