{
    "_id": "q3Eyp5ncO6lzvGnI",
    "data": {
        "baseItem": null,
        "brokenThreshold": {
            "value": 0
        },
        "bulkCapacity": {
            "value": ""
        },
        "collapsed": {
            "value": false
        },
        "containerId": {
            "value": ""
        },
        "description": {
            "value": "<p>Each of these full-face masks is made of stitched materials — often including humanoid skin — and has a single, bulbous eye. While wearing the mask, you gain a +1 item bonus to Deception checks to Lie and the mask doesn’t impair your vision. The mask can also be activated, with an ability based on its type.</p>\n<hr />\n<p>This mask is a patchwork of tanned skins, each with a distinctive scar. It is contorted into a caricature of a face with a leering eye.</p>\n<hr />\n<p><strong>Activate</strong> <span class=\"pf2-icon\">r</span> Interact</p>\n<p><strong>Trigger</strong> You deal persistent bleed damage to a creature</p>\n<p><strong>Frequency</strong> once per day</p>\n<p><strong>Effect</strong> The bleeding wound you cause is particularly mutilating. The DC of flat checks to recover from the persistent bleed damage is increased by 2, and the target creature has a –2 status penalty to Deception, Diplomacy, and Performance checks while it is bleeding and for 1 minute after it ceases bleeding.</p>"
        },
        "equipped": {
            "value": false
        },
        "equippedBulk": {
            "value": ""
        },
        "hardness": {
            "value": 0
        },
        "hp": {
            "value": 0
        },
        "identification": {
            "misidentified": {},
            "status": "identified",
            "unidentified": {
                "data": {
                    "description": {
                        "value": ""
                    }
                },
                "img": "",
                "name": ""
            }
        },
        "invested": {
            "value": false
        },
        "level": {
            "value": 0
        },
        "maxHp": {
            "value": 0
        },
        "negateBulk": {
            "value": "0"
        },
        "preciousMaterial": {
            "value": ""
        },
        "preciousMaterialGrade": {
            "value": ""
        },
        "price": {
            "value": "0 gp"
        },
        "quantity": {
            "value": 1
        },
        "rules": [
            {
                "key": "PF2E.RuleElement.FlatModifier",
                "label": "Secret-Keeper’s Mask",
                "predicate": {
                    "any": [
                        "action:lie"
                    ]
                },
                "selector": "deception",
                "type": "item",
                "value": 1
            }
        ],
        "schema": {
            "lastMigration": null,
            "version": 0.649
        },
        "size": {
            "value": "med"
        },
        "source": {
            "value": ""
        },
        "stackGroup": {
            "value": ""
        },
        "traits": {
            "custom": "",
            "rarity": {
                "value": "rare"
            },
            "usage": {
                "value": "wornmask"
            },
            "value": [
                "divination",
                "enchantment",
                "invested",
                "magical"
            ]
        },
        "usage": {
            "value": ""
        },
        "weight": {
            "value": "-"
        }
    },
    "effects": [],
    "flags": {},
    "img": "systems/pf2e/icons/equipment/worn-items/other-worn-items/secret-keepers-mask.webp",
    "name": "Secret-Keeper's Mask (Father Skinsaw)",
    "type": "equipment"
}
