{
    "_id": "ZKFmyG9fIoQWIrql",
    "data": {
        "baseItem": null,
        "brokenThreshold": {
            "value": 0
        },
        "bulkCapacity": {
            "value": ""
        },
        "collapsed": {
            "value": false
        },
        "containerId": {
            "value": ""
        },
        "description": {
            "chat": "",
            "unidentified": "",
            "value": "<p>These folding, wood-framed spectacles hold flat discs of cut crystal as lenses and are held in place with thin cords that wrap around each ear, with another strap holding them around the neck while not in use. While you are wearing the spectacles, you gain a +2 item bonus to checks to Decipher Writing.</p>\n<hr />\n<p><strong>Activate</strong> <span class=\"pf2-icon\">A</span> Interact;</p>\n<p><strong>Frequency</strong> once per day;</p>\n<p><strong>Effect</strong> Unfolding the spectacles onto the bridge of the nose, you gain the effects of 2nd-level @Compendium[pf2e.spells-srd.Comprehend Language]{Comprehend Language} until you fold up the spectacles or the item is no longer invested by you, whichever comes first, except that it applies to all languages you see rather than a single language, and it does not apply to language you hear.</p>\n<hr />\n<p>Automatically applied effects:</p>\n<ul>\n<li>+2 item bonus to checks to Decipher Writing</li>\n</ul>"
        },
        "equipped": {
            "value": false
        },
        "equippedBulk": {
            "value": ""
        },
        "hardness": {
            "value": 0
        },
        "hp": {
            "value": 0
        },
        "identification": {
            "misidentified": {},
            "status": "identified",
            "unidentified": {
                "data": {
                    "description": {
                        "value": ""
                    }
                },
                "img": "",
                "name": ""
            }
        },
        "invested": {
            "value": false
        },
        "level": {
            "value": 11
        },
        "maxHp": {
            "value": 0
        },
        "negateBulk": {
            "value": "0"
        },
        "preciousMaterial": {
            "value": ""
        },
        "preciousMaterialGrade": {
            "value": ""
        },
        "price": {
            "value": "1,200 gp"
        },
        "quantity": {
            "value": 1
        },
        "rules": [
            {
                "key": "PF2E.RuleElement.FlatModifier",
                "label": "Greater Spectacles of Understanding (Decipher Writing)",
                "predicate": {
                    "all": [
                        "action:decipher-writing"
                    ]
                },
                "selector": "skill-check",
                "type": "item",
                "value": 2
            }
        ],
        "schema": {
            "lastMigration": null,
            "version": 0.649
        },
        "size": {
            "value": "med"
        },
        "source": {
            "value": ""
        },
        "stackGroup": {
            "value": ""
        },
        "traits": {
            "custom": "",
            "rarity": {
                "value": "uncommon"
            },
            "value": [
                "divination",
                "invested",
                "magical"
            ]
        },
        "usage": {
            "value": "worneyepiece"
        },
        "weight": {
            "value": "-"
        }
    },
    "effects": [],
    "flags": {},
    "img": "systems/pf2e/icons/equipment/worn-items/other-worn-items/spectacles-of-understanding.webp",
    "name": "Spectacles of Understanding (Greater)",
    "type": "equipment"
}
