{
    "_id": "dh4FEXlA0FxTfnpY",
    "data": {
        "MAP": {
            "value": ""
        },
        "ability": {
            "value": "str"
        },
        "baseItem": "staff",
        "bonus": {
            "value": 0
        },
        "bonusDamage": {
            "value": 0
        },
        "brokenThreshold": {
            "value": 0
        },
        "bulkCapacity": {
            "value": ""
        },
        "collapsed": {
            "value": false
        },
        "containerId": {
            "value": ""
        },
        "damage": {
            "damageType": "bludgeoning",
            "dice": 1,
            "die": "d4",
            "value": ""
        },
        "description": {
            "chat": "",
            "unidentified": "",
            "value": "<p>This adamantine staff is fitted with mithral plates resembling battlements on a castle. Lesser cover, cover, and greater cover don't grant any bonus against your spell attacks or to saving throws against your spells that you cast from the staff.</p>\n<p><strong>Activate</strong> Cast a Spell;<strong>Effect</strong> You expend a number of charges from the staff to cast a spell from its list.</p>\n<ul>\n<li>\n<p><strong>Cantrip</strong> @Compendium[pf2e.spells-srd.Shield]{Shield}, @Compendium[pf2e.spells-srd.Telekinetic Projectile]{Telekinetic Projectile}</p>\n</li>\n<li>\n<p><strong>1st</strong> @Compendium[pf2e.spells-srd.Gust of Wind]{Gust of Wind}, @Compendium[pf2e.spells-srd.Longstrider]{Longstrider}</p>\n</li>\n<li>\n<p><strong>2nd</strong> @Compendium[pf2e.spells-srd.Obscuring Mist]{Obscuring Mist}, @Compendium[pf2e.spells-srd.Web]{Web}</p>\n</li>\n<li>\n<p><strong>3rd</strong> @Compendium[pf2e.spells-srd.Fireball]{Fireball}, @Compendium[pf2e.spells-srd.Wall of Wind]{Wall of Wind}</p>\n</li>\n<li>\n<p><strong>4th</strong> @Compendium[pf2e.spells-srd.Hallucinatory Terrain]{Hallucinatory Terrain}, @Compendium[pf2e.spells-srd.Solid Fog]{Solid Fog}, @Compendium[pf2e.spells-srd.Wall of Fire]{Wall of Fire}</p>\n</li>\n<li>\n<p><strong>5th</strong> @Compendium[pf2e.spells-srd.Cloudkill]{Cloudkill}, @Compendium[pf2e.spells-srd.Wall of Stone]{Wall of Stone}</p>\n</li>\n<li>\n<p><strong>6th</strong> @Compendium[pf2e.spells-srd.Fireball]{Fireball}, @Compendium[pf2e.spells-srd.Wall of Force]{Wall of Force}</p>\n</li>\n<li>\n<p><strong>7th</strong> @Compendium[pf2e.spells-srd.Magnificent Mansion]{Magnificent Mansion}, @Compendium[pf2e.spells-srd.Prismatic Spray]{Prismatic Spray}</p>\n</li>\n<li>\n<p><strong>8th</strong> @Compendium[pf2e.spells-srd.Earthquake]{Earthquake}, @Compendium[pf2e.spells-srd.Scintillating Pattern]{Scintillating Pattern}</p>\n</li>\n<li>\n<p><strong>9th</strong> @Compendium[pf2e.spells-srd.Meteor Swarm]{Meteor Swarm}</p>\n</li>\n</ul>"
        },
        "equipped": {
            "value": false
        },
        "equippedBulk": {
            "value": ""
        },
        "group": {
            "value": "club"
        },
        "hands": {
            "value": ""
        },
        "hardness": {
            "value": 0
        },
        "hp": {
            "value": 0
        },
        "identification": {
            "misidentified": {},
            "status": "identified",
            "unidentified": {
                "data": {
                    "description": {
                        "value": ""
                    }
                },
                "img": "",
                "name": ""
            }
        },
        "invested": {
            "value": false
        },
        "level": {
            "value": 20
        },
        "maxHp": {
            "value": 0
        },
        "negateBulk": {
            "value": "0"
        },
        "potencyRune": {
            "value": null
        },
        "preciousMaterial": {
            "value": ""
        },
        "preciousMaterialGrade": {
            "value": ""
        },
        "price": {
            "value": "65,000 gp"
        },
        "property1": {
            "critDamage": "",
            "critDamageType": "",
            "critDice": null,
            "critDie": "",
            "criticalConditionType": "",
            "criticalConditionValue": null,
            "damageType": "",
            "dice": null,
            "die": "",
            "strikeConditionType": "",
            "strikeConditionValue": null,
            "value": ""
        },
        "propertyRune1": {
            "value": ""
        },
        "propertyRune2": {
            "value": ""
        },
        "propertyRune3": {
            "value": ""
        },
        "propertyRune4": {
            "value": ""
        },
        "quantity": {
            "value": 1
        },
        "range": {
            "value": "melee"
        },
        "reload": {
            "value": ""
        },
        "rules": [],
        "schema": {
            "lastMigration": null,
            "version": 0.649
        },
        "size": {
            "value": "med"
        },
        "source": {
            "value": ""
        },
        "splashDamage": {
            "value": null
        },
        "stackGroup": {
            "value": ""
        },
        "strikingRune": {
            "value": ""
        },
        "traits": {
            "custom": "",
            "rarity": {
                "value": "uncommon"
            },
            "value": [
                "evocation",
                "magical",
                "staff",
                "two-hand-d8"
            ]
        },
        "usage": {
            "value": "held-in-one-hand"
        },
        "weaponType": {
            "value": "simple"
        },
        "weight": {
            "value": "1"
        }
    },
    "effects": [],
    "flags": {},
    "img": "systems/pf2e/icons/equipment/staves/staff-of-sieges.webp",
    "name": "Staff of Sieges",
    "type": "weapon"
}
