{
    "_id": "lID4rJHAVZB6tavf",
    "data": {
        "actionCategory": {
            "value": "offensive"
        },
        "actionType": {
            "value": "action"
        },
        "actions": {
            "value": "3"
        },
        "description": {
            "value": "<p><strong>Requirements</strong> You are piloting a vehicle.</p>\n<p>(reckless) You try to run over creatures with your vehicle, possibly also ramming one larger creature or object. If you maintain control of your vehicle, the vehicle moves up to twice its Speed in a straight line at the vehicle's current heading. You attempt to run over any creatures in your path two sizes smaller than the vehicle or smaller, and you can attempt to ram one target creature or object in your path one size smaller than the vehicle or larger.</p>\n<p>Each creature in your path, including a rammed target, takes the vehicle's collision damage (basic Reflex save at vehicle's collision DC). If the rammed target is a vehicle, its pilot can attempt a piloting check in place of this Reflex save, with the same results. If the target of your ram takes damage, you and your vehicle each take collision damage (no save) and your movement ends.</p>"
        },
        "requirements": {
            "value": ""
        },
        "rules": [],
        "schema": {
            "lastMigration": null,
            "version": 0.649
        },
        "source": {
            "value": ""
        },
        "traits": {
            "custom": "",
            "rarity": {
                "value": "common"
            },
            "value": [
                "move"
            ]
        },
        "trigger": {
            "value": ""
        },
        "weapon": {
            "value": ""
        }
    },
    "effects": [],
    "flags": {},
    "img": "systems/pf2e/icons/actions/ThreeActions.webp",
    "name": "Run Over",
    "type": "action"
}
