{
    "_id": "hkGMvgL9IOZcAKyc",
    "data": {
        "abilities": {
            "cha": {
                "mod": 4
            },
            "con": {
                "mod": 6
            },
            "dex": {
                "mod": 6
            },
            "int": {
                "mod": 1
            },
            "str": {
                "mod": 8
            },
            "wis": {
                "mod": 2
            }
        },
        "attributes": {
            "ac": {
                "details": "",
                "value": 37
            },
            "allSaves": {
                "value": ""
            },
            "hp": {
                "details": "troop defenses",
                "max": 270,
                "temp": 0,
                "value": 270
            },
            "initiative": {
                "ability": "perception"
            },
            "perception": {
                "value": 23
            },
            "shield": {
                "ac": 0,
                "brokenThreshold": 0,
                "hardness": 0,
                "max": 0,
                "value": 0
            },
            "speed": {
                "otherSpeeds": [],
                "value": "30"
            }
        },
        "details": {
            "alignment": {
                "value": "N"
            },
            "creatureType": "",
            "level": {
                "value": 15
            },
            "source": {
                "value": "Pathfinder #166: Despair on Danger Island"
            }
        },
        "resources": {},
        "saves": {
            "fortitude": {
                "saveDetail": "",
                "value": 29
            },
            "reflex": {
                "saveDetail": "",
                "value": 23
            },
            "will": {
                "saveDetail": "",
                "value": 23
            }
        },
        "schema": {
            "lastMigration": null,
            "version": 0.649
        },
        "traits": {
            "attitude": {
                "value": "hostile"
            },
            "ci": [],
            "di": {
                "custom": "",
                "value": []
            },
            "dr": [],
            "dv": [
                {
                    "label": "Area Damage",
                    "type": "area-damage",
                    "value": "20"
                },
                {
                    "label": "Splash Damage",
                    "type": "splash-damage",
                    "value": "10"
                }
            ],
            "languages": {
                "custom": "",
                "selected": [],
                "value": [
                    "taldane",
                    "tien"
                ]
            },
            "rarity": {
                "value": "unique"
            },
            "senses": {
                "value": ""
            },
            "size": {
                "value": "med"
            },
            "traits": {
                "custom": "",
                "value": [
                    "human",
                    "humanoid",
                    "troop"
                ]
            }
        }
    },
    "effects": [],
    "flags": {},
    "img": "systems/pf2e/icons/default-icons/npc.svg",
    "items": [
        {
            "_id": "WkgxMHIjmXBOsjXo",
            "data": {
                "actionCategory": {
                    "value": "interaction"
                },
                "actionType": {
                    "value": "action"
                },
                "actions": {
                    "value": "1"
                },
                "description": {
                    "value": "<p>The troop chooses one of the squares it currently occupies and redistributes its squares to any configuration in which all squares are contiguous and within 15 feet of the chosen square. The troop can’t share its space with other creatures.</p>"
                },
                "requirements": {
                    "value": ""
                },
                "rules": [],
                "schema": {
                    "lastMigration": null,
                    "version": 0.649
                },
                "slug": "form-up",
                "source": {
                    "value": ""
                },
                "traits": {
                    "custom": "",
                    "rarity": {
                        "value": "common"
                    },
                    "value": []
                },
                "trigger": {
                    "value": ""
                },
                "weapon": {
                    "value": ""
                }
            },
            "effects": [],
            "flags": {
                "core": {
                    "sourceId": "Compendium.pf2e.bestiary-ability-glossary-srd.OvqohW9YuahnFaiX"
                }
            },
            "img": "systems/pf2e/icons/actions/OneAction.webp",
            "name": "Form Up",
            "sort": 100000,
            "type": "action"
        },
        {
            "_id": "WUB7lulreTgWqFs0",
            "data": {
                "actionCategory": {
                    "value": "interaction"
                },
                "actionType": {
                    "value": "passive"
                },
                "actions": {
                    "value": ""
                },
                "description": {
                    "value": "<p>Whenever Hana's Hundreds Strides, the team first Forms Up as a free action to condense into a 20-foot-by-20-foot area (minus any missing squares), then moves up to its Speed. This works just like a Gargantuan creature moving; for instance, if any square of the team enters difficult terrain, the extra movement cost applies to the whole team.</p>"
                },
                "requirements": {
                    "value": ""
                },
                "rules": [],
                "schema": {
                    "lastMigration": null,
                    "version": 0.649
                },
                "slug": null,
                "source": {
                    "value": ""
                },
                "traits": {
                    "custom": "",
                    "rarity": {
                        "value": "common"
                    },
                    "value": []
                },
                "trigger": {
                    "value": ""
                },
                "weapon": {
                    "value": ""
                }
            },
            "effects": [],
            "flags": {},
            "img": "systems/pf2e/icons/actions/Passive.webp",
            "name": "Troop Movement",
            "sort": 200000,
            "type": "action"
        },
        {
            "_id": "8KHBxGEYdqN6b2Dt",
            "data": {
                "actionCategory": {
                    "value": "defensive"
                },
                "actionType": {
                    "value": "passive"
                },
                "actions": {
                    "value": ""
                },
                "description": {
                    "value": "<p><strong>Thresholds</strong> 180 (12 squares), 90 (8 squares)</p>\n<p>Troops are composed of many individuals, and over the course of enough attacks and downed comrades, troops shrink in size. Most troops start with 16 squares (4 by 4), and their Hit Points have two listed thresholds, typically the first is at 2/3 their maximum Hit Points and the second is at 1/3 their maximum Hit Points. Once the troop drops below the first threshold, it loses 4 squares, leaving 12 squares remaining, and the first threshold becomes the troop’s new maximum Hit Points. Once the troop falls below the second threshold, it loses another 4 squares, leaving 8 squares remaining, and the second threshold becomes the troop’s new maximum Hit Points. In order to restore its size and maximum Hit Points, a troop needs to spend downtime to use long-term treatment on casualties or recruit new members to replace the fallen. At 0 Hit Points, the troop is reduced down to 4 squares, which is too few to sustain the troop, so it disperses entirely, with the few remaining members surrendering, fleeing, or easily dispatched, depending on their nature.</p>\n<p>A damaging single-target effect, such as a Strike, can’t force a troop to pass through more than one threshold at once. For instance, if a troop had 60 Hit Points, with thresholds at 40 and 20, a Strike for 50 damage would leave the troop at 21 Hit Points, just above the second threshold. A damaging area effect or multi-target effect can cross multiple thresholds at once and could potentially destroy the entire troop in one shot.</p>\n<p>Non-damaging effects with an area or that target all creatures in a certain proximity affect a troop normally if they affect the entire area occupied by the troop. If an effect has a smaller area or numbers of targets, it typically has no effect on the troop. However, if the effect can target at least four creatures or cover at least four squares in the troop, and if it would prevent its targets from acting, cause them to flee, or otherwise make them unable to function as part of the troop for a round or more, the troop loses loses a number of Hit Points equal to the amount required to bring it to the next threshold, removing 4 squares. If an effect would both deal damage and automatically cross a threshold due to incapacitating some of the creatures in the troop, apply the damage first. If the damage wasn’t enough to cross a threshold on its own, then reduce the Hit Points to cross the threshold for the incapacitating effect.</p>"
                },
                "requirements": {
                    "value": ""
                },
                "rules": [],
                "schema": {
                    "lastMigration": null,
                    "version": 0.649
                },
                "slug": "troop-defenses",
                "source": {
                    "value": ""
                },
                "traits": {
                    "custom": "",
                    "rarity": {
                        "value": "common"
                    },
                    "value": []
                },
                "trigger": {
                    "value": ""
                },
                "weapon": {
                    "value": ""
                }
            },
            "effects": [],
            "flags": {
                "core": {
                    "sourceId": "Compendium.pf2e.bestiary-ability-glossary-srd.RJbI07QSiYp0SF9A"
                }
            },
            "img": "systems/pf2e/icons/actions/Passive.webp",
            "name": "Troop Defenses",
            "sort": 300000,
            "type": "action"
        },
        {
            "_id": "f4G7Q9LKy3OXsxWz",
            "data": {
                "actionCategory": {
                    "value": "offensive"
                },
                "actionType": {
                    "value": "action"
                },
                "actions": {
                    "value": "2"
                },
                "description": {
                    "value": "<p>Hana's Hundreds launch a volley of throwing knives in a 10-foot burst within 50 feet that deals [[/r 4d6+13 # piercing damage]]{4d6+13 piercing damage} (<span data-pf2-check=\"reflex\" data-pf2-traits=\"damaging-effect\" data-pf2-label=\"Rain of Knives DC\" data-pf2-dc=\"33\" data-pf2-show-dc=\"gm\">basic Reflex</span>). When the team is reduced to 8 or fewer squares, this area decreases to a 5-foot burst</p>"
                },
                "requirements": {
                    "value": ""
                },
                "rules": [],
                "schema": {
                    "lastMigration": null,
                    "version": 0.649
                },
                "slug": null,
                "source": {
                    "value": ""
                },
                "traits": {
                    "custom": "",
                    "rarity": {
                        "value": "common"
                    },
                    "value": []
                },
                "trigger": {
                    "value": ""
                },
                "weapon": {
                    "value": ""
                }
            },
            "effects": [],
            "flags": {},
            "img": "systems/pf2e/icons/actions/TwoActions.webp",
            "name": "Rain of Knives",
            "sort": 400000,
            "type": "action"
        },
        {
            "_id": "fIl5mjQ9QlP5xgnM",
            "data": {
                "actionCategory": {
                    "value": "offensive"
                },
                "actionType": {
                    "value": "action"
                },
                "actions": {
                    "value": "3"
                },
                "description": {
                    "value": "<p>Hana's Hundreds attempt to trample all foes in their way. The team Forms Up and Strides twice, moving through the space of Medium or smaller creatures. Each creature the team moves through takes [[/r 4d8+14 # bludgeoning damage]]{4d8+14 bludgeoning damage} (<span data-pf2-check=\"reflex\" data-pf2-traits=\"damaging-effect\" data-pf2-label=\"Rune Them Over! DC\" data-pf2-dc=\"33\" data-pf2-show-dc=\"gm\">basic Reflex</span> save). On a critical failure, the creature is also knocked @Compendium[pf2e.conditionitems.Prone]{Prone}.</p>"
                },
                "requirements": {
                    "value": ""
                },
                "rules": [],
                "schema": {
                    "lastMigration": null,
                    "version": 0.649
                },
                "slug": null,
                "source": {
                    "value": ""
                },
                "traits": {
                    "custom": "",
                    "rarity": {
                        "value": "common"
                    },
                    "value": []
                },
                "trigger": {
                    "value": ""
                },
                "weapon": {
                    "value": ""
                }
            },
            "effects": [],
            "flags": {},
            "img": "systems/pf2e/icons/actions/ThreeActions.webp",
            "name": "Run Them Over!",
            "sort": 500000,
            "type": "action"
        },
        {
            "_id": "eo8iqqPAWtfCmzx8",
            "data": {
                "actionCategory": {
                    "value": "offensive"
                },
                "actionType": {
                    "value": "action"
                },
                "actions": {
                    "value": "1"
                },
                "description": {
                    "value": "<p><strong>Frequency</strong> once per round</p>\n<p>Hana's Hundreds flail their swords wildly at each enemy adjacent to the team (<span data-pf2-check=\"reflex\" data-pf2-traits=\"damaging-effect\" data-pf2-label=\"\" data-pf2-dc=\"33\" data-pf2-show-dc=\"gm\">basic Reflex</span> save). The damage depends on the number of actions.</p>\n<hr />\n<p><span class=\"pf2-icon\">1 </span>[[/r 2d8 # slashing damage]]{2d8 slashing damage}</p>\n<p><span class=\"pf2-icon\">2 </span>[[/r 3d8+13 # slashing damage]]{3d8+13 slashing damage}</p>\n<p><span class=\"pf2-icon\">3 </span>[[/r 4d8+16 # slashing damage]]{4d8+16 slashing damage}</p>"
                },
                "requirements": {
                    "value": ""
                },
                "rules": [],
                "schema": {
                    "lastMigration": null,
                    "version": 0.649
                },
                "slug": null,
                "source": {
                    "value": ""
                },
                "traits": {
                    "custom": "",
                    "rarity": {
                        "value": "common"
                    },
                    "value": []
                },
                "trigger": {
                    "value": ""
                },
                "weapon": {
                    "value": ""
                }
            },
            "effects": [],
            "flags": {},
            "img": "systems/pf2e/icons/actions/OneAction.webp",
            "name": "Whirlwind of Blades",
            "sort": 600000,
            "type": "action"
        },
        {
            "_id": "s0MuIZ3bVj7LGbP1",
            "data": {
                "description": {
                    "value": ""
                },
                "mod": {
                    "value": 27
                },
                "proficient": {
                    "value": 0
                },
                "rules": [],
                "schema": {
                    "lastMigration": null,
                    "version": 0.649
                },
                "slug": null,
                "source": {
                    "value": ""
                },
                "traits": {
                    "custom": "",
                    "rarity": {
                        "value": "common"
                    },
                    "value": []
                }
            },
            "effects": [],
            "flags": {},
            "img": "systems/pf2e/icons/default-icons/lore.svg",
            "name": "Acrobatics",
            "sort": 700000,
            "type": "lore"
        },
        {
            "_id": "HjccGbnQ2CkKstaz",
            "data": {
                "description": {
                    "value": ""
                },
                "mod": {
                    "value": 30
                },
                "proficient": {
                    "value": 0
                },
                "rules": [],
                "schema": {
                    "lastMigration": null,
                    "version": 0.649
                },
                "slug": null,
                "source": {
                    "value": ""
                },
                "traits": {
                    "custom": "",
                    "rarity": {
                        "value": "common"
                    },
                    "value": []
                }
            },
            "effects": [],
            "flags": {},
            "img": "systems/pf2e/icons/default-icons/lore.svg",
            "name": "Athletics",
            "sort": 800000,
            "type": "lore"
        },
        {
            "_id": "1UJW0YkYQNdgquRT",
            "data": {
                "description": {
                    "value": ""
                },
                "mod": {
                    "value": 27
                },
                "proficient": {
                    "value": 0
                },
                "rules": [],
                "schema": {
                    "lastMigration": null,
                    "version": 0.649
                },
                "slug": null,
                "source": {
                    "value": ""
                },
                "traits": {
                    "custom": "",
                    "rarity": {
                        "value": "common"
                    },
                    "value": []
                }
            },
            "effects": [],
            "flags": {},
            "img": "systems/pf2e/icons/default-icons/lore.svg",
            "name": "Intimidation",
            "sort": 900000,
            "type": "lore"
        }
    ],
    "name": "Hana's Hundreds",
    "token": {
        "disposition": -1,
        "height": 1,
        "img": "systems/pf2e/icons/default-icons/npc.svg",
        "name": "Hana's Hundreds",
        "width": 1
    },
    "type": "npc"
}
