{
    "_id": "KHPOm5KHtbMNzcx7",
    "data": {
        "abilities": {
            "cha": {
                "mod": 0
            },
            "con": {
                "mod": 0
            },
            "dex": {
                "mod": 0
            },
            "int": {
                "mod": 0
            },
            "str": {
                "mod": 0
            },
            "wis": {
                "mod": 0
            }
        },
        "attributes": {
            "ac": {
                "details": "",
                "value": 21
            },
            "allSaves": {
                "value": ""
            },
            "hp": {
                "details": "",
                "max": 75,
                "temp": 0,
                "value": 75
            },
            "initiative": {
                "ability": "perception"
            },
            "perception": {
                "value": 12
            },
            "shield": {
                "ac": 0,
                "brokenThreshold": 0,
                "hardness": 0,
                "max": 0,
                "value": 0
            },
            "speed": {
                "otherSpeeds": [],
                "value": "25"
            }
        },
        "details": {
            "alignment": {
                "value": "NE"
            },
            "creatureType": "",
            "flavorText": "<p>Resembling hornless goats with extremely long tails, sigbins live in forests and prey on inhabitants of nearby humanoid villages. Sigbins drink the blood of their victims by biting into their shadows, rather than their flesh. This process typically leaves the victim so fatigued that they must lie down to rest, at which point the sigbin finishes the job by sinking their jaws into the person's chest and consuming their heart.</p>\n<p>Due to their nauseating smell, many sigbins hide among livestock and in other overwhelmingly odorous places. Sigbins have the ability to hide in plain sight simply by standing stock still, but this power works only against adults and elders; for whatever reason, children and young animals can see the invisible sigbins. Many believe this is because children are unsullied by the cruel ways of the world, and so their eyes are still innocent enough to spot the devious beasts. Unfortunately, most adults tend to ignore children's cries about the monsters, chalking up such claims to overactive imaginations or attention-seeking behavior, inadvertently allowing sigbins to continue their hunts uninterrupted.</p>",
            "level": {
                "value": 5
            },
            "source": {
                "value": "Pathfinder #166: Despair on Danger Island"
            }
        },
        "resources": {},
        "saves": {
            "fortitude": {
                "saveDetail": "",
                "value": 13
            },
            "reflex": {
                "saveDetail": "",
                "value": 16
            },
            "will": {
                "saveDetail": "",
                "value": 8
            }
        },
        "schema": {
            "lastMigration": null,
            "version": 0.649
        },
        "traits": {
            "attitude": {
                "value": "hostile"
            },
            "ci": [],
            "di": {
                "custom": "",
                "value": []
            },
            "dr": [],
            "dv": [],
            "languages": {
                "custom": "(can't speak any language)",
                "selected": [],
                "value": [
                    "common",
                    "custom"
                ]
            },
            "rarity": {
                "value": "common"
            },
            "senses": {
                "value": "darkvision, scent (imprecise) 30 feet"
            },
            "size": {
                "value": "sm"
            },
            "traits": {
                "custom": "",
                "value": [
                    "beast"
                ]
            }
        }
    },
    "effects": [],
    "flags": {},
    "img": "systems/pf2e/icons/default-icons/npc.svg",
    "items": [
        {
            "_id": "fVfVD1mCxzdOlLAd",
            "data": {
                "attack": {
                    "value": ""
                },
                "attackEffects": {
                    "value": []
                },
                "bonus": {
                    "value": 14
                },
                "damageRolls": {
                    "qbxvih9k0o3xn7xdpwws": {
                        "damage": "2d4+5",
                        "damageType": "slashing"
                    }
                },
                "description": {
                    "value": ""
                },
                "rules": [],
                "schema": {
                    "lastMigration": null,
                    "version": 0.649
                },
                "slug": null,
                "source": {
                    "value": ""
                },
                "traits": {
                    "custom": "",
                    "rarity": {
                        "value": "common"
                    },
                    "value": [
                        "agile",
                        "finesse"
                    ]
                },
                "weaponType": {
                    "value": "melee"
                }
            },
            "effects": [],
            "flags": {},
            "img": "systems/pf2e/icons/default-icons/melee.svg",
            "name": "Claws",
            "sort": 100000,
            "type": "melee"
        },
        {
            "_id": "7lOrdawc6xArbSdj",
            "data": {
                "attack": {
                    "value": ""
                },
                "attackEffects": {
                    "value": []
                },
                "bonus": {
                    "value": 14
                },
                "damageRolls": {
                    "v06rnsvcv8jpqm6tv54x": {
                        "damage": "2d6+5",
                        "damageType": "acid"
                    }
                },
                "description": {
                    "value": ""
                },
                "rules": [],
                "schema": {
                    "lastMigration": null,
                    "version": 0.649
                },
                "slug": null,
                "source": {
                    "value": ""
                },
                "traits": {
                    "custom": "",
                    "rarity": {
                        "value": "common"
                    },
                    "value": [
                        "finesse"
                    ]
                },
                "weaponType": {
                    "value": "melee"
                }
            },
            "effects": [],
            "flags": {},
            "img": "systems/pf2e/icons/default-icons/melee.svg",
            "name": "Fangs",
            "sort": 200000,
            "type": "melee"
        },
        {
            "_id": "Hqk3Fkvq4XWZvng8",
            "data": {
                "attack": {
                    "value": ""
                },
                "attackEffects": {
                    "custom": "",
                    "value": [
                        "knockdown"
                    ]
                },
                "bonus": {
                    "value": 12
                },
                "damageRolls": {
                    "rvdjye7sxr22032k4r0e": {
                        "damage": "2d4+5",
                        "damageType": "bludgeoning"
                    }
                },
                "description": {
                    "value": ""
                },
                "rules": [],
                "schema": {
                    "lastMigration": null,
                    "version": 0.649
                },
                "slug": null,
                "source": {
                    "value": ""
                },
                "traits": {
                    "custom": "",
                    "rarity": {
                        "value": "common"
                    },
                    "value": [
                        "agile",
                        "finesse",
                        "reach-10"
                    ]
                },
                "weaponType": {
                    "value": "melee"
                }
            },
            "effects": [],
            "flags": {},
            "img": "systems/pf2e/icons/default-icons/melee.svg",
            "name": "Tail",
            "sort": 300000,
            "type": "melee"
        },
        {
            "_id": "zZZ3CZFxvVyDfwHw",
            "data": {
                "actionCategory": {
                    "value": "interaction"
                },
                "actionType": {
                    "value": "passive"
                },
                "actions": {
                    "value": ""
                },
                "description": {
                    "value": "<p>A monster with darkvision can see perfectly well in areas of darkness and dim light, though such vision is in black and white only. Some forms of magical darkness, such as a 4th-level @Compendium[pf2e.spells-srd.Darkness]{Darkness} spell, block normal darkvision. A monster with @Compendium[pf2e.bestiary-ability-glossary-srd.Greater Darkvision]{Greater Darkvision}, however, can see through even these forms of magical darkness.</p>"
                },
                "requirements": {
                    "value": ""
                },
                "rules": [],
                "schema": {
                    "lastMigration": null,
                    "version": 0.649
                },
                "slug": "darkvision",
                "source": {
                    "value": ""
                },
                "traits": {
                    "custom": "",
                    "rarity": {
                        "value": "common"
                    },
                    "value": []
                },
                "trigger": {
                    "value": ""
                },
                "weapon": {
                    "value": ""
                }
            },
            "effects": [],
            "flags": {
                "core": {
                    "sourceId": "Compendium.pf2e.bestiary-ability-glossary-srd.qCCLZhnp2HhP3Ex6"
                }
            },
            "img": "systems/pf2e/icons/default-icons/action.svg",
            "name": "Darkvision",
            "sort": 400000,
            "type": "action"
        },
        {
            "_id": "3sGOIcfYzt3l36nR",
            "data": {
                "actionCategory": {
                    "value": "interaction"
                },
                "actionType": {
                    "value": "passive"
                },
                "actions": {
                    "value": ""
                },
                "description": {
                    "value": "<p>Scent involves sensing creatures or objects by smell, and is usually a vague sense. The range is listed in the ability, and it functions only if the creature or object being detected emits an aroma (for instance, incorporeal creatures usually do not exude an aroma).</p>\n<p>If a creature emits a heavy aroma or is upwind, the GM can double or even triple the range of scent abilities used to detect that creature, and the GM can reduce the range if a creature is downwind.</p>"
                },
                "requirements": {
                    "value": ""
                },
                "rules": [],
                "schema": {
                    "lastMigration": null,
                    "version": 0.649
                },
                "slug": "scent",
                "source": {
                    "value": ""
                },
                "traits": {
                    "custom": "",
                    "rarity": {
                        "value": "common"
                    },
                    "value": []
                },
                "trigger": {
                    "value": ""
                },
                "weapon": {
                    "value": ""
                }
            },
            "effects": [],
            "flags": {
                "core": {
                    "sourceId": "Compendium.pf2e.bestiary-ability-glossary-srd.rqfnQ5VHT5hxm25r"
                }
            },
            "img": "systems/pf2e/icons/actions/Passive.webp",
            "name": "Scent",
            "sort": 500000,
            "type": "action"
        },
        {
            "_id": "oFjTKBFMhL9Tuvj2",
            "data": {
                "actionCategory": {
                    "value": "interaction"
                },
                "actionType": {
                    "value": "passive"
                },
                "actions": {
                    "value": ""
                },
                "description": {
                    "value": "<p><span style=\"color: var(--body); font-size: 1em;\">@Compendium[pf2e.bestiary-ability-glossary-srd.Aura]{Aura} </span>30 feet.</p>\n<p>A creature that enters the emanation must attempt a <span data-pf2-check=\"fortitude\" data-pf2-traits=\"aura,olfactory\" data-pf2-label=\"Stench\" data-pf2-dc=\"19\" data-pf2-show-dc=\"gm\">Fortitude</span> save. On a failure, the creature is @Compendium[pf2e.conditionitems.Sickened]{Sickened 1}, or @Compendium[pf2e.conditionitems.Sickened]{Sickened 2} on a critical failure. While within the aura, the creature takes a –2 circumstance penalty to saves to recover from the sickened condition. A creature that succeeds at its save is immune to all sigbins' stenches for 1 minute.</p>"
                },
                "requirements": {
                    "value": ""
                },
                "rules": [],
                "schema": {
                    "lastMigration": null,
                    "version": 0.649
                },
                "slug": null,
                "source": {
                    "value": ""
                },
                "traits": {
                    "custom": "",
                    "rarity": {
                        "value": "common"
                    },
                    "value": []
                },
                "trigger": {
                    "value": ""
                },
                "weapon": {
                    "value": ""
                }
            },
            "effects": [],
            "flags": {},
            "img": "systems/pf2e/icons/actions/Passive.webp",
            "name": "Stench",
            "sort": 600000,
            "type": "action"
        },
        {
            "_id": "aoFCzcCedEl33Kaa",
            "data": {
                "actionCategory": {
                    "value": "interaction"
                },
                "actionType": {
                    "value": "passive"
                },
                "actions": {
                    "value": ""
                },
                "description": {
                    "value": "<p>A sigbin becomes almost imperceptible if it stands completely still. If the sigbin does not move or attack during its turn, it becomes @Compendium[pf2e.conditionitems.Invisible]{Invisible}. It remains invisible until it moves or takes a hostile action. Children and young creatures, like animal cubs, can see the sigbin normally, even while it’s invisible.</p>"
                },
                "requirements": {
                    "value": ""
                },
                "rules": [],
                "schema": {
                    "lastMigration": null,
                    "version": 0.649
                },
                "slug": null,
                "source": {
                    "value": ""
                },
                "traits": {
                    "custom": "",
                    "rarity": {
                        "value": "common"
                    },
                    "value": []
                },
                "trigger": {
                    "value": ""
                },
                "weapon": {
                    "value": ""
                }
            },
            "effects": [],
            "flags": {},
            "img": "systems/pf2e/icons/actions/Passive.webp",
            "name": "Unassuming Cloak",
            "sort": 700000,
            "type": "action"
        },
        {
            "_id": "iffe9TUd9KOLBc36",
            "data": {
                "actionCategory": {
                    "value": "offensive"
                },
                "actionType": {
                    "value": "action"
                },
                "actions": {
                    "value": "1"
                },
                "description": {
                    "value": "<p><strong>Requirements</strong> The monster's last action was a success with a Strike that lists Knockdown in its damage entry.</p>\n<p><strong>Effect</strong> The monster knocks the target @Compendium[pf2e.conditionitems.Prone]{Prone}.</p>"
                },
                "requirements": {
                    "value": ""
                },
                "rules": [],
                "schema": {
                    "lastMigration": null,
                    "version": 0.649
                },
                "slug": "knockdown",
                "source": {
                    "value": ""
                },
                "traits": {
                    "custom": "",
                    "rarity": {
                        "value": "common"
                    },
                    "value": []
                },
                "trigger": {
                    "value": ""
                },
                "weapon": {
                    "value": ""
                }
            },
            "effects": [],
            "flags": {
                "core": {
                    "sourceId": "Compendium.pf2e.bestiary-ability-glossary-srd.BCLvAx4Pz4MLa2pu"
                }
            },
            "img": "systems/pf2e/icons/actions/OneAction.webp",
            "name": "Knockdown",
            "sort": 800000,
            "type": "action"
        },
        {
            "_id": "05u3hFT5HVFYw4aj",
            "data": {
                "actionCategory": {
                    "value": "offensive"
                },
                "actionType": {
                    "value": "action"
                },
                "actions": {
                    "value": "2"
                },
                "description": {
                    "value": "<p><strong>Requirements</strong> The sigbin is unnoticed by its target.</p>\n<p><strong>Effect</strong> The sigbin makes a fangs Strike (unlike other Strikes, this does not end its invisibility if the sigbin is invisible). On a hit, the target takes nonlethal damage from the Strike and becomes @Compendium[pf2e.conditionitems.Drained]{Drained 1} (@Compendium[pf2e.conditionitems.Drained]{Drained 2} on a critical hit). The sigbin gains 15 temporary Hit Points that remain for 1 hour.</p>"
                },
                "requirements": {
                    "value": ""
                },
                "rules": [],
                "schema": {
                    "lastMigration": null,
                    "version": 0.649
                },
                "slug": null,
                "source": {
                    "value": ""
                },
                "traits": {
                    "custom": "",
                    "rarity": {
                        "value": "common"
                    },
                    "value": []
                },
                "trigger": {
                    "value": ""
                },
                "weapon": {
                    "value": ""
                }
            },
            "effects": [],
            "flags": {},
            "img": "systems/pf2e/icons/actions/TwoActions.webp",
            "name": "Shadow Drain",
            "sort": 900000,
            "type": "action"
        }
    ],
    "name": "Sigbin",
    "token": {
        "disposition": -1,
        "height": 1,
        "img": "systems/pf2e/icons/default-icons/npc.svg",
        "name": "Sigbin",
        "width": 1
    },
    "type": "npc"
}
