{
    "_id": "1xHHvQlW4pRR89qj",
    "data": {
        "description": {
            "chat": "",
            "unidentified": "",
            "value": "<p>Granted by @Compendium[pf2e.equipment-srd.Stone Body Mutagen (Moderate)]{Stone Body Mutagen (Moderate)}</p>\n<p>Implemented effects:</p>\n<ul>\n<li>-2 penalty to Reflex saves</li>\n<li>-10 foot penalty to Speed</li>\n</ul>\n<p>Unimplemented effects:</p>\n<ul>\n<li>Resistance 5 to physical damage (except bludgeoning)</li>\n</ul>"
        },
        "duration": {
            "expiry": "turn-start",
            "sustained": false,
            "unit": "hours",
            "value": 1
        },
        "level": {
            "value": 12
        },
        "rules": [
            {
                "key": "PF2E.RuleElement.FlatModifier",
                "label": "Stone Body Mutagen (Moderate)",
                "selector": "reflex",
                "type": "untyped",
                "value": -2
            },
            {
                "key": "PF2E.RuleElement.TokenEffectIcon"
            },
            {
                "key": "PF2E.RuleElement.FlatModifier",
                "selector": "speed",
                "value": -10
            }
        ],
        "schema": {
            "lastMigration": null,
            "version": 0.649
        },
        "source": {
            "value": ""
        },
        "start": {
            "initiative": null,
            "value": 0
        },
        "traits": {
            "custom": "",
            "rarity": {
                "value": "common"
            },
            "value": []
        }
    },
    "effects": [],
    "flags": {},
    "img": "systems/pf2e/icons/equipment/alchemical-items/alchemical-elixirs/stone-body-mutagen.webp",
    "name": "Effect: Stone Body Mutagen (Moderate)",
    "type": "effect"
}
