{
    "_id": "xFQRiVU6h8EA6Lw9",
    "data": {
        "description": {
            "chat": "",
            "unidentified": "",
            "value": "<p>Granted by @Compendium[pf2e.equipment-srd.Bestial Mutagen (Moderate)]{Bestial Mutagen (Moderate)}</p>\n<p>Implemented effects:</p>\n<ul>\n<li>+2 item bonus to Athletics checks</li>\n<li>+2 item bonus to unarmed attack rolls</li>\n<li>Gain a claw unarmed attack</li>\n<li>Gain a jaws unarmed attack</li>\n<li>-1 penalty to AC</li>\n<li>-2 to penalty Reflex saves</li>\n</ul>"
        },
        "duration": {
            "expiry": "turn-start",
            "sustained": false,
            "unit": "minutes",
            "value": 10
        },
        "level": {
            "value": 3
        },
        "rules": [
            {
                "key": "PF2E.RuleElement.FlatModifier",
                "label": "Bestial Mutagen (Moderate)",
                "selector": "athletics",
                "type": "item",
                "value": 2
            },
            {
                "key": "PF2E.RuleElement.FlatModifier",
                "label": "Bestial Mutagen (Moderate)",
                "selector": "ac",
                "type": "untyped",
                "value": -1
            },
            {
                "key": "PF2E.RuleElement.FlatModifier",
                "label": "Bestial Mutagen (Moderate)",
                "selector": "reflex",
                "type": "untyped",
                "value": -2
            },
            {
                "key": "PF2E.RuleElement.FlatModifier",
                "label": "Bestial Mutagen, Moderate (Unarmed attacks)",
                "predicate": {
                    "all": [
                        "unarmed"
                    ]
                },
                "selector": "attack",
                "type": "item",
                "value": 2
            },
            {
                "key": "PF2E.RuleElement.TokenEffectIcon"
            },
            {
                "category": "unarmed",
                "damage": {
                    "base": {
                        "damageType": "piercing",
                        "dice": 1,
                        "die": "d8"
                    }
                },
                "group": "brawling",
                "key": "PF2E.RuleElement.Strike",
                "label": "Jaws",
                "range": "melee",
                "traits": [
                    "unarmed"
                ]
            },
            {
                "category": "unarmed",
                "damage": {
                    "base": {
                        "damageType": "slashing",
                        "dice": 1,
                        "die": "d6"
                    }
                },
                "group": "brawling",
                "key": "PF2E.RuleElement.Strike",
                "label": "Claws",
                "range": "melee",
                "traits": [
                    "unarmed",
                    "agile"
                ]
            }
        ],
        "schema": {
            "lastMigration": null,
            "version": 0.649
        },
        "source": {
            "value": ""
        },
        "start": {
            "initiative": null,
            "value": 0
        },
        "traits": {
            "custom": "",
            "rarity": {
                "value": "common"
            },
            "value": []
        }
    },
    "effects": [],
    "flags": {},
    "img": "systems/pf2e/icons/equipment/alchemical-items/alchemical-elixirs/bestial-mutagen.webp",
    "name": "Effect: Bestial Mutagen (Moderate)",
    "type": "effect"
}
