{
    "_id": "pI97a5xSg4LbBY1g",
    "data": {
        "actionCategory": {
            "value": ""
        },
        "actionType": {
            "value": "passive"
        },
        "actions": {
            "value": ""
        },
        "description": {
            "chat": "",
            "unidentified": "",
            "value": "<div><strong>Archetype</strong> @Compendium[pf2e.archetypes.Aldori Duelist]{Aldori Duelist}</div>\n<p><strong>Access</strong> You are from the Broken Lands region.</p>\n<hr />\n<p>Your Aldori duelist training teaches you martial techniques and increases your dedication to the Aldori dueling sword. You become trained in your choice of Acrobatics or Athletics and in Dueling Lore; if you were already trained, you become an expert instead. Whenever your proficiency rank in any weapon increases to expert or beyond, you also gain that new proficiency rank with Aldori dueling swords. You gain access to @Compendium[pf2e.equipment-srd.Aldori Dueling Sword]{Aldori Dueling Sword}</p>\n<p><strong>Special</strong> You cannot select another dedication feat until you have gained two other feats from the Aldori Duelist archetype.</p>"
        },
        "featType": {
            "value": "archetype"
        },
        "level": {
            "value": 2
        },
        "prerequisites": {
            "value": [
                {
                    "value": "trained in Aldori dueling swords"
                }
            ]
        },
        "rules": [],
        "schema": {
            "lastMigration": null,
            "version": 0.649
        },
        "source": {
            "value": ""
        },
        "traits": {
            "custom": "",
            "rarity": {
                "value": "uncommon"
            },
            "value": [
                "archetype",
                "dedication"
            ]
        }
    },
    "effects": [],
    "flags": {},
    "img": "systems/pf2e/icons/features/feats/feats.webp",
    "name": "Aldori Duelist Dedication",
    "type": "feat"
}
