{
    "_id": "tBfalnbUZLkG9gs1",
    "data": {
        "actionCategory": {
            "value": ""
        },
        "actionType": {
            "value": "action"
        },
        "actions": {
            "value": "2"
        },
        "description": {
            "chat": "",
            "unidentified": "",
            "value": "<p>You call upon the power of law and make a weapon or unarmed Strike against a foe you have witnessed breaking or disrespecting the law or otherwise acting disorderly. The Strike deals two extra weapon damage dice if the target of your Strike is chaotic. Whether or not the target is chaotic, you can convert the physical damage from the attack into lawful damage.</p>"
        },
        "featType": {
            "value": "archetype"
        },
        "level": {
            "value": 12
        },
        "location": "",
        "prerequisites": {
            "value": [
                {
                    "value": "Hellknight Dedication "
                }
            ]
        },
        "rules": [
            {
                "diceNumber": 2,
                "key": "PF2E.RuleElement.DamageDice",
                "predicate": {
                    "all": [
                        "blade-of-law"
                    ]
                },
                "selector": "damage"
            },
            {
                "key": "PF2E.RuleElement.ToggleProperty",
                "property": "flags.pf2e.rollOptions.damage-roll.blade-of-law"
            }
        ],
        "schema": {
            "lastMigration": null,
            "version": 0.649
        },
        "source": {
            "value": ""
        },
        "traits": {
            "custom": "",
            "rarity": {
                "value": "common"
            },
            "value": [
                "archetype"
            ]
        }
    },
    "effects": [],
    "flags": {},
    "img": "systems/pf2e/icons/features/feats/feats.webp",
    "name": "Blade of Law",
    "type": "feat"
}
