{
    "_id": "0GF2j54roPFIDmXf",
    "data": {
        "actionCategory": {
            "value": ""
        },
        "actionType": {
            "value": "action"
        },
        "actions": {
            "value": "1"
        },
        "description": {
            "chat": "",
            "unidentified": "",
            "value": "<p>You launch an insightful quip at a foe, distracting them. Choose a foe within 30 feet and roll a Diplomacy check against the target's Will DC.</p>\n<hr />\n<p><strong>Critical Success</strong> The target is distracted and takes a -3 status <br />penalty to Perception and Will saves for 1 minute.</p>\n<p>@Compendium[pf2e.feat-effects.Effect: Bon Mot (Critical Success)]{Effect: Bon Mot (Critical Success)}</p>\n<p>The target can end the effect early with a retort to your Bon Mot. This can either be a single action that has the concentrate trait or an appropriate skill action to frame their retort. The GM <br />determines which skill actions qualify, though they must <br />take at least 1 action. Typically, the retort needs to use a linguistic Charisma-based skill action.</p>\n<p><strong>Success</strong> As critical success, but the penalty is -2.</p>\n<p>@Compendium[pf2e.feat-effects.Effect: Bon Mot]{Effect: Bon Mot}</p>\n<p><strong>Critical Failure</strong> Your quip is atrocious. You take the same <br />penalty an enemy would take had you succeeded. This ends <br />after 1 minute or if you issue another Bon Mot and succeed.</p>"
        },
        "featType": {
            "value": "skill"
        },
        "level": {
            "value": 1
        },
        "location": "",
        "prerequisites": {
            "value": [
                {
                    "value": "trained in Diplomacy"
                }
            ]
        },
        "rules": [],
        "schema": {
            "lastMigration": null,
            "version": 0.649
        },
        "source": {
            "value": ""
        },
        "traits": {
            "custom": "",
            "rarity": {
                "value": "common"
            },
            "value": [
                "auditory",
                "concentrate",
                "emotion",
                "general",
                "linguistic",
                "mental",
                "skill"
            ]
        }
    },
    "effects": [],
    "flags": {},
    "img": "systems/pf2e/icons/features/feats/feats.webp",
    "name": "Bon Mot",
    "type": "feat"
}
