{
    "_id": "FZZXgmVMAmvKHWIo",
    "data": {
        "actionCategory": {
            "value": "interaction"
        },
        "actionType": {
            "value": "passive"
        },
        "actions": {
            "value": ""
        },
        "description": {
            "value": "<p>You smell of honey and savory things. You can cast @Compendium[pf2e.spells-srd.Enthrall]{Enthrall} as a 3rd-level occult innate spell once per day, except the spell has a range of 30 feet and the inhaled trait instead of the auditory trait. Targets don’t gain any circumstance bonus for disagreeing with you. Your circumstance bonus to checks to Make an Impression if the target can smell your breath increases to +2.</p>"
        },
        "featType": {
            "value": "ancestry"
        },
        "level": {
            "value": 9
        },
        "location": "",
        "prerequisites": {
            "value": [
                {
                    "value": "Sweetbreath Gnoll Heritage"
                }
            ]
        },
        "rules": [
            {
                "key": "PF2E.RuleElement.FlatModifier",
                "label": "Breath Like Honey",
                "predicate": {
                    "all": [
                        "action:make-an-impression"
                    ]
                },
                "selector": "diplomacy",
                "type": "circumstance",
                "value": 2
            }
        ],
        "schema": {
            "lastMigration": null,
            "version": 0.649
        },
        "source": {
            "value": ""
        },
        "traits": {
            "custom": "",
            "rarity": {
                "value": "common"
            },
            "value": [
                "gnoll"
            ]
        }
    },
    "effects": [],
    "flags": {},
    "img": "systems/pf2e/icons/default-icons/feats.webp",
    "name": "Breath Like Honey",
    "type": "feat"
}
