{
    "_id": "V5FKAmcYQF4KRELG",
    "data": {
        "actionCategory": {
            "value": ""
        },
        "actionType": {
            "value": "passive"
        },
        "actions": {
            "value": ""
        },
        "description": {
            "chat": "",
            "unidentified": "",
            "value": "<p>Your Cascade Bearer training allows you to broaden the horizons of your halcyon spells further than most Magaambyans, weaving in spiritual magic. You can select halcyon spells from the divine or occult spell lists in additional to the arcane or primal spell lists, though they are still halcyon spells (so you choose when casting if they are arcane or primal spells). You gain a halcyon cantrip and a halcyon 1st-level spell.</p>"
        },
        "featType": {
            "value": "archetype"
        },
        "level": {
            "value": 10
        },
        "prerequisites": {
            "value": [
                {
                    "value": "Magaambyan Attendant Dedication"
                },
                {
                    "value": "Cascade Bearers affiliation"
                }
            ]
        },
        "rules": [],
        "schema": {
            "lastMigration": null,
            "version": 0.649
        },
        "source": {
            "value": ""
        },
        "traits": {
            "custom": "",
            "rarity": {
                "value": "common"
            },
            "value": [
                "archetype"
            ]
        }
    },
    "effects": [],
    "flags": {},
    "img": "systems/pf2e/icons/features/feats/feats.webp",
    "name": "Cascade Bearer's Spellcasting",
    "type": "feat"
}
