{
    "_id": "sKDCoxMz2yKWLGRJ",
    "data": {
        "actionCategory": {
            "value": ""
        },
        "actionType": {
            "value": "passive"
        },
        "actions": {
            "value": ""
        },
        "description": {
            "chat": "",
            "unidentified": "",
            "value": "<p>You were raised with an aasimar or celestial relative, or you've devoted yourself to researching the secrets of the celestial realms.</p>\n<p>You gain the trained proficiency rank in Diplomacy and Religion. If you would automatically become trained in one of those skills (from your background or class, for example), you instead become trained in a skill of your choice.</p>\n<p>You also become trained in a Lore skill related to the celestial realm from which you trace your lineage (usually Elysium Lore, Heaven Lore, or Nirvana Lore).</p>\n<hr />\n<p><em>Note: If you are already trained in the skill provided by this feat, you need to manually select an alternative skill. You also need to manually enter the granted Lore skill.</em></p>"
        },
        "featType": {
            "value": "ancestry"
        },
        "level": {
            "value": 1
        },
        "location": "",
        "prerequisites": {
            "value": []
        },
        "rules": [],
        "schema": {
            "lastMigration": null,
            "version": 0.649
        },
        "source": {
            "value": ""
        },
        "traits": {
            "custom": "",
            "rarity": {
                "value": "common"
            },
            "value": [
                "aasimar"
            ]
        }
    },
    "effects": [
        {
            "_id": "uQQ4u6qTz0I47dgY",
            "changes": [
                {
                    "key": "data.skills.dip.rank",
                    "mode": 4,
                    "value": "1"
                },
                {
                    "key": "data.skills.rel.rank",
                    "mode": 4,
                    "value": "1"
                }
            ],
            "disabled": false,
            "duration": {
                "startTime": null
            },
            "flags": {},
            "icon": "systems/pf2e/icons/features/feats/feats.webp",
            "label": "Celestial Lore",
            "origin": "",
            "tint": null,
            "transfer": true
        }
    ],
    "flags": {},
    "img": "systems/pf2e/icons/features/feats/feats.webp",
    "name": "Celestial Lore",
    "type": "feat"
}
