{
    "_id": "qAdlJvAHkWBisDJ0",
    "data": {
        "actionCategory": {
            "value": "interaction"
        },
        "actionType": {
            "value": "passive"
        },
        "actions": {
            "value": ""
        },
        "description": {
            "value": "<p>Your patron aeon graced you with powers of protection. You can cast @Compendium[pf2e.spells-srd.Resist Energy]{Resist Energy} and @Compendium[pf2e.spells-srd.Shield Other]{Shield Other} each once per day as 2nd-level divine innate spells.</p>"
        },
        "featType": {
            "value": "ancestry"
        },
        "level": {
            "value": 9
        },
        "location": "",
        "prerequisites": {
            "value": []
        },
        "rules": [],
        "schema": {
            "lastMigration": null,
            "version": 0.649
        },
        "source": {
            "value": ""
        },
        "traits": {
            "custom": "",
            "rarity": {
                "value": "common"
            },
            "value": [
                "conrasu"
            ]
        }
    },
    "effects": [],
    "flags": {},
    "img": "systems/pf2e/icons/default-icons/feats.webp",
    "name": "Ceremony of Aeon's Shield",
    "type": "feat"
}
