{
    "_id": "kqnFdIhToKTnOpMl",
    "data": {
        "actionCategory": {
            "value": ""
        },
        "actionType": {
            "value": "passive"
        },
        "actions": {
            "value": ""
        },
        "description": {
            "chat": "",
            "unidentified": "",
            "value": "<p>You are the child of a night hag, making one of your eyes violet or even black. Your mother's powers over sleep and dreams have given you a degree of resistance to those effects, granting you a +2 circumstance bonus to all saving throws against sleep effects and effects that cause or alter dreams.</p>\n<p>In addition, sleep is more restorative for you. You regain [[/r (@details.level.value*2)*(max(@abilities.con.mod,1))]]{HP equal to your Constitution modifier times double your level} instead of just times your level, and you reduce any @Compendium[pf2e.conditionitems.Drained]{Drained} and @Compendium[pf2e.conditionitems.Doomed]{Doomed} conditions you have by 2 instead of by 1.</p>"
        },
        "featType": {
            "value": "ancestry"
        },
        "level": {
            "value": 1
        },
        "location": "",
        "prerequisites": {
            "value": []
        },
        "rules": [
            {
                "key": "PF2E.RuleElement.FlatModifier",
                "label": "vs. sleep or dream-related effects (Dream May)",
                "predicate": {
                    "any": [
                        "sleep",
                        "dream"
                    ]
                },
                "selector": "saving-throw",
                "type": "circumstance",
                "value": 2
            }
        ],
        "schema": {
            "lastMigration": null,
            "version": 0.649
        },
        "source": {
            "value": ""
        },
        "traits": {
            "custom": "",
            "rarity": {
                "value": "common"
            },
            "value": [
                "changeling",
                "lineage"
            ]
        }
    },
    "effects": [],
    "flags": {},
    "img": "systems/pf2e/icons/features/feats/feats.webp",
    "name": "Dream May",
    "type": "feat"
}
