{
    "_id": "nKkbEKbE9vfKWKdd",
    "data": {
        "actionCategory": {
            "value": ""
        },
        "actionType": {
            "value": "action"
        },
        "actions": {
            "value": "1"
        },
        "description": {
            "chat": "",
            "unidentified": "",
            "value": "<p><strong>Requirements</strong> You are standing on a stone or earthen surface.</p>\n<hr />\n<p>You pause a moment to attune your senses to the stone around you. Until the start of your next turn, you gain a new sense: imprecise @Compendium[pf2e.bestiary-ability-glossary-srd.Tremorsense]{Tremorsense} with a range of 20 feet.</p>"
        },
        "featType": {
            "value": "ancestry"
        },
        "level": {
            "value": 9
        },
        "location": "",
        "prerequisites": {
            "value": []
        },
        "rules": [],
        "schema": {
            "lastMigration": null,
            "version": 0.649
        },
        "source": {
            "value": ""
        },
        "traits": {
            "custom": "",
            "rarity": {
                "value": "common"
            },
            "value": [
                "concentrate",
                "dwarf"
            ]
        }
    },
    "effects": [],
    "flags": {},
    "img": "systems/pf2e/icons/features/feats/feats.webp",
    "name": "Echoes In Stone",
    "type": "feat"
}
