{
    "_id": "Qe9IUDVo7gsowMHq",
    "data": {
        "actionCategory": {
            "value": ""
        },
        "actionType": {
            "value": "passive"
        },
        "actions": {
            "value": ""
        },
        "description": {
            "chat": "",
            "unidentified": "",
            "value": "<p>You can use faerie magic to hide yourself and expose hidden foes. You can cast @Compendium[pf2e.spells-srd.Faerie Fire]{Faerie Fire} and @Compendium[pf2e.spells-srd.Invisibility]{Invisibility} each once per day as primal innate spells.</p>"
        },
        "featType": {
            "value": "ancestry"
        },
        "level": {
            "value": 9
        },
        "location": "",
        "prerequisites": {
            "value": []
        },
        "rules": [],
        "schema": {
            "lastMigration": null,
            "version": 0.649
        },
        "source": {
            "value": ""
        },
        "traits": {
            "custom": "",
            "rarity": {
                "value": "common"
            },
            "value": [
                "sprite"
            ]
        }
    },
    "effects": [],
    "flags": {},
    "img": "systems/pf2e/icons/features/feats/feats.webp",
    "name": "Fey Magic",
    "type": "feat"
}
