{
    "_id": "jNrpvEqfncdGZPak",
    "data": {
        "actionCategory": {
            "value": ""
        },
        "actionType": {
            "value": "passive"
        },
        "actions": {
            "value": ""
        },
        "description": {
            "chat": "",
            "unidentified": "",
            "value": "<p>While your willingness to dig into a task you know little about might get you into trouble, your incredible luck often saves you from danger. You can attempt skill actions that normally require you to be trained even if you aren't trained in that skill. If you use Halfling Luck when you fail a check for a skill with which you are untrained, you can add a proficiency bonus equal to your level, rather than 0, when you reroll the triggering skill check. You gain a +4 circumstance bonus to this rerolled skill check.</p>"
        },
        "featType": {
            "value": "ancestry"
        },
        "level": {
            "value": 5
        },
        "prerequisites": {
            "value": [
                {
                    "value": "Halfling Luck"
                }
            ]
        },
        "rules": [],
        "schema": {
            "lastMigration": null,
            "version": 0.649
        },
        "source": {
            "value": ""
        },
        "traits": {
            "custom": "",
            "rarity": {
                "value": "common"
            },
            "value": [
                "halfling"
            ]
        }
    },
    "effects": [],
    "flags": {},
    "img": "systems/pf2e/icons/features/feats/feats.webp",
    "name": "Halfling Ingenuity",
    "type": "feat"
}
