{
    "_id": "3TilQ1l97NV0okph",
    "data": {
        "actionCategory": {
            "value": ""
        },
        "actionType": {
            "value": "action"
        },
        "actions": {
            "value": "2"
        },
        "description": {
            "chat": "",
            "unidentified": "",
            "value": "<p><strong>Frequency</strong> once per day</p>\n<hr />\n<p>You summon an aura of shimmering heat.</p>\n<p>For 1 minute, you gain @Compendium[pf2e.conditionitems.Concealed]{Concealment} against creatures more than 5 feet away, and any creature that ends its turn within 5 feet of you suffers [[/r 1d12 #fire]]{1d12 fire damage} damage (basic Reflex save using your class DC or spell DC, whichever is higher).</p>\n<p>At [[/r 2d12 #fire]]{13th} and [[/r 3d12 #fire]]{17th} level, this damage increases by 1d12.</p>"
        },
        "featType": {
            "value": "ancestry"
        },
        "level": {
            "value": 9
        },
        "location": "",
        "prerequisites": {
            "value": [
                {
                    "value": "Veil May"
                }
            ]
        },
        "rules": [],
        "schema": {
            "lastMigration": null,
            "version": 0.649
        },
        "source": {
            "value": ""
        },
        "traits": {
            "custom": "",
            "rarity": {
                "value": "common"
            },
            "value": [
                "changeling",
                "evocation",
                "primal"
            ]
        }
    },
    "effects": [],
    "flags": {},
    "img": "systems/pf2e/icons/features/feats/feats.webp",
    "name": "Invoke The Elements (Veil May)",
    "type": "feat"
}
