{
    "_id": "CCY6VsGjp5fdmM6K",
    "data": {
        "actionCategory": {
            "value": ""
        },
        "actionType": {
            "value": "reaction"
        },
        "actions": {
            "value": ""
        },
        "description": {
            "chat": "",
            "unidentified": "",
            "value": "<p><strong>Trigger</strong> An ally within 30 feet brings a foe to 0 Hit Points.<br /></p>\n<hr />\n<p>With a shout of triumph, you grant inspiration to an ally fight on. The triggering ally gains temporary Hit Points equal to their Constitution modifier until the end of their next turn.</p>"
        },
        "featType": {
            "value": "ancestry"
        },
        "level": {
            "value": 9
        },
        "location": "",
        "prerequisites": {
            "value": []
        },
        "rules": [],
        "schema": {
            "lastMigration": null,
            "version": 0.649
        },
        "source": {
            "value": ""
        },
        "traits": {
            "custom": "",
            "rarity": {
                "value": "common"
            },
            "value": [
                "auditory",
                "hobgoblin"
            ]
        }
    },
    "effects": [],
    "flags": {},
    "img": "systems/pf2e/icons/features/feats/feats.webp",
    "name": "Pride in Arms",
    "type": "feat"
}
