{
    "_id": "dTO1ShJovbzrKUY4",
    "data": {
        "actionCategory": {
            "value": ""
        },
        "actionType": {
            "value": "passive"
        },
        "actions": {
            "value": ""
        },
        "description": {
            "chat": "",
            "unidentified": "",
            "value": "<p>Even your fears serve as fuel for your fighting spirit.</p>\n<p>When you critically succeed at a Will save against a foe's ability, you gain a +1 status bonus to saves and a number of temporary Hit Points equal to half your level for 1 minute. These benefits are doubled if you critically succeed against a fear effect.</p>\n<p>@Compendium[pf2e.feat-effects.Effect: Resounding Bravery]{Effect: Resounding Bravery}</p>\n<p>@Compendium[pf2e.feat-effects.Effect: Resounding Bravery (vs. Fear)]{Effect: Resounding Bravery (vs. Fear)}</p>"
        },
        "featType": {
            "value": "class"
        },
        "level": {
            "value": 8
        },
        "location": "",
        "prerequisites": {
            "value": [
                {
                    "value": "bravery"
                }
            ]
        },
        "rules": [],
        "schema": {
            "lastMigration": null,
            "version": 0.649
        },
        "source": {
            "value": ""
        },
        "traits": {
            "custom": "",
            "rarity": {
                "value": "common"
            },
            "value": [
                "fighter"
            ]
        }
    },
    "effects": [],
    "flags": {},
    "img": "systems/pf2e/icons/features/feats/feats.webp",
    "name": "Resounding Bravery",
    "type": "feat"
}
