{
    "_id": "0haS0qXR9xTYKoTG",
    "data": {
        "actionCategory": {
            "value": ""
        },
        "actionType": {
            "value": "passive"
        },
        "actions": {
            "value": ""
        },
        "description": {
            "chat": "",
            "unidentified": "",
            "value": "<p>You specialize in creating quick traps to obstruct your enemies on the battlefield. If your proficiency rank in Crafting is expert, you gain the formulas for three common or uncommon snares. If your rank is master, you gain 6. If your rank is legendary, you gain 9.<br /><br />Each day during your daily preparations, you can prepare four snares from your formula book for quick deployment; if they normally take 1 minute to @Compendium[pf2e.actionspf2e.Craft]{Craft}, you can Craft them with 3 Interact actions. The number of snares increases to six if you have master proficiency in Crafting and eight if you have legendary proficiency in Crafting. Snares prepared in this way don't cost you any resources to Craft.</p>"
        },
        "featType": {
            "value": "class"
        },
        "level": {
            "value": 4
        },
        "prerequisites": {
            "value": [
                {
                    "value": "expert in Crafting"
                },
                {
                    "value": "Snare Crafting"
                }
            ]
        },
        "rules": [],
        "schema": {
            "lastMigration": null,
            "version": 0.649
        },
        "source": {
            "value": ""
        },
        "traits": {
            "custom": "",
            "rarity": {
                "value": "common"
            },
            "selected": {
                "ranger": "Ranger"
            },
            "value": [
                "ranger"
            ]
        }
    },
    "effects": [],
    "flags": {},
    "img": "systems/pf2e/icons/features/feats/feats.webp",
    "name": "Snare Specialist",
    "type": "feat"
}
