{
    "_id": "6ZNSMR0lRSLwBJBe",
    "data": {
        "actionCategory": {
            "value": "interaction"
        },
        "actionType": {
            "value": "passive"
        },
        "actions": {
            "value": ""
        },
        "description": {
            "value": "<p>Living underground, you have learned to find your way without landmarks or even solid ground. If you roll a success on an Survival check to Sense Direction or an Athletics check to Climb, you get a critical success instead. You’re not @Compendium[pf2e.conditionitems.Flat-Footed]{Flat-Footed} when you attempt to Climb.</p>"
        },
        "featType": {
            "value": "ancestry"
        },
        "level": {
            "value": 1
        },
        "location": "",
        "prerequisites": {
            "value": []
        },
        "rules": [
            {
                "key": "PF2E.RuleElement.Note",
                "outcome": [
                    "success"
                ],
                "predicate": {
                    "all": [
                        "action:sense-direction"
                    ]
                },
                "selector": "survival",
                "text": "<p class='compact-text'><strong>Spelunker</strong> If you roll a success on an Survival check to Sense Direction you get a critical success instead.</p>"
            },
            {
                "key": "PF2E.RuleElement.Note",
                "outcome": [
                    "success"
                ],
                "predicate": {
                    "all": [
                        "action:climb"
                    ]
                },
                "selector": "survival",
                "text": "<p class='compact-text'><strong>Spelunker</strong> If you roll a success on an Athletics check to Climb you get a critical success instead.</p>"
            }
        ],
        "schema": {
            "lastMigration": null,
            "version": 0.649
        },
        "source": {
            "value": ""
        },
        "traits": {
            "custom": "",
            "rarity": {
                "value": "common"
            },
            "value": [
                "shisk"
            ]
        }
    },
    "effects": [],
    "flags": {},
    "img": "systems/pf2e/icons/default-icons/feats.webp",
    "name": "Spelunker",
    "type": "feat"
}
