{
    "_id": "HLCeP87w7qEy8PUH",
    "data": {
        "actionCategory": {
            "value": ""
        },
        "actionType": {
            "value": "passive"
        },
        "actions": {
            "value": ""
        },
        "description": {
            "chat": "",
            "unidentified": "",
            "value": "<p>Your ability to track your prey has surpassed explanation, allowing you to trace your prey's movements and predict its location with ease.</p>\n<p>When you use @Compendium[pf2e.actionspf2e.Hunt Prey]{Hunt Prey} on a creature within 100 feet, you can follow that creature's movements, allowing you to know the creature's exact location no matter how far away it becomes, as long as it remains your prey.</p>\n<p>You must be legendary in Nature to track your prey's location across teleportation or planar travel. This feat gains the detection, divination, and primal traits if you're legendary in Nature.</p>"
        },
        "featType": {
            "value": "class"
        },
        "level": {
            "value": 20
        },
        "location": "",
        "prerequisites": {
            "value": [
                {
                    "value": "legendary in Survival"
                }
            ]
        },
        "rules": [],
        "schema": {
            "lastMigration": null,
            "version": 0.649
        },
        "source": {
            "value": ""
        },
        "traits": {
            "custom": "",
            "rarity": {
                "value": "common"
            },
            "value": [
                "ranger"
            ]
        }
    },
    "effects": [],
    "flags": {},
    "img": "systems/pf2e/icons/features/feats/feats.webp",
    "name": "To the Ends of the Earth",
    "type": "feat"
}
