{
    "_id": "XYtnVNKt6uPcRrdH",
    "data": {
        "actionCategory": {
            "value": ""
        },
        "actionType": {
            "value": "passive"
        },
        "actions": {
            "value": ""
        },
        "description": {
            "chat": "",
            "unidentified": "",
            "value": "<p>Your time in forest or jungle canopies has taught you how to scramble across branches with sure feet. You gain a climb Speed of 10 feet. If you also have the @Compendium[pf2e.feats-srd.Cave Climber]{Cave Climber} ancestry feat, your total climb Speed increases to your land Speed when climbing trees.</p>"
        },
        "featType": {
            "value": "ancestry"
        },
        "level": {
            "value": 5
        },
        "prerequisites": {
            "value": [
                {
                    "value": "tailed goblin or treedweller goblin heritage"
                }
            ]
        },
        "rules": [],
        "schema": {
            "lastMigration": null,
            "version": 0.649
        },
        "source": {
            "value": ""
        },
        "traits": {
            "custom": "",
            "rarity": {
                "value": "common"
            },
            "value": [
                "goblin"
            ]
        }
    },
    "effects": [],
    "flags": {},
    "img": "systems/pf2e/icons/features/feats/feats.webp",
    "name": "Tree Climber (Goblin)",
    "type": "feat"
}
