{
    "_id": "ZOJsLNziWQ7Ri3x9",
    "data": {
        "actionCategory": {
            "value": ""
        },
        "actionType": {
            "value": "passive"
        },
        "actions": {
            "value": ""
        },
        "description": {
            "chat": "",
            "unidentified": "",
            "value": "<p>Your knowledge of your own not-quite-living anatomy, combined with your experience in combat, helps you take down undead foes with ease. Against undead creatures, you gain a circumstance bonus to damage with weapons and unarmed attacks equal to the number of weapon damage dice for the @Compendium[pf2e.actionspf2e.Strike]{Strike}. This bonus increases to double the number of weapon damage dice if your target has the vampire trait.</p>"
        },
        "featType": {
            "value": "ancestry"
        },
        "level": {
            "value": 5
        },
        "prerequisites": {
            "value": []
        },
        "rules": [],
        "schema": {
            "lastMigration": null,
            "version": 0.649
        },
        "source": {
            "value": ""
        },
        "traits": {
            "custom": "",
            "rarity": {
                "value": "common"
            },
            "value": [
                "dhampir"
            ]
        }
    },
    "effects": [],
    "flags": {},
    "img": "systems/pf2e/icons/features/feats/feats.webp",
    "name": "Undead Slayer",
    "type": "feat"
}
