{
    "_id": "k2hxQ9SPOM7aFWQZ",
    "data": {
        "actionCategory": {
            "value": "offensive"
        },
        "actionType": {
            "value": "action"
        },
        "actions": {
            "value": "1"
        },
        "description": {
            "value": "<p><strong>Requirements</strong> You have panache.</p>\n<hr />\n<p>You move so quickly that you create a short-lived afterimage, looks exactly like you, in front of you or behind you. You Stride. At any point along your movement, you leave an afterimage of yourself behind. Alternatively, you can stop moving and send your afterimage forward instead, up to the remainder of your Speed. A creature that spends actions to engage with your afterimage can attempt to disbelieve it with a Will save against your class DC. Once an enemy has disbelieved any of your afterimages, they are temporarily immune to all of your Vivacious Afterimages for 10 minutes. As long as a creature has not disbelieved the afterimage, the afterimage counts as a creature for flanking. The afterimage lasts until the beginning of your next turn or until you use Vivacious Afterimage again, whichever comes first.</p>"
        },
        "featType": {
            "value": "class"
        },
        "level": {
            "value": 20
        },
        "location": "",
        "prerequisites": {
            "value": [
                {
                    "value": "vivacious speed"
                }
            ]
        },
        "rules": [],
        "schema": {
            "lastMigration": null,
            "version": 0.649
        },
        "source": {
            "value": ""
        },
        "traits": {
            "custom": "",
            "rarity": {
                "value": "uncommon"
            },
            "value": [
                "illusion",
                "occult",
                "swashbuckler",
                "visual"
            ]
        }
    },
    "effects": [],
    "flags": {},
    "img": "systems/pf2e/icons/default-icons/feats.webp",
    "name": "Vivacious Afterimage",
    "type": "feat"
}
