{
    "_id": "TsgW87kYudNr6Bfp",
    "data": {
        "actionCategory": {
            "value": ""
        },
        "actionType": {
            "value": "passive"
        },
        "actions": {
            "value": ""
        },
        "description": {
            "chat": "",
            "unidentified": "",
            "value": "<p>You have learned Artokus Kirran's most hidden secrets, granting you the ability to create alchemy infused with the power of wishes.</p>\n<p>Once per day when you use @Compendium[pf2e.classfeatures.Advanced Alchemy]{Advanced Alchemy} during your daily preparations, you can spend a batch of infused reagents to create a wish vial containing a single common arcane spell of your choice of 8th level or lower.</p>\n<p>The spell must have a casting time of no more than 3 actions, no Cost, and must be able to target you. Only you can Activate the wish vial, which takes the same number of @Compendium[pf2e.actionspf2e.Interact]{Interact} actions as the spell's casting time and grants you the effects of the spell.</p>"
        },
        "featType": {
            "value": "class"
        },
        "level": {
            "value": 20
        },
        "location": "",
        "prerequisites": {
            "value": []
        },
        "rules": [],
        "schema": {
            "lastMigration": null,
            "version": 0.649
        },
        "source": {
            "value": ""
        },
        "traits": {
            "custom": "",
            "rarity": {
                "value": "rare"
            },
            "selected": {},
            "value": [
                "alchemist"
            ]
        }
    },
    "effects": [],
    "flags": {},
    "img": "systems/pf2e/icons/features/feats/feats.webp",
    "name": "Wish Alchemy",
    "type": "feat"
}
