{
    "_id": "fsKVskUhWwMgvUaT",
    "data": {
        "actionCategory": {
            "value": ""
        },
        "actionType": {
            "value": "passive"
        },
        "actions": {
            "value": ""
        },
        "description": {
            "chat": "",
            "unidentified": "",
            "value": "<p><strong>Moderate Boon</strong>: You share some of the bravery Cayden espoused during his ascension.</p>\n<p>When you roll a success on a saving throw against a fear effect, you get a critical success instead. If you have the fighter @Compendium[pf2e.classfeatures.Bravery]{Bravery} class feature, when you roll a critical failure on a save against a fear effect, you get a failure instead.</p>"
        },
        "featType": {
            "value": "deityboon"
        },
        "level": {
            "value": 0
        },
        "prerequisites": {
            "value": []
        },
        "rules": [],
        "schema": {
            "lastMigration": null,
            "version": 0.649
        },
        "source": {
            "value": ""
        },
        "traits": {
            "custom": "",
            "rarity": {
                "value": "common"
            },
            "selected": {},
            "value": []
        }
    },
    "effects": [],
    "flags": {},
    "img": "systems/pf2e/icons/deity/Cayden%20Cailean.webp",
    "name": "Cayden Cailean - Moderate Boon",
    "type": "feat"
}
