{
    "_id": "8adLKKzJy49USYJt",
    "data": {
        "description": {
            "value": "<p>Granted by @Compendium[pf2e.spells-srd.Song of Strength]{Song of Strength}</p>\n<p>You bolster your allies' physical strength with a hearty exhortation. You and your allies gain a +1 status bonus to Athletics checks and to their DCs against Athletics skill actions such as Disarm, Shove, and Trip.</p>\n<p><em>Note: bonus to DCs is not automatically added.</em></p>"
        },
        "duration": {
            "expiry": "turn-start",
            "sustained": false,
            "unit": "rounds",
            "value": 1
        },
        "level": {
            "value": 1
        },
        "rules": [
            {
                "key": "PF2E.RuleElement.FlatModifier",
                "label": "Inspire Defense",
                "selector": "ac",
                "type": "status",
                "value": 1
            },
            {
                "key": "PF2E.RuleElement.FlatModifier",
                "label": "Inspire Defense",
                "selector": "saving-throw",
                "type": "status",
                "value": 1
            }
        ],
        "schema": {
            "lastMigration": null,
            "version": 0.649
        },
        "source": {
            "value": ""
        },
        "start": {
            "initiative": null,
            "value": 0
        },
        "target": null,
        "tokenIcon": {
            "show": true
        },
        "traits": {
            "custom": "",
            "rarity": {
                "value": "common"
            },
            "value": []
        }
    },
    "effects": [],
    "flags": {},
    "img": "systems/pf2e/icons/spells/song-of-strength.webp",
    "name": "Spell Effect: Song of Strength",
    "type": "effect"
}
