{
    "_id": "jKrLpG74nLHYGyWB",
    "data": {
        "description": {
            "value": "<p>Granted by @Compendium[pf2e.spells-srd.Nudge Fate]{Nudge Fate}</p>"
        },
        "duration": {
            "expiry": "turn-start",
            "sustained": true,
            "unit": "minutes",
            "value": 1
        },
        "level": {
            "value": 1
        },
        "rules": [
            {
                "key": "PF2E.RuleElement.FlatModifier",
                "label": "Nudge Fate (adjust degree of success)",
                "predicate": {
                    "all": [
                        "adjust-degree-of-success"
                    ]
                },
                "selector": "saving-throw",
                "type": "status",
                "value": 1
            },
            {
                "key": "PF2E.RuleElement.FlatModifier",
                "label": "Nudge Fate (adjust degree of success)",
                "predicate": {
                    "all": [
                        "adjust-degree-of-success"
                    ]
                },
                "selector": "skill-check",
                "type": "status",
                "value": 1
            },
            {
                "key": "PF2E.RuleElement.FlatModifier",
                "label": "Nudge Fate (adjust degree of success)",
                "predicate": {
                    "all": [
                        "adjust-degree-of-success"
                    ]
                },
                "selector": "attack",
                "type": "status",
                "value": 1
            }
        ],
        "schema": {
            "lastMigration": null,
            "version": 0.649
        },
        "source": {
            "value": ""
        },
        "start": {
            "initiative": null,
            "value": 0
        },
        "target": null,
        "tokenIcon": {
            "show": true
        },
        "traits": {
            "custom": "",
            "rarity": {
                "value": "common"
            },
            "value": []
        }
    },
    "effects": [],
    "flags": {},
    "img": "systems/pf2e/icons/spells/nudge-fate.webp",
    "name": "Spell Effect: Nudge Fate",
    "type": "effect"
}
