{
    "_id": "Um25D1qLtZWOSBny",
    "data": {
        "description": {
            "value": "<p>Granted by casting @Compendium[pf2e.spells-srd.Shifting Form]{Shifting Form} and choosing to gain a swim speed equal to half your Speed.</p>"
        },
        "duration": {
            "expiry": "turn-start",
            "sustained": false,
            "unit": "minutes",
            "value": 1
        },
        "level": {
            "value": 4
        },
        "rules": [
            {
                "key": "PF2E.RuleElement.BaseSpeed",
                "selector": "swim",
                "value": "round(@attributes.speed.value/2)"
            }
        ],
        "schema": {
            "lastMigration": null,
            "version": 0.649
        },
        "source": {
            "value": ""
        },
        "start": {
            "initiative": null,
            "value": 0
        },
        "target": null,
        "tokenIcon": {
            "show": false
        },
        "traits": {
            "custom": "",
            "rarity": {
                "value": "common"
            },
            "value": []
        }
    },
    "effects": [],
    "flags": {},
    "img": "systems/pf2e/icons/spells/shifting-form.webp",
    "name": "Spell Effect: Shifting Form (Swim Speed)",
    "type": "effect"
}
