{
    "_id": "hkLhZsH3T6jc9S1y",
    "data": {
        "description": {
            "value": "<p>The target takes a -1 status penalty to Perception, attack rolls, and Will saves. This penalty increases to -2 for Will saves against sleep effects.</p>"
        },
        "duration": {
            "expiry": "turn-start",
            "sustained": false,
            "unit": "rounds",
            "value": 0
        },
        "level": {
            "value": 1
        },
        "rules": [
            {
                "key": "PF2E.RuleElement.FlatModifier",
                "selector": "will",
                "type": "status",
                "value": -1
            },
            {
                "key": "PF2E.RuleElement.FlatModifier",
                "selector": "perception",
                "type": "status",
                "value": -1
            },
            {
                "key": "PF2E.RuleElement.FlatModifier",
                "selector": "attack",
                "type": "status",
                "value": -1
            },
            {
                "key": "PF2E.RuleElement.FlatModifier",
                "predicate": {
                    "any": [
                        "sleep"
                    ]
                },
                "selector": "will",
                "type": "status",
                "value": -1
            }
        ],
        "schema": {
            "lastMigration": null,
            "version": 0.649
        },
        "source": {
            "value": ""
        },
        "start": {
            "initiative": null,
            "value": 0
        },
        "target": null,
        "tokenIcon": {
            "show": false
        },
        "traits": {
            "custom": "",
            "rarity": {
                "value": "common"
            },
            "value": []
        }
    },
    "effects": [],
    "flags": {},
    "img": "systems/pf2e/icons/default-icons/effect.svg",
    "name": "Spell Effect: Veil of Dreams",
    "type": "effect"
}
