{
    "_id": "5cthRUkRqRtduVvN",
    "data": {
        "actionCategory": {
            "value": ""
        },
        "actionType": {
            "value": "passive"
        },
        "actions": {
            "value": ""
        },
        "description": {
            "chat": "",
            "unidentified": "",
            "value": "<p>When you focus your will into your limbs, your blows are as unyielding as the hardest of metals. Your unarmed attacks are treated as adamantine.</p>"
        },
        "featType": {
            "value": "classfeature"
        },
        "level": {
            "value": 17
        },
        "location": "",
        "prerequisites": {
            "value": []
        },
        "rules": [
            {
                "key": "PF2E.RuleElement.DamageDice",
                "predicate": {
                    "all": [
                        "unarmed"
                    ],
                    "not": [
                        "suppress-adamantine-strike"
                    ]
                },
                "selector": "damage",
                "traits": [
                    "adamantine"
                ]
            }
        ],
        "schema": {
            "lastMigration": null,
            "version": 0.649
        },
        "source": {
            "value": ""
        },
        "traits": {
            "custom": "",
            "rarity": {
                "value": "common"
            },
            "value": [
                "monk"
            ]
        }
    },
    "effects": [],
    "flags": {},
    "img": "systems/pf2e/icons/features/classes/adamantine-strikes.webp",
    "name": "Adamantine Strikes",
    "type": "feat"
}
