{
    "_id": "pyo0vmxUFIFX2GNl",
    "data": {
        "actionCategory": {
            "value": ""
        },
        "actionType": {
            "value": "passive"
        },
        "actions": {
            "value": ""
        },
        "description": {
            "chat": "",
            "unidentified": "",
            "value": "<p>You gain an elegant finishing attack you can make when you have panache. The finisher trait is described below. You gain the @Compendium[pf2e.actionspf2e.Confident Finisher]{Confident Finisher} action.</p>\n<hr />\n<p><strong>Finisher:</strong> Finishers are spectacular finishing moves that use your panache. You can use a finisher only if you have panache, and you lose your panache immediately after performing a finisher. Once you use a finisher, you can't use actions that have the attack trait for the rest of your turn.</p>\n<p>Some actions with the finisher trait also grant an effect on a failure. Effects added on a failure don't apply on a critical failure. If your finisher action succeeds, you can still choose to apply the failure effect instead. For example, you might do this when an attack deals no damage due to resistance.</p>"
        },
        "featType": {
            "value": "classfeature"
        },
        "level": {
            "value": 1
        },
        "location": "",
        "prerequisites": {
            "value": []
        },
        "rules": [],
        "schema": {
            "lastMigration": null,
            "version": 0.649
        },
        "source": {
            "value": ""
        },
        "traits": {
            "custom": "",
            "rarity": {
                "value": "common"
            },
            "value": [
                "swashbuckler"
            ]
        }
    },
    "effects": [],
    "flags": {},
    "img": "systems/pf2e/icons/features/classes/confident-finisher.webp",
    "name": "Confident Finisher",
    "type": "feat"
}
