{
    "_id": "ZvfxtUMtfIOLYHyg",
    "data": {
        "actionCategory": {
            "value": ""
        },
        "actionType": {
            "value": "passive"
        },
        "actions": {
            "value": ""
        },
        "description": {
            "chat": "",
            "unidentified": "",
            "value": "<p>You use fast-talking, flattery, and a silver tongue to avoid danger and escape tricky situations. You might be a grifter or con artist, traveling from place to place with a new story or scheme. Your racket is also ideal for certain reputable professions, like barrister, diplomat, or politician.<br /></p>\n<p>When you successfully @Compendium[pf2e.actionspf2e.Feint]{Feint}, the target is @Compendium[pf2e.conditionitems.Flat-Footed]{Flat-Footed} against melee attacks you attempt against it until the end of your next turn. On a critical success, the target is flat-footed against all melee attacks until the end of your next turn, not just yours.<br /></p>\n<p>You're trained in Deception and Diplomacy. You can choose Charisma as your key ability score.</p>"
        },
        "featType": {
            "value": "classfeature"
        },
        "level": {
            "value": 1
        },
        "location": "",
        "prerequisites": {
            "value": []
        },
        "rules": [],
        "schema": {
            "lastMigration": null,
            "version": 0.649
        },
        "source": {
            "value": ""
        },
        "traits": {
            "custom": "",
            "rarity": {
                "value": "common"
            },
            "value": [
                "rogue"
            ]
        }
    },
    "effects": [
        {
            "_id": "DPhoZpaH7Qk8xK0M",
            "changes": [
                {
                    "key": "data.skills.dip.rank",
                    "mode": 4,
                    "value": "1"
                },
                {
                    "key": "data.skills.dec.rank",
                    "mode": 4,
                    "value": "1"
                }
            ],
            "disabled": false,
            "duration": {
                "startTime": null
            },
            "flags": {},
            "icon": "systems/pf2e/icons/features/classes/scoundrel.webp",
            "label": "Scoundrel Racket",
            "origin": "",
            "tint": null,
            "transfer": true
        }
    ],
    "flags": {},
    "img": "systems/pf2e/icons/features/classes/scoundrel.webp",
    "name": "Scoundrel Racket",
    "type": "feat"
}
