{
    "_id": "0npO4rPscGm0dX13",
    "data": {
        "actionCategory": {
            "value": ""
        },
        "actionType": {
            "value": "passive"
        },
        "actions": {
            "value": ""
        },
        "description": {
            "chat": "",
            "unidentified": "",
            "value": "<p>You've developed keen awareness and attention to detail. Your proficiency rank in Perception increases to master.</p>"
        },
        "featType": {
            "value": "classfeature"
        },
        "level": {
            "value": 7
        },
        "location": "",
        "prerequisites": {
            "value": []
        },
        "rules": [],
        "schema": {
            "lastMigration": null,
            "version": 0.649
        },
        "source": {
            "value": ""
        },
        "traits": {
            "custom": "",
            "rarity": {
                "value": "common"
            },
            "value": [
                "investigator",
                "ranger",
                "rogue"
            ]
        }
    },
    "effects": [
        {
            "_id": "bTbTfSrc7zvWZjvS",
            "changes": [
                {
                    "key": "data.attributes.perception.rank",
                    "mode": 4,
                    "value": "3"
                }
            ],
            "disabled": false,
            "duration": {
                "startTime": null
            },
            "flags": {},
            "icon": "systems/pf2e/icons/features/classes/vigilant-senses.webp",
            "label": "Vigilant Senses",
            "origin": "",
            "tint": null,
            "transfer": true
        }
    ],
    "flags": {},
    "img": "systems/pf2e/icons/features/classes/vigilant-senses.webp",
    "name": "Vigilant Senses (Level 7)",
    "type": "feat"
}
