{
    "_id": "BI4iwu3nApyIG0zY",
    "data": {
        "ability": {
            "value": ""
        },
        "area": {
            "value": ""
        },
        "areasize": {
            "value": "80-foot burst"
        },
        "category": {
            "value": "spell"
        },
        "components": {
            "material": false,
            "somatic": true,
            "verbal": true
        },
        "cost": {
            "value": ""
        },
        "damage": {
            "applyMod": false,
            "value": ""
        },
        "damageType": {
            "value": ""
        },
        "description": {
            "value": "<p>You connect the entire area with an invisible maze of astral energy that interferes with dimensional and mental magic. Choose a point in the area that you can see when you cast this spell. Objects other than force effects and rare metals can't block this spell's area. Astral labyrinth attempts to counteract magical mental effects targeting or including anyone other than the caster in the area, though it has no effect on mental effects that began outside the area or before the spell was cast.</p>\n<p>In addition, any creature that tries to depart or arrive in a location in the area by teleportation or extradimensional travel (including extradimensional spaces) must attempt a Will saving throw. Summoned creatures must attempt the save when they are summoned, but not when the summoning ends.</p>\n<hr />\n<p><strong>Critical Success</strong> The creature is unaffected.</p>\n<p><strong>Success</strong> The creature is @Compendium[pf2e.conditionitems.Stunned]{Stunned 1}.</p>\n<p><strong>Failure</strong> The creature is @Compendium[pf2e.conditionitems.Stunned]{Stunned 1}, you are mentally alerted that something has failed its save against this spell, and the creature arrives in the empty space closest to the point you chose instead of its intended destination.</p>\n<p><strong>Critical Failure</strong> The creature is @Compendium[pf2e.conditionitems.Stunned]{Stunned 3}, you get a mental glimpse of its appearance, and the creature arrives in the empty space closest to the point you chose instead of its intended destination.</p>\n<hr />\n<p><strong>Heightened (10th)</strong> You and creatures transported by your spells can't get a result worse than success on the saving throw to teleport into or out of the area.</p>"
        },
        "duration": {
            "value": "1 day"
        },
        "hasCounteractCheck": {
            "value": true
        },
        "level": {
            "value": 9
        },
        "location": {
            "value": "Vz29XsR9yz4BEMgr"
        },
        "materials": {
            "value": ""
        },
        "prepared": {
            "value": ""
        },
        "primarycheck": {
            "value": ""
        },
        "range": {
            "value": "120 feet"
        },
        "rules": [],
        "save": {
            "basic": "",
            "value": "will"
        },
        "scaling": {
            "formula": "",
            "mode": "none"
        },
        "schema": {
            "lastMigration": null,
            "version": 0.649
        },
        "school": {
            "value": "abjuration"
        },
        "secondarycasters": {
            "value": ""
        },
        "secondarycheck": {
            "value": ""
        },
        "source": {
            "value": ""
        },
        "spellType": {
            "value": "save"
        },
        "sustained": {
            "value": false
        },
        "target": {
            "value": ""
        },
        "time": {
            "value": "2"
        },
        "traditions": {
            "custom": "",
            "value": [
                "arcane",
                "divine",
                "occult"
            ]
        },
        "traits": {
            "custom": "",
            "rarity": {
                "value": "uncommon"
            },
            "value": [
                "abjuration",
                "incapacitation"
            ]
        }
    },
    "effects": [],
    "flags": {},
    "img": "systems/pf2e/icons/spells/astral-labyrinth.webp",
    "name": "Astral Labyrinth",
    "type": "spell"
}
