{
    "_id": "mwPfoYfVGSMAaUec",
    "data": {
        "ability": {
            "value": ""
        },
        "area": {
            "value": ""
        },
        "areasize": {
            "value": ""
        },
        "category": {
            "value": "spell"
        },
        "components": {
            "material": true,
            "somatic": true,
            "verbal": true
        },
        "cost": {
            "value": ""
        },
        "damage": {
            "applyMod": false,
            "value": ""
        },
        "damageType": {
            "value": ""
        },
        "description": {
            "chat": "",
            "unidentified": "",
            "value": "<p>You shape a cabin 20 feet on each side and 10 feet high. This cabin has the structure trait and the same restrictions as magic items that create structures. The walls of the hut are simple and wooden, with small, square glass windows, and it has one wooden door. It doesn't include its own @Compendium[pf2e.equipment-srd.Lock (Average)]{Lock}, but it has a fastener to which a Lock can be applied.</p>\n<p>The interior contains three cots, one chamber pot, and a small fireplace holding a magical fire. The interior is lit with a small magical light that you can light or extinguish at will using a single action, which has the concentrate trait. The climate inside the hut is comfortable and allows creatures inside it to withstand most hostile weather conditions, but incredible heat or cold, powerful storms, and winds of hurricane force or greater destroy the hut. Other creatures can freely enter and exit the hut without damaging it, but if you exit the hut, the spell ends. You can @Compendium[pf2e.actionspf2e.Dismiss]{Dismiss} the spell.</p>"
        },
        "duration": {
            "value": "12 hours"
        },
        "hasCounteractCheck": {
            "value": false
        },
        "level": {
            "value": 3
        },
        "location": {
            "value": ""
        },
        "materials": {
            "value": ""
        },
        "prepared": {
            "value": false
        },
        "primarycheck": {
            "value": ""
        },
        "range": {
            "value": "30 feet"
        },
        "rules": [],
        "save": {
            "basic": "",
            "value": ""
        },
        "scaling": {
            "formula": "",
            "mode": "none"
        },
        "schema": {
            "lastMigration": null,
            "version": 0.649
        },
        "school": {
            "value": "conjuration"
        },
        "secondarycasters": {
            "value": ""
        },
        "secondarycheck": {
            "value": ""
        },
        "source": {
            "value": ""
        },
        "spellType": {
            "value": "utility"
        },
        "sustained": {
            "value": false
        },
        "target": {
            "value": ""
        },
        "time": {
            "value": "1 minute"
        },
        "traditions": {
            "value": [
                "arcane",
                "occult"
            ]
        },
        "traits": {
            "custom": "",
            "rarity": {
                "value": "common"
            },
            "value": [
                "conjuration"
            ]
        }
    },
    "effects": [],
    "flags": {},
    "img": "systems/pf2e/icons/spells/cozy-cabin.webp",
    "name": "Cozy Cabin",
    "type": "spell"
}
