{
    "_id": "XlQBVvlDWGrGlApl",
    "data": {
        "ability": {
            "value": ""
        },
        "area": {
            "areaType": "burst",
            "value": "30"
        },
        "areasize": {
            "value": "30-foot burst"
        },
        "category": {
            "value": "focus"
        },
        "components": {
            "material": false,
            "somatic": true,
            "verbal": true
        },
        "cost": {
            "value": ""
        },
        "damage": {
            "applyMod": true,
            "value": "2d8"
        },
        "damageType": {
            "value": ""
        },
        "description": {
            "chat": "",
            "unidentified": "",
            "value": "<p><span>You bind a part of your essence to your surroundings, creating a warded area that grants you power within it, but drains you outside of it. While within the area, you can make nature's wrath Strikes by commanding plants, wind, rocks, and other natural features to attack enemies. These are melee Strikes that use your spell attack modifier, can target any creature within the ward, and deal bludgeoning, piercing, or slashing damage equal to [[/r 2d8]] plus your spellcasting ability modifier. </span></p>\n<p><span>Upon @Compendium[pf2e.actionspf2e.Cast a Spell]{Casting the Spell}, you can immediately make a single nature's wrath Strike. You are @Compendium[pf2e.conditionitems.Quickened]{Quickened} while inside the ward, and can use the additional action only to make nature's wrath Strikes. You are @Compendium[pf2e.conditionitems.Slowed]{Slowed 1} while outside the area. </span></p>\n<hr />\n<p><span>Heightened (+2) The area increases by 5 feet, and the Strikes deal an additional [[/r 1d8]] damage.</span></p>"
        },
        "duration": {
            "value": "1 minute"
        },
        "hasCounteractCheck": {
            "value": false
        },
        "level": {
            "value": 5
        },
        "location": {
            "value": ""
        },
        "materials": {
            "value": ""
        },
        "prepared": {
            "value": ""
        },
        "primarycheck": {
            "value": ""
        },
        "range": {
            "value": ""
        },
        "rules": [],
        "save": {
            "basic": "",
            "value": ""
        },
        "scaling": {
            "formula": "1d8",
            "mode": "level2"
        },
        "schema": {
            "lastMigration": null,
            "version": 0.649
        },
        "school": {
            "value": "abjuration"
        },
        "secondarycasters": {
            "value": ""
        },
        "secondarycheck": {
            "value": ""
        },
        "source": {
            "value": ""
        },
        "spellType": {
            "value": "attack"
        },
        "sustained": {
            "value": false
        },
        "target": {
            "value": ""
        },
        "time": {
            "value": "2"
        },
        "traditions": {
            "value": []
        },
        "traits": {
            "custom": "",
            "rarity": {
                "value": "uncommon"
            },
            "value": [
                "abjuration",
                "sorcerer"
            ]
        }
    },
    "effects": [],
    "flags": {},
    "img": "systems/pf2e/icons/spells/establish-ward.webp",
    "name": "Establish Ward",
    "type": "spell"
}
