{
    "_id": "WVc30DGbM7TRLLul",
    "data": {
        "ability": {
            "value": ""
        },
        "area": {
            "value": "60-foot emanation"
        },
        "areasize": {
            "value": ""
        },
        "category": {
            "value": "spell"
        },
        "components": {
            "material": true,
            "somatic": true,
            "verbal": true
        },
        "cost": {
            "value": ""
        },
        "damage": {
            "applyMod": false,
            "value": ""
        },
        "damageType": {
            "value": ""
        },
        "description": {
            "chat": "",
            "unidentified": "",
            "value": "<p>This spell compels local spirits to reenact a violent event of the recent past that you're aware of and name as you @Compendium[pf2e.actionspf2e.Cast a Spell]{Cast the Spell}. You take the role of the primary victim. The reenactment plays out the final 9 minutes leading up to the death or injury of the victim and the minute after their death or injury. The spirits don't change form, so this doesn't help determine perpetrators by their look. Spiritual forms of missing creatures necessary for the event manifest as needed, and missing items appear as shadowy outlines.</p>\n<p>Once the scene ends, you take <a class=\"inline-roll roll\" data-mode=\"roll\" data-flavor=\"negative\" data-formula=\"2d6\" title=\"negative\"><i class=\"fas fa-dice-d20\"></i> 2d6</a> negative damage for each ghostly apparition that participated in the scene (typically equal to the number of creatures involved other than the victim). Any creature that observed the ghostly recreation, including you, can attempt checks to investigate the event to discover new clues and information.</p>"
        },
        "duration": {
            "value": "10 minutes"
        },
        "hasCounteractCheck": {
            "value": false
        },
        "level": {
            "value": 4
        },
        "location": {
            "value": ""
        },
        "materials": {
            "value": ""
        },
        "prepared": {
            "value": false
        },
        "primarycheck": {
            "value": ""
        },
        "range": {
            "value": ""
        },
        "rules": [],
        "save": {
            "basic": "",
            "value": ""
        },
        "scaling": {
            "formula": "",
            "mode": "none"
        },
        "schema": {
            "lastMigration": null,
            "version": 0.649
        },
        "school": {
            "value": "divination"
        },
        "secondarycasters": {
            "value": ""
        },
        "secondarycheck": {
            "value": ""
        },
        "source": {
            "value": ""
        },
        "spellType": {
            "value": "utility"
        },
        "sustained": {
            "value": false
        },
        "target": {
            "value": ""
        },
        "time": {
            "value": "1 minute"
        },
        "traditions": {
            "value": [
                "divine",
                "occult"
            ]
        },
        "traits": {
            "custom": "",
            "rarity": {
                "value": "uncommon"
            },
            "value": [
                "uncommon",
                "divination"
            ]
        }
    },
    "effects": [],
    "flags": {},
    "img": "systems/pf2e/icons/spells/ghostly-tragedy.webp",
    "name": "Ghostly Tragedy",
    "type": "spell"
}
