{
    "_id": "IWUe32Y5k2QFd7YQ",
    "data": {
        "ability": {
            "value": ""
        },
        "area": {
            "areaType": "",
            "value": ""
        },
        "areasize": {
            "value": ""
        },
        "category": {
            "value": "focus"
        },
        "components": {
            "material": false,
            "somatic": true,
            "verbal": false
        },
        "cost": {
            "value": ""
        },
        "damage": {
            "applyMod": false,
            "value": ""
        },
        "damageType": {
            "value": ""
        },
        "description": {
            "chat": "",
            "unidentified": "",
            "value": "<p>You build up gravitational force and funnel it into your blows, leading to more powerful attacks with blade and bow alike. On your first weapon @Compendium[pf2e.actionspf2e.Strike]{Strike} each round, you gain a status bonus to damage equal to twice the number of weapon damage dice.</p>\n<p>@Compendium[pf2e.spell-effects.Spell Effect: Gravity Weapon (1 Die)]{Spell Effect: Gravity Weapon (1 Die)}</p>\n<p>@Compendium[pf2e.spell-effects.Spell Effect: Gravity Weapon (2 Dice)]{Spell Effect: Gravity Weapon (2 Dice)}</p>\n<p>@Compendium[pf2e.spell-effects.Spell Effect: Gravity Weapon (3 Dice)]{Spell Effect: Gravity Weapon (3 Dice)}</p>\n<p>@Compendium[pf2e.spell-effects.Spell Effect: Gravity Weapon (4 Dice)]{Spell Effect: Gravity Weapon (4 Dice)}</p>"
        },
        "duration": {
            "value": "1 minute"
        },
        "hasCounteractCheck": {
            "value": false
        },
        "level": {
            "value": 1
        },
        "location": {
            "value": ""
        },
        "materials": {
            "value": ""
        },
        "prepared": {
            "value": ""
        },
        "primarycheck": {
            "value": ""
        },
        "range": {
            "value": ""
        },
        "rules": [],
        "save": {
            "basic": "",
            "value": ""
        },
        "scaling": {
            "formula": "",
            "mode": "none"
        },
        "schema": {
            "lastMigration": null,
            "version": 0.649
        },
        "school": {
            "value": "evocation"
        },
        "secondarycasters": {
            "value": ""
        },
        "secondarycheck": {
            "value": ""
        },
        "source": {
            "value": ""
        },
        "spellType": {
            "value": "utility"
        },
        "sustained": {
            "value": false
        },
        "target": {
            "value": ""
        },
        "time": {
            "value": "1"
        },
        "traditions": {
            "value": []
        },
        "traits": {
            "custom": "",
            "rarity": {
                "value": "uncommon"
            },
            "value": [
                "evocation",
                "ranger"
            ]
        }
    },
    "effects": [],
    "flags": {},
    "img": "systems/pf2e/icons/spells/gravity-weapon.webp",
    "name": "Gravity Weapon",
    "type": "spell"
}
