{
    "_id": "DeNz6eAUlE0IE9U3",
    "data": {
        "ability": {
            "value": ""
        },
        "area": {
            "areaType": "",
            "value": ""
        },
        "areasize": {
            "value": ""
        },
        "autoHeightenLevel": {
            "value": null
        },
        "category": {
            "value": "focus"
        },
        "components": {
            "material": false,
            "somatic": true,
            "verbal": true
        },
        "cost": {
            "value": ""
        },
        "damage": {
            "applyMod": false,
            "value": "1d8"
        },
        "damageType": {
            "value": "piercing"
        },
        "description": {
            "chat": "",
            "unidentified": "",
            "value": "<p>You fling a hollow icicle filled with winter's wrath. Make a spell attack against a target within range. The bolt deals 1d8 piercing damage and lodges in the target. At the end of the target's next turn, the bolt shatters, releasing a whirl of snow and ice that deals 1d12 cold damage to the target and all adjacent creatures. The bolt can be removed with an Interact action, which causes it to melt harmlessly without detonating.</p>\n<hr />\n<p><span><strong>Critical Success</strong> The initial bolt deals full damage and is especially well anchored, taking 2 Interact actions to remove. The bolt's explosion deals double damage.</span></p>\n<p><span><strong>Success</strong> The bolt and its explosion deal full damage.</span></p>\n<hr />\n<p><strong>Heightened (+1)</strong> The initial damage increases by 1d8 and the secondary damage increases by 1d12.</p>"
        },
        "duration": {
            "value": ""
        },
        "hasCounteractCheck": {
            "value": false
        },
        "level": {
            "value": 1
        },
        "location": {
            "value": ""
        },
        "materials": {
            "value": ""
        },
        "prepared": {
            "value": ""
        },
        "primarycheck": {
            "value": ""
        },
        "range": {
            "value": "60 feet"
        },
        "rules": [
            {
                "key": "PF2E.RuleElement.SetProperty",
                "on": {
                    "added": true,
                    "removed": false
                },
                "property": "flags.pf2e.rollOptions.all.cold-domain",
                "retain": true
            }
        ],
        "save": {
            "basic": "",
            "value": ""
        },
        "scaling": {
            "formula": "1d8",
            "mode": "level1"
        },
        "schema": {
            "lastMigration": null,
            "version": 0.649
        },
        "school": {
            "value": "evocation"
        },
        "secondarycasters": {
            "value": ""
        },
        "secondarycheck": {
            "value": ""
        },
        "source": {
            "value": ""
        },
        "spellType": {
            "value": "attack"
        },
        "sustained": {
            "value": false
        },
        "target": {
            "value": "1 creature"
        },
        "time": {
            "value": "2"
        },
        "traditions": {
            "custom": "",
            "value": []
        },
        "traits": {
            "custom": "",
            "rarity": {
                "value": "common"
            },
            "value": [
                "attack",
                "cleric",
                "cold",
                "evocation"
            ]
        }
    },
    "effects": [],
    "flags": {},
    "img": "systems/pf2e/icons/spells/winter-bolt.webp",
    "name": "Winter Bolt",
    "type": "spell"
}
