{
    "_id": "H4oF5szC7aogqtvw",
    "data": {
        "ability": {
            "value": ""
        },
        "area": {
            "value": ""
        },
        "areasize": {
            "value": ""
        },
        "category": {
            "value": "spell"
        },
        "components": {
            "material": false,
            "somatic": false,
            "verbal": false
        },
        "cost": {
            "value": ""
        },
        "damage": {
            "applyMod": false,
            "value": ""
        },
        "damageType": {
            "value": ""
        },
        "description": {
            "chat": "",
            "unidentified": "",
            "value": "<p>Gnawing worms materialize within the flesh of the target creature, dealing [[/r 4d6 #piercing]] piercing damage and [[/r 1d6 #persistent piercing]] @Compendium[pf2e.conditionitems.Persistent Damage]{Persistent Piercing Damage}. If the target is a non-skeletal corporeal undead creature, you deal an extra [[/r 2d6 #extra persistent piercing]] @Compendium[pf2e.conditionitems.Persistent Damage]{Persistent Piercing Damage}. The target must attempt a Fortitude save.</p>\n<hr />\n<p><strong>Critical Success</strong> The worms writhe away harmlessly and the target takes no damage.</p>\n<p><strong>Success</strong> The target takes full initial damage but no persistent damage, and the spell ends immediately.</p>\n<p><strong>Failure</strong> The target takes full initial and persistent damage and is @Compendium[pf2e.conditionitems.Flat-Footed]{Flat-Footed} due to the pain for as long as it takes persistent damage.</p>\n<p><strong>Critical Failure</strong> As failure, but the target takes double the initial damage and is also @Compendium[pf2e.conditionitems.Slowed]{Slowed 1} by the pain for as long as it takes persistent damage.</p>\n<hr />\n<p><strong>Heightened (+2)</strong>: The initial and persistent damage increase by 2d6 and 1d6, respectively</p>"
        },
        "duration": {
            "value": "See description"
        },
        "hasCounteractCheck": {
            "value": false
        },
        "level": {
            "value": 2
        },
        "location": {
            "value": "nFxWYBCWslP4OG5H"
        },
        "materials": {
            "value": ""
        },
        "prepared": {
            "value": ""
        },
        "primarycheck": {
            "value": ""
        },
        "range": {
            "value": "30 feet"
        },
        "rules": [],
        "save": {
            "basic": "",
            "value": "fortitude"
        },
        "scaling": {
            "formula": "",
            "mode": "none"
        },
        "schema": {
            "lastMigration": null,
            "version": 0.649
        },
        "school": {
            "value": "necromancy"
        },
        "secondarycasters": {
            "value": ""
        },
        "secondarycheck": {
            "value": ""
        },
        "source": {
            "value": ""
        },
        "spellType": {
            "value": "save"
        },
        "sustained": {
            "value": false
        },
        "target": {
            "value": "1 corporeal creature"
        },
        "time": {
            "value": "2"
        },
        "traditions": {
            "custom": "",
            "value": [
                "occult",
                "primal"
            ]
        },
        "traits": {
            "custom": "",
            "rarity": {
                "value": "rare"
            },
            "selected": [],
            "value": []
        }
    },
    "effects": [],
    "flags": {},
    "img": "systems/pf2e/icons/spells/worms-repast.webp",
    "name": "Worm's Repast",
    "type": "spell"
}
