{
    "_id": "twayjFuXbsvyHUwy",
    "data": {
        "actionCategory": {
            "value": ""
        },
        "actionType": {
            "value": "passive"
        },
        "actions": {
            "value": ""
        },
        "description": {
            "chat": "",
            "unidentified": "",
            "value": "<p>You are native to arid plains and likely grew up traveling the roads. You have a leaner build than other ratfolk, with longer limbs and short fur. If you have both hands free, you can increase your Speed to 30 feet as you run on all fours. In addition, environmental heat effects are one step less extreme for you, and you can go 10 times as long as normal before you are affected by starvation or thirst. However, unless you wear protective gear or take shelter, environmental cold effects are one step more extreme for you.</p>"
        },
        "featType": {
            "value": "heritage"
        },
        "level": {
            "value": 1
        },
        "location": "",
        "prerequisites": {
            "value": []
        },
        "rules": [],
        "schema": {
            "lastMigration": null,
            "version": 0.649
        },
        "source": {
            "value": ""
        },
        "traits": {
            "custom": "",
            "rarity": {
                "value": "common"
            },
            "value": [
                "ratfolk"
            ]
        }
    },
    "effects": [],
    "flags": {},
    "img": "systems/pf2e/icons/features/ancestry/desert-rat.webp",
    "name": "Desert Rat",
    "type": "feat"
}
