{
    "_id": "ZZKZkeSP5TuT62IA",
    "data": {
        "actionCategory": {
            "value": ""
        },
        "actionType": {
            "value": "passive"
        },
        "actions": {
            "value": ""
        },
        "description": {
            "chat": "",
            "unidentified": "",
            "value": "<p>Thanks to an ancient bargain, your soul has been reborn<br />as a duskwalker, a planar scion with a connection to<br />psychopomps and the Boneyard. You gain the duskwalker<br />trait in addition to the traits from your ancestry. You<br />also gain @Compendium[pf2e.ancestryfeatures.Low-Light Vision]{Low-Light Vision}, or you gain @Compendium[pf2e.ancestryfeatures.Darkvision]{Darkvision}if your<br />ancestry already has low-light vision. Neither your body<br />nor your spirit can ever become undead. You can choose<br />from duskwalker feats and feats from your ancestry<br />whenever you gain an ancestry feat.</p>"
        },
        "featType": {
            "value": "heritage"
        },
        "level": {
            "value": 1
        },
        "location": "",
        "prerequisites": {
            "value": []
        },
        "rules": [],
        "schema": {
            "lastMigration": null,
            "version": 0.649
        },
        "source": {
            "value": ""
        },
        "traits": {
            "custom": "",
            "rarity": {
                "value": "uncommon"
            },
            "value": [
                "duskwalker",
                "versatile heritage"
            ]
        }
    },
    "effects": [],
    "flags": {},
    "img": "systems/pf2e/icons/features/ancestry/duskwalker.webp",
    "name": "Duskwalker",
    "type": "feat"
}
