{
    "_id": "KJ2dSDXP9d5hJHzd",
    "data": {
        "actionCategory": {
            "value": "interaction"
        },
        "actionType": {
            "value": "passive"
        },
        "actions": {
            "value": ""
        },
        "description": {
            "value": "<p>Your face has a particularly off-putting appearance. You are trained in Intimidation (or another skill of your choice if you were already trained in Intimidation) and gain the @Compendium[pf2e.feats-srd.Intimidating Glare]{Intimidating Glare} skill feat as a bonus feat.</p>\n<hr />\n<p><em>Note: If you are already trained in the skill provided by this feat, you need to manually select an alternative skill.</em></p>"
        },
        "featType": {
            "value": "heritage"
        },
        "level": {
            "value": 1
        },
        "location": "",
        "prerequisites": {
            "value": []
        },
        "rules": [],
        "schema": {
            "lastMigration": null,
            "version": 0.649
        },
        "source": {
            "value": ""
        },
        "traits": {
            "custom": "",
            "rarity": {
                "value": "common"
            },
            "value": [
                "goloma",
                "heritage"
            ]
        }
    },
    "effects": [
        {
            "_id": "LM5NNFPC161mYAk1",
            "changes": [
                {
                    "key": "data.skills.itm.rank",
                    "mode": 4,
                    "value": "1"
                }
            ],
            "disabled": false,
            "duration": {
                "startTime": null
            },
            "flags": {},
            "icon": "systems/pf2e/icons/default-icons/feat.svg",
            "label": "Frightful Goloma",
            "origin": "",
            "tint": null,
            "transfer": true
        }
    ],
    "flags": {},
    "img": "systems/pf2e/icons/default-icons/feat.svg",
    "name": "Frightful Goloma",
    "type": "feat"
}
