{
    "_id": "3reGfXH0S82hM7Gp",
    "data": {
        "actionCategory": {
            "value": ""
        },
        "actionType": {
            "value": "passive"
        },
        "actions": {
            "value": ""
        },
        "description": {
            "value": "<p>Your blood is touched by primal chaos. You gain the ganzi trait in addition to the traits from your ancestry. You gain resistance to a single damage type equal to half your level; at the beginning of each day, determine randomly whether this resistance applies to acid, electricity, or sonic damage. You also gain a +1 circumstance bonus to saving throws against effects that would cause you to gain the @Compendium[pf2e.conditionitems.Controlled]{Controlled} condition. You can choose from ganzi feats and feats from your ancestry whenever you gain an ancestry feat.</p>"
        },
        "featType": {
            "value": "heritage"
        },
        "level": {
            "value": 1
        },
        "location": "",
        "prerequisites": {
            "value": []
        },
        "rules": [],
        "schema": {
            "lastMigration": null,
            "version": 0.649
        },
        "source": {
            "value": ""
        },
        "traits": {
            "custom": "",
            "rarity": {
                "value": "common"
            },
            "value": [
                "ganzi",
                "versatile heritage"
            ]
        }
    },
    "effects": [],
    "flags": {},
    "img": "systems/pf2e/icons/default-icons/feat.svg",
    "name": "Ganzi",
    "type": "feat"
}
