{
    "_id": "MTTU2t7x6TjvUDnE",
    "data": {
        "actionCategory": {
            "value": ""
        },
        "actionType": {
            "value": "passive"
        },
        "actions": {
            "value": ""
        },
        "description": {
            "chat": "",
            "unidentified": "",
            "value": "<p>You are part of an orc community that participates in ritual scarification or tattooing. The marks on your skin show your exceptional hardiness and vitality. You gain 12 Hit Points from your ancestry instead of 10. You also gain the @Compendium[pf2e.feats-srd.Diehard]{Diehard} feat.</p>"
        },
        "featType": {
            "value": "heritage"
        },
        "level": {
            "value": 1
        },
        "location": "",
        "prerequisites": {
            "value": []
        },
        "rules": [],
        "schema": {
            "lastMigration": null,
            "version": 0.649
        },
        "source": {
            "value": ""
        },
        "traits": {
            "custom": "",
            "rarity": {
                "value": "common"
            },
            "value": [
                "orc"
            ]
        }
    },
    "effects": [
        {
            "_id": "XHJQr7BL9ot9LrVc",
            "changes": [
                {
                    "key": "data.attributes.ancestryhp",
                    "mode": 5,
                    "value": "12"
                }
            ],
            "disabled": false,
            "duration": {
                "startTime": null
            },
            "flags": {},
            "icon": "systems/pf2e/icons/features/ancestry/hold-scarred-orc.webp",
            "label": "Hold-Scarred Orc",
            "origin": "",
            "tint": null,
            "transfer": true
        }
    ],
    "flags": {},
    "img": "systems/pf2e/icons/features/ancestry/hold-scarred-orc.webp",
    "name": "Hold-Scarred Orc",
    "type": "feat"
}
