{
    "_id": "PwxbD5VSJ0Yroqvp",
    "data": {
        "actionCategory": {
            "value": ""
        },
        "actionType": {
            "value": "passive"
        },
        "actions": {
            "value": ""
        },
        "description": {
            "value": "<p>You come from a line of fetchlings with a closer connection to the Ethereal and Shadow Planes, and you share those realms’ affinity with the in-between and unseen. You gain a +1 circumstance bonus to locate @Compendium[pf2e.conditionitems.Undetected]{Undetected} creatures within 60 feet when using the Seek action. Your flat check to target @Compendium[pf2e.conditionitems.Concealed]{Concealed} creatures is DC 3 instead of DC 5, and your flat check to target undetected creatures is DC 9 instead of DC 11.</p>"
        },
        "featType": {
            "value": "heritage"
        },
        "level": {
            "value": 1
        },
        "location": "",
        "prerequisites": {
            "value": []
        },
        "rules": [],
        "schema": {
            "lastMigration": null,
            "version": 0.649
        },
        "source": {
            "value": ""
        },
        "traits": {
            "custom": "",
            "rarity": {
                "value": "common"
            },
            "value": [
                "fetchling"
            ]
        }
    },
    "effects": [],
    "flags": {},
    "img": "systems/pf2e/icons/default-icons/feat.svg",
    "name": "Liminal Fetchling",
    "type": "feat"
}
