{
    "_id": "9Iu1gFEuvVz9zaYU",
    "data": {
        "actionCategory": {
            "value": ""
        },
        "actionType": {
            "value": "passive"
        },
        "actions": {
            "value": ""
        },
        "description": {
            "value": "<p>Your fins conceal launchable toxic spines. You have a spine ranged unarmed attack with the unarmed trait that deals [[/r 1d4 #poison]] poison damage, has a range increment of 10 feet, and is in the dart weapon group.</p>"
        },
        "featType": {
            "value": "heritage"
        },
        "level": {
            "value": 1
        },
        "location": "",
        "prerequisites": {
            "value": []
        },
        "rules": [
            {
                "category": "unarmed",
                "damage": {
                    "base": {
                        "damageType": "poison",
                        "dice": 1,
                        "die": "d4"
                    }
                },
                "group": "dart",
                "key": "PF2E.RuleElement.Strike",
                "label": "Spine",
                "range": "10-feet",
                "traits": [
                    "unarmed"
                ]
            }
        ],
        "schema": {
            "lastMigration": null,
            "version": 0.649
        },
        "source": {
            "value": ""
        },
        "traits": {
            "custom": "",
            "rarity": {
                "value": "common"
            },
            "value": [
                "azarketi"
            ]
        }
    },
    "effects": [],
    "flags": {},
    "img": "systems/pf2e/icons/default-icons/feat.svg",
    "name": "Spined Azarketi",
    "type": "feat"
}
