{
    "_id": "UNlaVxb0pDov3efw",
    "data": {
        "actionCategory": {
            "value": ""
        },
        "actionType": {
            "value": "passive"
        },
        "actions": {
            "value": ""
        },
        "description": {
            "chat": "",
            "unidentified": "",
            "value": "<p><strong>[Heroic]</strong></p>\n<p><strong>Prerequisites:</strong> Tier 3 with the Verdant Wheel</p>\n<p><strong>Cost</strong>: 4 Fame</p>\n<p><span style=\"color: #ff0000;\"><strong>(Parts of this boon may not work as expected under the rules)</strong></span></p>\n<p><strong>Effect</strong>: As Verdant Wheel balances the cycles of life and death, you are able to dance between existence and oblivion in stressful moments. When you spend your Hero Points to avert death, note the value of your dying and wounded condition before applying the Hero Points' effects. Until the end of your next turn, you gain a +1 status bonus to attack rolls, and you also gain a circumstance bonus to your damage rolls, Perception checks, skill checks, and saving throws equal to the noted value (maximum +2 for Reputation tier 3, or +3 for Reputation tier 4).</p>"
        },
        "featType": {
            "value": "pfsboon"
        },
        "level": {
            "value": 0
        },
        "prerequisites": {
            "value": []
        },
        "rules": [],
        "schema": {
            "lastMigration": null,
            "version": 0.649
        },
        "source": {
            "value": ""
        },
        "traits": {
            "custom": "",
            "rarity": {
                "value": "common"
            },
            "selected": {},
            "value": []
        }
    },
    "effects": [],
    "flags": {},
    "img": "systems/pf2e/icons/default-icons/mystery-man.webp",
    "name": "Heroic Resurgence",
    "type": "feat"
}
