{
    "_id": "G0hv2CI7TKcUcSVs",
    "data": {
        "actionCategory": {
            "value": ""
        },
        "actionType": {
            "value": "passive"
        },
        "actions": {
            "value": ""
        },
        "description": {
            "chat": "",
            "unidentified": "",
            "value": "<p><strong>[Slotless]</strong></p>\n<p><strong>Prerequisites</strong>: Tier 4 with the Vigilant Seal</p>\n<p><strong>Cost</strong>: 8 Fame</p>\n<p><strong>Effect</strong>: Your mastery of the contents of the Pathfinder vaults has helped you locate unusual items, which you can pass along to one of your assistants as a reward for their aid. Pick one uncommon item that your character has access to and select 1 of your Pathfinder Society characters with 12 or fewer XP. That character gains access to that item as if it appeared on their Chronicle sheet.</p>"
        },
        "featType": {
            "value": "pfsboon"
        },
        "level": {
            "value": 0
        },
        "prerequisites": {
            "value": []
        },
        "rules": [],
        "schema": {
            "lastMigration": null,
            "version": 0.649
        },
        "source": {
            "value": ""
        },
        "traits": {
            "custom": "",
            "rarity": {
                "value": "common"
            },
            "selected": {},
            "value": []
        }
    },
    "effects": [],
    "flags": {},
    "img": "systems/pf2e/icons/default-icons/mystery-man.webp",
    "name": "Vault Delver",
    "type": "feat"
}
