{
    "_id": "3gweRQ5gn7szIWAv",
    "data": {
        "abilityBoostLevels": {
            "value": [
                5,
                10,
                15,
                20
            ]
        },
        "ancestryFeatLevels": {
            "value": [
                1,
                5,
                9,
                13,
                17
            ]
        },
        "attacks": {
            "advanced": 0,
            "martial": 0,
            "other": {
                "name": "longsword, rapier, sap, shortbow, shortsword, and whip",
                "rank": 1
            },
            "simple": 1,
            "unarmed": 1
        },
        "classDC": 0,
        "classFeatLevels": {
            "value": [
                "2",
                "4",
                "6",
                "8",
                "10",
                "12",
                "14",
                "16",
                "18",
                "20"
            ]
        },
        "defenses": {
            "heavy": 0,
            "light": 1,
            "medium": 0,
            "unarmored": 1
        },
        "description": {
            "value": "<p><em>You are a master of artistry, a scholar of hidden secrets, and a captivating persuader. Using powerful performances, you influence minds and elevate souls to new levels of heroics. You might use your powers to become a charismatic leader, or perhaps you might instead be a counselor, manipulator, scholar, scoundrel, or virtuoso. While your versatility leads some to consider you a beguiling ne'erdo- well and a jack-of-all-trades, it's dangerous to dismiss you as a master of none.</em><br /><br /><strong>Key Ability: CHARISMA</strong><br />At 1st level, your class gives you an ability boost to Charisma.</p>\n<p><strong>Hit Points: 8 plus your Constitution modifier</strong><br />You increase your maximum number of HP by this number at 1st level and every level thereafter.</p>\n<h1>Roleplaying the Bard</h1>\n<h2>During Combat Encounters...</h2>\n<p>You use magical performances to alter the odds in favor of your allies. You confidently alternate between attacks, healing, and helpful spells as needed.</p>\n<h2>During Social Encounters...</h2>\n<p>You persuade, prevaricate, and threaten with ease.</p>\n<h2>While Exploring...</h2>\n<p>You're a font of knowledge, folktales, legends, and lore that provide a deeper context and helpful reconnaissance for the group's adventure. Your spells and performances inspire your allies to greater discovery and success.</p>\n<h2>In Downtime...</h2>\n<p>You can earn money and prestige with your performances, gaining a name for yourself and acquiring patrons. Eventually, tales of your talents and triumphs might attract other bards to study your techniques in a bardic college.</p>\n<h2>You Might...</h2>\n<ul>\n<li>Have a passion for your art so strong that you forge a spiritual connection with it.</li>\n<li>Take point when tact and nonviolent solutions are required.</li>\n<li>Follow your muse, whether it's a mysterious fey creature, a philosophical concept, a psychic force, or a deity of art or music, and with its aid learn secret lore that few others have.</li>\n</ul>\n<h2>Others Probably...</h2>\n<ul>\n<li>Relish the opportunity to invite you to social events, either as a performer or a guest, but consider you to be something of a curiosity in their social circles.</li>\n<li>Underestimate you compared to other spellcasters, believing you are little more than a foppish minstrel and overlooking the subtle power of your magic.</li>\n<li>Respond favorably to your social charm and abilities, but remain suspicious of your beguiling magic.</li>\n</ul>\n<h1>Initial Proficiencies</h1>\n<p>At 1st level, you gain the listed proficiency ranks in the following statistics. You are untrained in anything not listed unless you gain a better proficiency rank in some other way.</p>\n<h2>Perception</h2>\n<p>Expert in Perception</p>\n<h2>Saving Throws</h2>\n<p>Trained in Fortitude<br />Trained in Reflex<br />Expert in Will</p>\n<h2>Skills</h2>\n<p>Trained in Occultism<br />Trained in Performance<br />Trained in a number of additional skills equal to 4 plus your Intelligence modifier</p>\n<h2>Attacks</h2>\n<p>Trained in simple weapons<br />Trained in the longsword, rapier, sap, shortbow, shortsword, and whip<br />Trained in unarmed attacks</p>\n<h2>Defenses</h2>\n<p>Trained in light armor<br />Trained in unarmored defense</p>\n<h2>Spells</h2>\n<p>Trained in occult spell attacks<br />Trained in occult spell DCs</p>\n<h1>Class Features</h1>\n<p>You gain these features as a Bard. Abilities gained at higher levels list the levels at which you gain them next to the features' names.</p>\n<table class=\"pf2-table\">\n<thead>\n<tr>\n<th>Your Level</th>\n<th>Class Features</th>\n</tr>\n</thead>\n<tbody>\n<tr>\n<td>1</td>\n<td>Ancestry and background, initial proficiencies, occult spellcasting, spell repertoire, composition spells, muse</td>\n</tr>\n<tr>\n<td>2</td>\n<td>Bard feat, skill feat</td>\n</tr>\n<tr>\n<td>3</td>\n<td>2nd-level spells, general feat, lightning reflexes, signature spells, skill increase</td>\n</tr>\n<tr>\n<td>4</td>\n<td>Bard feat, skill feat</td>\n</tr>\n<tr>\n<td>5</td>\n<td>3rd-level spells, ability boosts, ancestry feat, skill increase</td>\n</tr>\n<tr>\n<td>6</td>\n<td>Bard feat, skill feat</td>\n</tr>\n<tr>\n<td>7</td>\n<td>4th-level spells, expert spellcaster, general feat, skill increase</td>\n</tr>\n<tr>\n<td>8</td>\n<td>Bard feat, skill feat</td>\n</tr>\n<tr>\n<td>9</td>\n<td>5th-level spells, ancestry feat, great fortitude, resolve, skill increase</td>\n</tr>\n<tr>\n<td>10</td>\n<td>Ability boosts, bard feat, skill feat</td>\n</tr>\n<tr>\n<td>11</td>\n<td>6th-level spells, bard weapon expertise, general feat, skill increase, vigilant senses</td>\n</tr>\n<tr>\n<td>12</td>\n<td>Bard feat, skill feat</td>\n</tr>\n<tr>\n<td>13</td>\n<td>7th-level spells, ancestry feat, light armor expertise, skill increase, weapon specialization</td>\n</tr>\n<tr>\n<td>14</td>\n<td>Bard feat, skill feat</td>\n</tr>\n<tr>\n<td>15</td>\n<td>8th-level spells, ability boosts, general feat, master spellcaster, skill increase</td>\n</tr>\n<tr>\n<td>16</td>\n<td>Bard feat, skill feat</td>\n</tr>\n<tr>\n<td>17</td>\n<td>9th-level spells, ancestry feat, greater resolve, skill increase</td>\n</tr>\n<tr>\n<td>18</td>\n<td>Bard feat, skill feat</td>\n</tr>\n<tr>\n<td>19</td>\n<td>General feat, legendary spellcaster, magnum opus, skill increase</td>\n</tr>\n<tr>\n<td>20</td>\n<td>Ability boosts, bard feat, skill feat</td>\n</tr>\n</tbody>\n</table>\n<h2>Ancestry and Background</h2>\n<p>In addition to the abilities provided by your class at 1st level, you have the benefits of your selected ancestry and background.</p>\n<h2>Composition Spells</h2>\n<p>You can infuse your performances with magic to create unique effects called compositions. Compositions are a special type of spell that often require you to use the Performance skill when casting them. Composition spells are a type of focus spell. It costs 1 Focus Point to cast a focus spell, and you start with a focus pool of 1 Focus Point. You refill your focus pool during your daily preparations, and you can regain 1 Focus Point by spending 10 minutes using the Refocus activity to perform, write a new composition, or otherwise engage your muse.</p>\n<p>Focus spells are automatically heightened to half your level rounded up, much like cantrips. Focus spells don't require spell slots, and you can't cast them using spell slots. Taking feats can give you more focus spells and increase the size of your focus pool, though your focus pool can never hold more than 3 Focus Points.</p>\n<p>You learn the @Compendium[pf2e.spells-srd.Counter Performance]{Counter Performance} composition spell, protecting against auditory and visual effects.</p>\n<h3><strong>Composition Cantrips</strong></h3>\n<p>Composition cantrips are special composition spells that don't cost Focus Points, so you can use them as often as you like. Composition cantrips are in addition to the cantrips you choose from the occult list. Generally, only feats can give you more composition cantrips. Unlike other cantrips, you can't swap out composition cantrips gained from bard feats at a later level, unless you swap out the specific feat via retraining. You learn the @Compendium[pf2e.spells-srd.Inspire Courage]{Inspire Courage} composition cantrip, which boosts your allies' attacks, damage, and defense against fear.</p>\n<h2>Initial Proficiencies</h2>\n<p>At 1st level, you gain a number of proficiencies that represent your basic training. These proficiencies are noted at the start of this class.</p>\n<h2>Muses</h2>\n<p>As a bard, you select one muse at 1st level. This muse leads you to great things, and might be a physical creature, a deity, a philosophy, or a captivating mystery.</p>\n<p>Muses can be found here: @Compendium[pf2e.classfeatures.Maestro Muse]{Maestro}, @Compendium[pf2e.classfeatures.Polymath Muse]{Polymath}, @Compendium[pf2e.classfeatures.Enigma Muse]{Enigma}, and @Compendium[pf2e.classfeatures.Warrior Muse]{Warrior Muse}.</p>\n<h2>Occult Spellcasting</h2>\n<p>You draw upon magic from esoteric knowledge. You can cast occult spells using the Cast a Spell activity, and you can supply material, somatic, and verbal components when casting spells. Because you're a bard, you can usually play an instrument for spells requiring somatic or material components, as long as it takes at least one of your hands to do so. If you use an instrument, you don't need a spell component pouch or another hand free. You can usually also play an instrument for spells requiring verbal components, instead of speaking.<br /><br />Each day, you can cast up to two 1st-level spells. You must know spells to cast them, and you learn them via the spell repertoire class feature. The number of spells you can cast each day is called your spell slots.</p>\n<p>As you increase in level as a bard, your number of spells per day increases, as does the highest level of spells you can cast, as shown on Table 3-6: Bard Spells per Day.</p>\n<p>Some of your spells require you to attempt a spell attack roll to see how effective they are, or have your enemies roll against your spell DC (typically by attempting a saving throw). Since your key ability is Charisma, your spell attack rolls and spell DCs use your Charisma modifier.</p>\n<h3><strong>Heightening Spells</strong></h3>\n<p>When you get spell slots of 2nd level and higher, you can fill those slots with stronger versions of lower-level spells. This increases the spell's level to match the spell slot. You must have a spell in your spell repertoire at the level you want to cast in order to heighten it to that level. Many spells have specific improvements when they are heightened to certain levels. The signature spells class feature lets you heighten certain spells freely.</p>\n<h3><strong>Cantrips</strong></h3>\n<p>Some of your spells are cantrips. A cantrip is a special type of spell that doesn't use spell slots. You can cast a cantrip at will, any number of times per day. A cantrip is automatically heightened to half your level rounded up -- this is usually equal to the highest level of bard spell slot you have. For example, as a 1st-level bard, your cantrips are 1st-level spells, and as a 5th-level bard, your cantrips are 3rd-level spells.</p>\n<table class=\"pf2-table\">\n<thead>\n<tr>\n<th>Your Level</th>\n<th>Cantrips</th>\n<th>1st</th>\n<th>2nd</th>\n<th>3rd</th>\n<th>4th</th>\n<th>5th</th>\n<th>6th</th>\n<th>7th</th>\n<th>8th</th>\n<th>9th</th>\n<th>10th</th>\n</tr>\n</thead>\n<tbody>\n<tr>\n<td>1</td>\n<td>5</td>\n<td>2</td>\n<td>-</td>\n<td>-</td>\n<td>-</td>\n<td>-</td>\n<td>-</td>\n<td>-</td>\n<td>-</td>\n<td>-</td>\n<td>-</td>\n</tr>\n<tr>\n<td>2</td>\n<td>5</td>\n<td>3</td>\n<td>-</td>\n<td>-</td>\n<td>-</td>\n<td>-</td>\n<td>-</td>\n<td>-</td>\n<td>-</td>\n<td>-</td>\n<td>-</td>\n</tr>\n<tr>\n<td>3</td>\n<td>5</td>\n<td>3</td>\n<td>2</td>\n<td>-</td>\n<td>-</td>\n<td>-</td>\n<td>-</td>\n<td>-</td>\n<td>-</td>\n<td>-</td>\n<td>-</td>\n</tr>\n<tr>\n<td>4</td>\n<td>5</td>\n<td>3</td>\n<td>3</td>\n<td>-</td>\n<td>-</td>\n<td>-</td>\n<td>-</td>\n<td>-</td>\n<td>-</td>\n<td>-</td>\n<td>-</td>\n</tr>\n<tr>\n<td>5</td>\n<td>5</td>\n<td>3</td>\n<td>3</td>\n<td>2</td>\n<td>-</td>\n<td>-</td>\n<td>-</td>\n<td>-</td>\n<td>-</td>\n<td>-</td>\n<td>-</td>\n</tr>\n<tr>\n<td>6</td>\n<td>5</td>\n<td>3</td>\n<td>3</td>\n<td>3</td>\n<td>-</td>\n<td>-</td>\n<td>-</td>\n<td>-</td>\n<td>-</td>\n<td>-</td>\n<td>-</td>\n</tr>\n<tr>\n<td>7</td>\n<td>5</td>\n<td>3</td>\n<td>3</td>\n<td>3</td>\n<td>2</td>\n<td>-</td>\n<td>-</td>\n<td>-</td>\n<td>-</td>\n<td>-</td>\n<td>-</td>\n</tr>\n<tr>\n<td>8</td>\n<td>5</td>\n<td>3</td>\n<td>3</td>\n<td>3</td>\n<td>3</td>\n<td>-</td>\n<td>-</td>\n<td>-</td>\n<td>-</td>\n<td>-</td>\n<td>-</td>\n</tr>\n<tr>\n<td>9</td>\n<td>5</td>\n<td>3</td>\n<td>3</td>\n<td>3</td>\n<td>3</td>\n<td>2</td>\n<td>-</td>\n<td>-</td>\n<td>-</td>\n<td>-</td>\n<td>-</td>\n</tr>\n<tr>\n<td>10</td>\n<td>5</td>\n<td>3</td>\n<td>3</td>\n<td>3</td>\n<td>3</td>\n<td>3</td>\n<td>-</td>\n<td>-</td>\n<td>-</td>\n<td>-</td>\n<td>-</td>\n</tr>\n<tr>\n<td>11</td>\n<td>5</td>\n<td>3</td>\n<td>3</td>\n<td>3</td>\n<td>3</td>\n<td>3</td>\n<td>2</td>\n<td>-</td>\n<td>-</td>\n<td>-</td>\n<td>-</td>\n</tr>\n<tr>\n<td>12</td>\n<td>5</td>\n<td>3</td>\n<td>3</td>\n<td>3</td>\n<td>3</td>\n<td>3</td>\n<td>3</td>\n<td>-</td>\n<td>-</td>\n<td>-</td>\n<td>-</td>\n</tr>\n<tr>\n<td>13</td>\n<td>5</td>\n<td>3</td>\n<td>3</td>\n<td>3</td>\n<td>3</td>\n<td>3</td>\n<td>3</td>\n<td>2</td>\n<td>-</td>\n<td>-</td>\n<td>-</td>\n</tr>\n<tr>\n<td>14</td>\n<td>5</td>\n<td>3</td>\n<td>3</td>\n<td>3</td>\n<td>3</td>\n<td>3</td>\n<td>3</td>\n<td>3</td>\n<td>-</td>\n<td>-</td>\n<td>-</td>\n</tr>\n<tr>\n<td>15</td>\n<td>5</td>\n<td>3</td>\n<td>3</td>\n<td>3</td>\n<td>3</td>\n<td>3</td>\n<td>3</td>\n<td>3</td>\n<td>2</td>\n<td>-</td>\n<td>-</td>\n</tr>\n<tr>\n<td>16</td>\n<td>5</td>\n<td>3</td>\n<td>3</td>\n<td>3</td>\n<td>3</td>\n<td>3</td>\n<td>3</td>\n<td>3</td>\n<td>3</td>\n<td>-</td>\n<td>-</td>\n</tr>\n<tr>\n<td>17</td>\n<td>5</td>\n<td>3</td>\n<td>3</td>\n<td>3</td>\n<td>3</td>\n<td>3</td>\n<td>3</td>\n<td>3</td>\n<td>3</td>\n<td>2</td>\n<td>-</td>\n</tr>\n<tr>\n<td>18</td>\n<td>5</td>\n<td>3</td>\n<td>3</td>\n<td>3</td>\n<td>3</td>\n<td>3</td>\n<td>3</td>\n<td>3</td>\n<td>3</td>\n<td>3</td>\n<td>-</td>\n</tr>\n<tr>\n<td>19</td>\n<td>5</td>\n<td>3</td>\n<td>3</td>\n<td>3</td>\n<td>3</td>\n<td>3</td>\n<td>3</td>\n<td>3</td>\n<td>3</td>\n<td>3</td>\n<td>1*</td>\n</tr>\n<tr>\n<td>20</td>\n<td>5</td>\n<td>3</td>\n<td>3</td>\n<td>3</td>\n<td>3</td>\n<td>3</td>\n<td>3</td>\n<td>3</td>\n<td>3</td>\n<td>3</td>\n<td>1*</td>\n</tr>\n<tr>\n<td style=\"color: white; width: 120px; background-color: #522e2c; text-align: center; height: 25px;\" colspan=\"12\">* The magnum opus class feature gives you a 10th-level spell slot that works a bit differently from other spell slots.</td>\n</tr>\n</tbody>\n</table>\n<h2>Spell Repertoire</h2>\n<p>The collection of spells you can cast is called your spell repertoire. At 1st level, you learn two 1st-level occult spells of your choice and five occult cantrips of your choice. You choose these from the common spells from the occult list or from other occult spells to which you have access. You can cast any spell in your spell repertoire by using a spell slot of an appropriate spell level.</p>\n<p>You add to this spell repertoire as you increase in level. Each time you get a spell slot (see Table 3-6), you add a spell to your spell repertoire of the same level. At 2nd level, you select another 1st-level spell; at 3rd level, you select two 2nd-level spells, and so on. When you add spells, you might add a higher-level version of a spell you already have, so you can cast a heightened version of that spell.</p>\n<p>Though you gain them at the same rate, your spell slots and the spells in your spell repertoire are separate. If a feat or other ability adds a spell to your spell repertoire, it wouldn't give you another spell slot, and vice versa.</p>\n<h3><strong>Swapping Spells in Your Repertoire</strong></h3>\n<p>As you gain new spells in your repertoire, you might want to replace some of the spells you previously learned. Each time you gain a level and learn new spells, you can swap out one of your old spells for a different spell of the same level. This spell can be a cantrip. You can also swap out spells by retraining during downtime.</p>\n<h2>Bard Feats<span style=\"float: right;\">Level 2</span></h2>\n<p>At 2nd level and every 2 levels thereafter, you gain a bard class feat.</p>\n<h2>Skill Feats<span style=\"float: right;\">Level 2</span></h2>\n<p>At 2nd level and every 2 levels thereafter, you gain a skill feat. You must be trained or better in the corresponding skill to select a skill feat.</p>\n<h2>General Feats<span style=\"float: right;\">Level 3</span></h2>\n<p>At 3rd level and every 4 levels thereafter, you gain a general feat.</p>\n<h2>Lightning Reflexes<span style=\"float: right;\">Level 3</span></h2>\n<p>Your reflexes are lightning fast. Your proficiency rank in Reflex saves increases to expert.</p>\n<h2>Signature Spells<span style=\"float: right;\">Level 3</span></h2>\n<p>Experience allows you to cast some spells more flexibly. For each spell level you have access to, choose one spell of that level to be a signature spell. You don't need to learn heightened versions of signature spells separately; instead, you can heighten these spells freely. If you've learned a signature spell at a higher level than its minimum, you can also cast all its lower-level versions without learning those separately. If you swap out a signature spell, you can choose a replacement signature spell of the same spell level at which you learned the previous spell. You can also retrain specifically to change a signature spell to a different spell of that level without swapping any spells; this takes as much time as retraining a spell normally does.</p>\n<h2>Skill Increases<span style=\"float: right;\">Level 3</span></h2>\n<p>At 3rd level and every 2 levels thereafter, you gain a skill increase. You can use this increase either to increase your proficiency rank to trained in one skill you're untrained in, or to increase your proficiency rank in one skill in which you're already trained to expert.</p>\n<p>At 7th level, you can use skill increases to increase your proficiency rank to master in a skill in which you're already an expert, and at 15th level, you can use them to increase your proficiency rank to legendary in a skill in which you're already a master.</p>\n<h2>Ability Boosts<span style=\"float: right;\">Level 5</span></h2>\n<p>At 5th level and every 5 levels thereafter, you boost four different ability scores. You can use these ability boosts to increase your ability scores above 18. Boosting an ability score increases it by 1 if it's already 18 or above, or by 2 if it starts out below 18.</p>\n<h2>Ancestry Feats<span style=\"float: right;\">Level 5</span></h2>\n<p>In addition to the ancestry feat you started with, you gain an ancestry feat at 5th level and every 4 levels thereafter.</p>\n<h2>Expert Spellcaster<span style=\"float: right;\">Level 7</span></h2>\n<p>Your proficiency ranks for occult spell attack rolls and spell DCs increase to expert.</p>\n<h2>Great Fortitude<span style=\"float: right;\">Level 9</span></h2>\n<p>Your physique is incredibly hardy. Your proficiency rank for Fortitude saves increases to expert.</p>\n<h2>Resolve<span style=\"float: right;\">Level 9</span></h2>\n<p>You've steeled your mind with resolve. Your proficiency rank for Will saves increases to master. When you roll a success at a Will save, you get a critical success instead.</p>\n<h2>Bard Weapon Expertise<span style=\"float: right;\">Level 11</span></h2>\n<p>You have become thoroughly adept with bardic weapons. You gain expert proficiency in simple weapons and unarmed attacks, plus the longsword, rapier, sap, shortbow, shortsword, and whip. When you critically succeed at an attack roll using one of these weapons while one of your compositions is active, you apply the critical specialization effect for that weapon.</p>\n<h2>Vigilant Senses<span style=\"float: right;\">Level 11</span></h2>\n<p>Through your adventures, you've developed keen awareness and attention to detail. Your proficiency rank for Perception increases to master.</p>\n<h2>Light Armor Expertise<span style=\"float: right;\">Level 13</span></h2>\n<p>You've learned how to dodge while wearing light or no armor. Your proficiency ranks for light armor and unarmored defense increase to expert.</p>\n<h2>Weapon Specialization<span style=\"float: right;\">Level 13</span></h2>\n<p>You've learned how to inflict greater injuries with the weapons you know best. You deal 2 additional damage with weapons and unarmed attacks in which you are an expert. This damage increases to 3 damage if you're a master, and 4 damage if you're legendary.</p>\n<h2>Master Spellcaster<span style=\"float: right;\">Level 15</span></h2>\n<p>You've mastered the occult. Your proficiency ranks for occult spell attack rolls and spell DCs increase to master.</p>\n<h2>Greater Resolve<span style=\"float: right;\">Level 17</span></h2>\n<p>Your unbelievable training grants you mental resiliency. Your proficiency rank for Will saves increases to legendary. When you roll a success at a Will save, you get a critical success. When you roll a critical failure at a Will save, you get a failure instead. When you roll a failure on a Will save against a damaging effect, you take half damage.</p>\n<h2>Legendary Spellcaster<span style=\"float: right;\">Level 19</span></h2>\n<p>Your command of occult magic is the stuff of legends. Your proficiency ranks for occult spell attack rolls and spell DCs increase to legendary.</p>\n<h2>Magnum Opus<span style=\"float: right;\">Level 19</span></h2>\n<p>You have tuned your spellcasting to the highest caliber. Add two common 10th-level occult spells to your repertoire. You gain a single 10th-level spell slot you can use to cast one of those two spells using bard spellcasting. You don't gain more 10th-level spells as you level up, unlike other spell slots, and you can't use 10th-level slots with abilities that give you more spell slots or that let you cast spells without expending spell slots.</p>"
        },
        "generalFeatLevels": {
            "value": [
                3,
                7,
                11,
                15,
                19
            ]
        },
        "hp": 8,
        "items": {
            "06b94": {
                "id": "cD3nSupdCvONuHiE",
                "img": "systems/pf2e/icons/features/classes/expert-spellcaster.webp",
                "level": 7,
                "name": "Expert Spellcaster (Level 7)",
                "pack": "pf2e.classfeatures"
            },
            "1da3z": {
                "id": "l1InYvhnQSz6Ucxc",
                "img": "systems/pf2e/icons/features/classes/master-spellcaster.webp",
                "level": 15,
                "name": "Master Spellcaster (Level 15)",
                "pack": "pf2e.classfeatures"
            },
            "1qqwt": {
                "id": "1NGTc0gqEtwaFqUK",
                "img": "systems/pf2e/icons/features/classes/weapon-specialization.webp",
                "level": 13,
                "name": "Weapon Specialization (Level 13)",
                "pack": "pf2e.classfeatures"
            },
            "73fw3": {
                "id": "NTp146fjLreL5zsj",
                "img": "systems/pf2e/icons/features/classes/vigilant-senses.webp",
                "level": 11,
                "name": "Vigilant Senses (Level 11)",
                "pack": "pf2e.classfeatures"
            },
            "81u6r": {
                "id": "NjsOpWbbzUY2Hpk3",
                "img": "systems/pf2e/icons/features/classes/magnum-opus.webp",
                "level": "19",
                "name": "Magnum Opus",
                "pack": "pf2e.classfeatures"
            },
            "9uoge": {
                "id": "D2g6sZQAWaTccviQ",
                "img": "systems/pf2e/icons/features/classes/resolve.webp",
                "level": 9,
                "name": "Resolve (Level 9)",
                "pack": "pf2e.classfeatures"
            },
            "ed5t5": {
                "id": "6FsusoMYxxjyIkVh",
                "img": "systems/pf2e/icons/equipment/adventuring-gear/spellbook.webp",
                "level": 1,
                "name": "Spell Repertoire (Bard)",
                "pack": "pf2e.classfeatures"
            },
            "en1lf": {
                "id": "s0VbbQJNlSgPocui",
                "img": "systems/pf2e/icons/equipment/adventuring-gear/musical-instrument-handheld.webp",
                "level": 1,
                "name": "Composition Spells",
                "pack": "pf2e.classfeatures"
            },
            "hoz9u": {
                "id": "AIOBWGOS4nkfH3kW",
                "img": "systems/pf2e/icons/default-icons/feat.svg",
                "level": 1,
                "name": "Muses",
                "pack": "pf2e.classfeatures"
            },
            "iipml": {
                "id": "25GSAotUcDwInYgG",
                "img": "systems/pf2e/icons/features/classes/great-fortitude.webp",
                "level": 9,
                "name": "Great Fortitude (Level 9)",
                "pack": "pf2e.classfeatures"
            },
            "oitnf": {
                "id": "VKRjmXxBFLrJK01c",
                "img": "systems/pf2e/icons/features/classes/signature-spells-sorcerer.webp",
                "level": 3,
                "name": "Signature Spells (Level 3)",
                "pack": "pf2e.classfeatures"
            },
            "q84eq": {
                "id": "pZYkb12t5DSwtts7",
                "img": "systems/pf2e/icons/features/classes/light-armor-expertise.webp",
                "level": 13,
                "name": "Light Armor Expertise (Level 13)",
                "pack": "pf2e.classfeatures"
            },
            "qev30": {
                "id": "fEOj0eOBe34qYdAa",
                "img": "systems/pf2e/icons/features/classes/occult-spellcasting.webp",
                "level": "1",
                "name": "Occult Spellcasting",
                "pack": "pf2e.classfeatures"
            },
            "qphik": {
                "id": "5LOARurr4qWkfS9K",
                "img": "systems/pf2e/icons/features/classes/greater-resolve.webp",
                "level": 17,
                "name": "Greater Resolve (Level 17)",
                "pack": "pf2e.classfeatures"
            },
            "tjlz3": {
                "id": "TUOeATt52P43r5W0",
                "img": "systems/pf2e/icons/features/classes/lightning-reflexes.webp",
                "level": 3,
                "name": "Lightning Reflexes (Level 3)",
                "pack": "pf2e.classfeatures"
            },
            "usp0h": {
                "id": "Hfaa7TuLn3nE8lr3",
                "img": "systems/pf2e/icons/features/classes/legendary-spellcaster.webp",
                "level": 19,
                "name": "Legendary Spellcaster (Level 19)",
                "pack": "pf2e.classfeatures"
            },
            "yjn5p": {
                "id": "4lp8oG9A3zuqhPBS",
                "img": "systems/pf2e/icons/features/classes/bard-weapon-expertise.webp",
                "level": "11",
                "name": "Bard Weapon Expertise",
                "pack": "pf2e.classfeatures"
            }
        },
        "keyAbility": {
            "value": [
                "cha"
            ]
        },
        "perception": 2,
        "rules": [],
        "savingThrows": {
            "fortitude": 1,
            "reflex": 1,
            "will": 2
        },
        "schema": {
            "lastMigration": null,
            "version": 0.649
        },
        "skillFeatLevels": {
            "value": [
                2,
                4,
                6,
                8,
                10,
                12,
                14,
                16,
                18,
                20
            ]
        },
        "skillIncreaseLevels": {
            "value": [
                3,
                5,
                7,
                9,
                11,
                13,
                15,
                17,
                19
            ]
        },
        "source": {
            "value": ""
        },
        "trainedSkills": {
            "additional": 4,
            "value": [
                "occ",
                "prf"
            ]
        },
        "traits": {
            "custom": "",
            "rarity": {
                "value": "common"
            },
            "value": []
        }
    },
    "effects": [
        {
            "_id": "Gayew8gBlFhVq8NN",
            "changes": [
                {
                    "key": "data.attributes.perception.rank",
                    "mode": 4,
                    "value": "2"
                },
                {
                    "key": "data.saves.fortitude.rank",
                    "mode": 4,
                    "value": "1"
                },
                {
                    "key": "data.saves.reflex.rank",
                    "mode": 4,
                    "value": "1"
                },
                {
                    "key": "data.saves.will.rank",
                    "mode": 4,
                    "value": "2"
                },
                {
                    "key": "data.skills.occ.rank",
                    "mode": 4,
                    "value": "1"
                },
                {
                    "key": "data.skills.prf.rank",
                    "mode": 4,
                    "value": "1"
                },
                {
                    "key": "data.martial.simple.rank",
                    "mode": 4,
                    "value": "1"
                },
                {
                    "key": "data.martial.weapon-base-longsword.rank",
                    "mode": 4,
                    "value": "1"
                },
                {
                    "key": "data.martial.weapon-base-rapier.rank",
                    "mode": 4,
                    "value": "1"
                },
                {
                    "key": "data.martial.weapon-base-sap.rank",
                    "mode": 4,
                    "value": "1"
                },
                {
                    "key": "data.martial.weapon-base-shortbow.rank",
                    "mode": 4,
                    "value": "1"
                },
                {
                    "key": "data.martial.weapon-base-shortsword.rank",
                    "mode": 4,
                    "value": "1"
                },
                {
                    "key": "data.martial.weapon-base-whip.rank",
                    "mode": 4,
                    "value": "1"
                },
                {
                    "key": "data.martial.unarmed.rank",
                    "mode": 4,
                    "value": "1"
                },
                {
                    "key": "data.martial.unarmored.rank",
                    "mode": 4,
                    "value": "1"
                },
                {
                    "key": "data.martial.light.rank",
                    "mode": 4,
                    "value": "1"
                }
            ],
            "disabled": false,
            "duration": {
                "startTime": null
            },
            "flags": {},
            "icon": "systems/pf2e/icons/classes/bard.webp",
            "label": "Initial Proficiencies",
            "origin": "",
            "tint": null,
            "transfer": true
        },
        {
            "_id": "TmdR1vrg1QEUZMrC",
            "changes": [
                {
                    "key": "data.details.keyability.value",
                    "mode": 5,
                    "value": "cha"
                }
            ],
            "disabled": false,
            "duration": {
                "startTime": null
            },
            "flags": {},
            "icon": "systems/pf2e/icons/classes/bard.webp",
            "label": "Key Ability",
            "origin": "",
            "tint": null,
            "transfer": true
        }
    ],
    "flags": {},
    "img": "systems/pf2e/icons/classes/bard.webp",
    "name": "Bard",
    "type": "class"
}
