{
    "_id": "bvk5rwYSoTtz8QGf",
    "data": {
        "description": {
            "value": "<p>Granted by @Compendium[pf2e.feats-srd.Accursed Clay Fist]{Accursed Clay Fist}</p>\n<p>You take a -2 status penalty to saving throws against curse effects for 1 hour.</p>"
        },
        "duration": {
            "expiry": "turn-start",
            "sustained": false,
            "unit": "hours",
            "value": 1
        },
        "level": {
            "value": 1
        },
        "rules": [
            {
                "key": "PF2E.RuleElement.FlatModifier",
                "label": "Accursed Clay Fist (vs. curses)",
                "predicate": {
                    "all": [
                        "curse"
                    ]
                },
                "selector": "will",
                "type": "status",
                "value": -2
            }
        ],
        "schema": {
            "lastMigration": null,
            "version": 0.649
        },
        "source": {
            "value": "Pathfinder #153: Life's Long Shadows"
        },
        "start": {
            "initiative": null,
            "value": 0
        },
        "target": null,
        "tokenIcon": {
            "show": false
        },
        "traits": {
            "custom": "",
            "rarity": {
                "value": "common"
            },
            "value": []
        }
    },
    "effects": [],
    "flags": {},
    "img": "systems/pf2e/icons/default-icons/effect.svg",
    "name": "Effect: Accursed Clay Fist",
    "type": "effect"
}
