{
    "_id": "7ogytOgDmh4h2g5d",
    "data": {
        "description": {
            "value": "<p>Granted by @Compendium[pf2e.feats-srd.Heroic Recovery]{Heroic Recovery}.</p>\n<p>If the next action you use is to cast @Compendium[pf2e.spells-srd.Heal]{Heal} targeting a single living creature and the target regains Hit Points from the spell, it also gains three bonuses until the end of its next turn: a +5-foot status bonus to its Speed, a +1 status bonus to attack rolls, and a +1 status bonus to damage rolls.</p>"
        },
        "duration": {
            "expiry": "turn-start",
            "sustained": false,
            "unit": "rounds",
            "value": 1
        },
        "level": {
            "value": 10
        },
        "rules": [
            {
                "key": "PF2E.RuleElement.TokenEffectIcon"
            },
            {
                "key": "PF2E.RuleElement.FlatModifier",
                "selector": "speed",
                "type": "status",
                "value": 5
            },
            {
                "key": "PF2E.RuleElement.FlatModifier",
                "selector": "attack",
                "type": "status",
                "value": 1
            },
            {
                "key": "PF2E.RuleElement.FlatModifier",
                "selector": "damage",
                "type": "status",
                "value": 1
            }
        ],
        "schema": {
            "lastMigration": null,
            "version": 0.649
        },
        "source": {
            "value": ""
        },
        "start": {
            "initiative": null,
            "value": 0
        },
        "target": null,
        "traits": {
            "custom": "",
            "rarity": {
                "value": "common"
            },
            "value": []
        }
    },
    "effects": [],
    "flags": {},
    "img": "systems/pf2e/icons/spells/battlefield-persistence.webp",
    "name": "Effect: Heroic Recovery",
    "type": "effect"
}
