{
    "_id": "1HEIUP4MCD8JVLrI",
    "data": {
        "description": {
            "value": ""
        },
        "duration": {
            "expiry": "turn-start",
            "sustained": false,
            "unit": "minutes",
            "value": 1
        },
        "level": {
            "value": 1
        },
        "rules": [
            {
                "key": "PF2E.RuleElement.SetProperty",
                "label": "rage",
                "on": {
                    "added": "true",
                    "removed": "false"
                },
                "property": "flags.pf2e.rollOptions.all.ragewight-rage"
            },
            {
                "key": "PF2E.RuleElement.TempHP",
                "value": "@details.level.value + 4"
            }
        ],
        "schema": {
            "lastMigration": null,
            "version": 0.649
        },
        "source": {
            "value": ""
        },
        "start": {
            "initiative": null,
            "value": 0
        },
        "target": null,
        "tokenIcon": {
            "show": true
        },
        "traits": {
            "custom": "",
            "rarity": {
                "value": "common"
            },
            "value": []
        }
    },
    "effects": [],
    "flags": {},
    "img": "systems/pf2e/icons/features/classes/rage.webp",
    "name": "Effect: Ragewight Rage",
    "type": "effect"
}
