{
    "_id": "jQmfZcPD6xVYx5nb",
    "data": {
        "description": {
            "value": "<p>A creature struck by a slurk's slime squirt becomes @Compendium[pf2e.conditionitems.Clumsy]{Clumsy 1} and takes a -5-foot penalty to Speed for 1 hour or until the slime is removed.</p>"
        },
        "duration": {
            "expiry": "turn-start",
            "sustained": false,
            "unit": "hours",
            "value": 1
        },
        "level": {
            "value": 1
        },
        "rules": [
            {
                "key": "PF2E.RuleElement.FlatModifier",
                "label": "Entangling Slime",
                "selector": "speed",
                "type": "status",
                "value": -5
            }
        ],
        "schema": {
            "lastMigration": null,
            "version": 0.649
        },
        "source": {
            "value": ""
        },
        "start": {
            "initiative": null,
            "value": 0
        },
        "target": null,
        "tokenIcon": {
            "show": true
        },
        "traits": {
            "custom": "",
            "rarity": {
                "value": "common"
            },
            "value": []
        }
    },
    "effects": [],
    "flags": {},
    "img": "systems/pf2e/icons/spells/cloudkill.webp",
    "name": "Effect: Entangling Slime",
    "type": "effect"
}
