{
    "_id": "F7gjEHGO2c956FEy",
    "data": {
        "abilities": {
            "cha": {
                "mod": 5
            },
            "con": {
                "mod": 4
            },
            "dex": {
                "mod": 2
            },
            "int": {
                "mod": 4
            },
            "str": {
                "mod": 2
            },
            "wis": {
                "mod": 2
            }
        },
        "attributes": {
            "ac": {
                "details": "",
                "value": 23
            },
            "allSaves": {
                "value": "+2 circumstance to all saves vs. disease"
            },
            "hp": {
                "details": "negative healing",
                "max": 91,
                "temp": 0,
                "value": 91
            },
            "initiative": {
                "ability": "perception"
            },
            "perception": {
                "value": 13
            },
            "shield": {
                "ac": 0,
                "brokenThreshold": "0",
                "hardness": 0,
                "max": "0",
                "value": 0
            },
            "speed": {
                "otherSpeeds": [],
                "value": "25 feet"
            }
        },
        "details": {
            "alignment": {
                "value": "CE"
            },
            "creatureType": "",
            "level": {
                "value": 6
            },
            "source": {
                "value": "Pathfinder Society: Season 1"
            }
        },
        "resources": {
            "focus": {
                "max": 1,
                "value": 1
            }
        },
        "saves": {
            "fortitude": {
                "saveDetail": "",
                "value": 14
            },
            "reflex": {
                "saveDetail": "",
                "value": 14
            },
            "will": {
                "saveDetail": "",
                "value": 17
            }
        },
        "schema": {
            "lastMigration": null,
            "version": 0.649
        },
        "traits": {
            "ci": [],
            "di": {
                "custom": "",
                "value": []
            },
            "dr": [],
            "dv": [],
            "languages": {
                "custom": "",
                "selected": [],
                "value": [
                    "common",
                    "necril"
                ]
            },
            "rarity": {
                "value": "unique"
            },
            "senses": {
                "value": "darkvision"
            },
            "size": {
                "value": "med"
            },
            "traits": {
                "custom": "",
                "value": [
                    "dhampir",
                    "human",
                    "humanoid"
                ]
            }
        }
    },
    "effects": [],
    "flags": {},
    "img": "systems/pf2e/icons/default-icons/npc.svg",
    "items": [
        {
            "_id": "MAK7bBt66XWETv0T",
            "data": {
                "ability": {
                    "value": ""
                },
                "description": {
                    "value": ""
                },
                "displayLevels": {},
                "item": {
                    "value": 0
                },
                "prepared": {
                    "value": "prepared"
                },
                "proficiency": {
                    "value": 0
                },
                "rules": [],
                "schema": {
                    "lastMigration": null,
                    "version": 0.649
                },
                "showUnpreparedSpells": {
                    "value": false
                },
                "signatureSpells": {
                    "value": []
                },
                "slots": {
                    "slot0": {
                        "max": 5,
                        "prepared": {
                            "0": {
                                "id": "W6JsamyhA1CQYfpD"
                            },
                            "1": {
                                "id": "q7LwPhPKMsNWyuYa"
                            },
                            "2": {
                                "id": "OVo8UoZODAJoKB91"
                            },
                            "3": {
                                "id": "MK9bTkEreHuMoHRV"
                            },
                            "4": {
                                "id": "KZNdtiCPyPGSzY0u"
                            }
                        },
                        "value": 0
                    },
                    "slot1": {
                        "max": 3,
                        "prepared": {
                            "0": {
                                "id": "v8STb4kPoxVQ5xzk"
                            },
                            "1": {
                                "id": "lTnWvjTn6tEQLRi6"
                            },
                            "2": {
                                "id": "ND8PMdFmUlldW1W7"
                            }
                        },
                        "value": 0
                    },
                    "slot10": {
                        "max": 0,
                        "prepared": [],
                        "value": 0
                    },
                    "slot11": {
                        "max": 0,
                        "prepared": [],
                        "value": 0
                    },
                    "slot2": {
                        "max": 3,
                        "prepared": {
                            "0": {
                                "id": "HH7A9EOThICtaSio"
                            },
                            "1": {
                                "id": "PT6L7esxKf99nHir"
                            },
                            "2": {
                                "id": "2QYP5QwQhjJ654da"
                            }
                        },
                        "value": 0
                    },
                    "slot3": {
                        "max": 3,
                        "prepared": {
                            "0": {
                                "id": "nnxzruea65oDKwbm"
                            },
                            "1": {
                                "id": "VdZOGhzI2j6fVgue"
                            },
                            "2": {
                                "id": "uj4oEGqGOrnxta5T"
                            }
                        },
                        "value": 0
                    },
                    "slot4": {
                        "max": 0,
                        "prepared": [],
                        "value": 0
                    },
                    "slot5": {
                        "max": 0,
                        "prepared": [],
                        "value": 0
                    },
                    "slot6": {
                        "max": 0,
                        "prepared": [],
                        "value": 0
                    },
                    "slot7": {
                        "max": 0,
                        "prepared": [],
                        "value": 0
                    },
                    "slot8": {
                        "max": 0,
                        "prepared": [],
                        "value": 0
                    },
                    "slot9": {
                        "max": 0,
                        "prepared": [],
                        "value": 0
                    }
                },
                "slug": null,
                "source": {
                    "value": ""
                },
                "spelldc": {
                    "dc": "26",
                    "item": 0,
                    "mod": 0,
                    "value": 18
                },
                "tradition": {
                    "value": "occult"
                },
                "traits": {
                    "custom": "",
                    "rarity": {
                        "value": "common"
                    },
                    "value": []
                }
            },
            "effects": [],
            "flags": {},
            "img": "systems/pf2e/icons/default-icons/spellcastingEntry.svg",
            "name": "Occult Prepared Spells",
            "sort": 100000,
            "type": "spellcastingEntry"
        },
        {
            "_id": "PRbP9Xmm1h81ld5N",
            "data": {
                "ability": {
                    "value": ""
                },
                "description": {
                    "value": ""
                },
                "displayLevels": {},
                "item": {
                    "value": 0
                },
                "prepared": {
                    "value": "innate"
                },
                "proficiency": {
                    "value": 0
                },
                "rules": [],
                "schema": {
                    "lastMigration": null,
                    "version": 0.649
                },
                "showUnpreparedSpells": {
                    "value": false
                },
                "signatureSpells": {
                    "value": []
                },
                "slots": {
                    "slot0": {
                        "max": 0,
                        "prepared": [],
                        "value": 0
                    },
                    "slot1": {
                        "max": 0,
                        "prepared": [],
                        "value": 0
                    },
                    "slot10": {
                        "max": 0,
                        "prepared": [],
                        "value": 0
                    },
                    "slot11": {
                        "max": 0,
                        "prepared": [],
                        "value": 0
                    },
                    "slot2": {
                        "max": 0,
                        "prepared": [],
                        "value": 0
                    },
                    "slot3": {
                        "max": 0,
                        "prepared": [],
                        "value": 0
                    },
                    "slot4": {
                        "max": 0,
                        "prepared": [],
                        "value": 0
                    },
                    "slot5": {
                        "max": 0,
                        "prepared": [],
                        "value": 0
                    },
                    "slot6": {
                        "max": 0,
                        "prepared": [],
                        "value": 0
                    },
                    "slot7": {
                        "max": 0,
                        "prepared": [],
                        "value": 0
                    },
                    "slot8": {
                        "max": 0,
                        "prepared": [],
                        "value": 0
                    },
                    "slot9": {
                        "max": 0,
                        "prepared": [],
                        "value": 0
                    }
                },
                "slug": null,
                "source": {
                    "value": ""
                },
                "spelldc": {
                    "dc": "26",
                    "item": 0,
                    "mod": 0,
                    "value": 16
                },
                "tradition": {
                    "value": "occult"
                },
                "traits": {
                    "custom": "",
                    "rarity": {
                        "value": "common"
                    },
                    "value": []
                }
            },
            "effects": [],
            "flags": {},
            "img": "systems/pf2e/icons/default-icons/spellcastingEntry.svg",
            "name": "Occult Rituals",
            "sort": 200000,
            "type": "spellcastingEntry"
        },
        {
            "_id": "nnxzruea65oDKwbm",
            "data": {
                "ability": {
                    "value": ""
                },
                "area": {
                    "areaType": "",
                    "value": null
                },
                "areasize": {
                    "value": ""
                },
                "category": {
                    "value": "spell"
                },
                "components": {
                    "material": false,
                    "somatic": true,
                    "verbal": true
                },
                "cost": {
                    "value": ""
                },
                "damage": {
                    "applyMod": false,
                    "value": ""
                },
                "damageType": {
                    "value": ""
                },
                "description": {
                    "value": "<p>With a word of necromantic power, you seize control of the target. It gains the minion trait. If you or an ally uses any hostile actions against the target, the spell ends.</p>"
                },
                "duration": {
                    "value": "1 day"
                },
                "hasCounteractCheck": {
                    "value": false
                },
                "level": {
                    "value": 3
                },
                "location": {
                    "value": "MAK7bBt66XWETv0T"
                },
                "materials": {
                    "value": ""
                },
                "prepared": {
                    "value": ""
                },
                "primarycheck": {
                    "value": ""
                },
                "range": {
                    "value": "30 feet"
                },
                "rules": [],
                "save": {
                    "basic": "",
                    "value": ""
                },
                "scaling": {
                    "formula": "",
                    "mode": "none"
                },
                "schema": {
                    "lastMigration": null,
                    "version": 0.649
                },
                "school": {
                    "value": "necromancy"
                },
                "secondarycasters": {
                    "value": ""
                },
                "secondarycheck": {
                    "value": ""
                },
                "slug": null,
                "source": {
                    "value": "https://2e.aonprd.com/Spells.aspx?ID=22"
                },
                "spellType": {
                    "value": "utility"
                },
                "sustained": {
                    "value": false
                },
                "target": {
                    "value": "1 mindless undead creature with a level no greater than bind undead's spell level"
                },
                "time": {
                    "value": "2"
                },
                "traditions": {
                    "value": [
                        "arcane",
                        "divine",
                        "occult"
                    ]
                },
                "traits": {
                    "custom": "",
                    "rarity": {
                        "value": "common"
                    },
                    "value": [
                        "necromancy"
                    ]
                }
            },
            "effects": [],
            "flags": {},
            "img": "systems/pf2e/icons/spells/bind-undead.webp",
            "name": "Bind Undead",
            "sort": 300000,
            "type": "spell"
        },
        {
            "_id": "uj4oEGqGOrnxta5T",
            "data": {
                "ability": {
                    "value": ""
                },
                "area": {
                    "areaType": "",
                    "value": null
                },
                "areasize": {
                    "value": ""
                },
                "category": {
                    "value": "spell"
                },
                "components": {
                    "material": false,
                    "somatic": true,
                    "verbal": true
                },
                "cost": {
                    "value": ""
                },
                "damage": {
                    "applyMod": false,
                    "value": "6d6"
                },
                "damageType": {
                    "value": "negative"
                },
                "description": {
                    "value": "<p>Your touch leeches the lifeblood out of a target to empower yourself. You deal 6d6 negative damage to the target. You gain temporary Hit Points equal to half the negative damage the target takes (after applying resistances and the like). You lose any remaining temporary Hit Points after 1 minute.</p>\n<hr />\n<p><strong>Heightened (+1)</strong> The damage increases by 2d6.</p>"
                },
                "duration": {
                    "value": ""
                },
                "hasCounteractCheck": {
                    "value": false
                },
                "level": {
                    "value": 3
                },
                "location": {
                    "value": "MAK7bBt66XWETv0T"
                },
                "materials": {
                    "value": ""
                },
                "prepared": {
                    "value": ""
                },
                "primarycheck": {
                    "value": ""
                },
                "range": {
                    "value": "touch"
                },
                "rules": [],
                "save": {
                    "basic": "basic",
                    "value": "fortitude"
                },
                "scaling": {
                    "formula": "2d6",
                    "mode": "level1"
                },
                "schema": {
                    "lastMigration": null,
                    "version": 0.649
                },
                "school": {
                    "value": "necromancy"
                },
                "secondarycasters": {
                    "value": ""
                },
                "secondarycheck": {
                    "value": ""
                },
                "slug": null,
                "source": {
                    "value": "https://2e.aonprd.com/Spells.aspx?ID=354"
                },
                "spellType": {
                    "value": "save"
                },
                "sustained": {
                    "value": false
                },
                "target": {
                    "value": "1 living creature"
                },
                "time": {
                    "value": "2"
                },
                "traditions": {
                    "value": [
                        "arcane",
                        "divine",
                        "occult"
                    ]
                },
                "traits": {
                    "custom": "",
                    "rarity": {
                        "value": "common"
                    },
                    "value": [
                        "death",
                        "necromancy",
                        "negative"
                    ]
                }
            },
            "effects": [],
            "flags": {},
            "img": "systems/pf2e/icons/spells/vampiric-touch.webp",
            "name": "Vampiric Touch",
            "sort": 400000,
            "type": "spell"
        },
        {
            "_id": "HH7A9EOThICtaSio",
            "data": {
                "ability": {
                    "value": ""
                },
                "area": {
                    "areaType": "burst",
                    "value": 20
                },
                "areasize": {
                    "value": "20-foot burst"
                },
                "category": {
                    "value": "spell"
                },
                "components": {
                    "material": true,
                    "somatic": true,
                    "verbal": true
                },
                "cost": {
                    "value": ""
                },
                "damage": {
                    "applyMod": false,
                    "value": ""
                },
                "damageType": {
                    "value": ""
                },
                "description": {
                    "value": "<p>You create a shroud of darkness that prevents light from penetrating or emanating within the area. Light does not enter the area and any non-magical light sources, such as a torch or lantern, do not emanate any light while inside the area, even if their light radius would extend beyond the darkness. This also suppresses magical light of your darkness spell's level or lower. Light can't pass through, so creatures in the area can't see outside. From outside, it appears as a globe of pure darkness.</p>\n<hr />\n<p><strong>Heightened (4th)</strong> Even creatures with darkvision (but not greater darkvision) can barely see through the darkness. They treat targets seen through the darkness as @Compendium[pf2e.conditionitems.Concealed]{Concealed}.</p>"
                },
                "duration": {
                    "value": "1 minute"
                },
                "hasCounteractCheck": {
                    "value": false
                },
                "level": {
                    "value": 2
                },
                "location": {
                    "value": "MAK7bBt66XWETv0T"
                },
                "materials": {
                    "value": ""
                },
                "prepared": {
                    "value": ""
                },
                "primarycheck": {
                    "value": ""
                },
                "range": {
                    "value": "120 feet"
                },
                "rules": [],
                "save": {
                    "basic": "",
                    "value": ""
                },
                "scaling": {
                    "formula": "",
                    "mode": "none"
                },
                "schema": {
                    "lastMigration": null,
                    "version": 0.649
                },
                "school": {
                    "value": "evocation"
                },
                "secondarycasters": {
                    "value": ""
                },
                "secondarycheck": {
                    "value": ""
                },
                "slug": null,
                "source": {
                    "value": "https://2e.aonprd.com/Spells.aspx?ID=59"
                },
                "spellType": {
                    "value": "utility"
                },
                "sustained": {
                    "value": false
                },
                "target": {
                    "value": ""
                },
                "time": {
                    "value": "3"
                },
                "traditions": {
                    "value": [
                        "arcane",
                        "divine",
                        "occult",
                        "primal"
                    ]
                },
                "traits": {
                    "custom": "",
                    "rarity": {
                        "value": "common"
                    },
                    "value": [
                        "darkness",
                        "evocation"
                    ]
                }
            },
            "effects": [],
            "flags": {},
            "img": "systems/pf2e/icons/spells/darkness.webp",
            "name": "Darkness",
            "sort": 500000,
            "type": "spell"
        },
        {
            "_id": "VdZOGhzI2j6fVgue",
            "data": {
                "ability": {
                    "value": ""
                },
                "area": {
                    "areaType": "",
                    "value": null
                },
                "areasize": {
                    "value": ""
                },
                "category": {
                    "value": "spell"
                },
                "components": {
                    "material": false,
                    "somatic": true,
                    "verbal": true
                },
                "cost": {
                    "value": ""
                },
                "damage": {
                    "applyMod": false,
                    "value": ""
                },
                "damageType": {
                    "value": ""
                },
                "description": {
                    "value": "<p>You unravel the magic behind a spell or effect. Attempt a counteract check against the target. If you succeed against a spell effect, you counteract it. If you succeed against a magic item, the item becomes a mundane item of its type for 10 minutes. This doesn't change the item's non-magical properties. If the target is an artifact or similar item, you automatically fail.</p>"
                },
                "duration": {
                    "value": ""
                },
                "hasCounteractCheck": {
                    "value": false
                },
                "level": {
                    "preparedValue": 3,
                    "value": 2
                },
                "location": {
                    "value": "MAK7bBt66XWETv0T"
                },
                "materials": {
                    "value": ""
                },
                "prepared": {
                    "value": ""
                },
                "primarycheck": {
                    "value": ""
                },
                "range": {
                    "value": "120 feet"
                },
                "rules": [],
                "save": {
                    "basic": "",
                    "value": ""
                },
                "scaling": {
                    "formula": "",
                    "mode": "none"
                },
                "schema": {
                    "lastMigration": null,
                    "version": 0.649
                },
                "school": {
                    "value": "abjuration"
                },
                "secondarycasters": {
                    "value": ""
                },
                "secondarycheck": {
                    "value": ""
                },
                "slug": null,
                "source": {
                    "value": "https://2e.aonprd.com/Spells.aspx?ID=78"
                },
                "spellType": {
                    "value": "utility"
                },
                "sustained": {
                    "value": false
                },
                "target": {
                    "value": "1 spell effect or unattended magic item"
                },
                "time": {
                    "value": "2"
                },
                "traditions": {
                    "value": [
                        "arcane",
                        "divine",
                        "occult",
                        "primal"
                    ]
                },
                "traits": {
                    "custom": "",
                    "rarity": {
                        "value": "common"
                    },
                    "value": [
                        "abjuration"
                    ]
                }
            },
            "effects": [],
            "flags": {},
            "img": "systems/pf2e/icons/spells/dispel-magic.webp",
            "name": "Dispel Magic",
            "sort": 600000,
            "type": "spell"
        },
        {
            "_id": "PT6L7esxKf99nHir",
            "data": {
                "ability": {
                    "value": ""
                },
                "area": {
                    "areaType": "",
                    "value": null
                },
                "areasize": {
                    "value": ""
                },
                "category": {
                    "value": "spell"
                },
                "components": {
                    "material": false,
                    "somatic": true,
                    "verbal": true
                },
                "cost": {
                    "value": ""
                },
                "damage": {
                    "applyMod": false,
                    "value": ""
                },
                "damageType": {
                    "value": ""
                },
                "description": {
                    "value": "<p>You create a reservoir of vitality from necromantic energy, gaining a number of temporary Hit Points equal to 6 plus your spellcasting ability modifier.</p>\n<hr />\n<p><strong>Heightened (+1)</strong> The temporary Hit Points increase by 3.</p>"
                },
                "duration": {
                    "value": "8 hours"
                },
                "hasCounteractCheck": {
                    "value": false
                },
                "level": {
                    "value": 2
                },
                "location": {
                    "value": "MAK7bBt66XWETv0T"
                },
                "materials": {
                    "value": ""
                },
                "prepared": {
                    "value": ""
                },
                "primarycheck": {
                    "value": ""
                },
                "range": {
                    "value": ""
                },
                "rules": [],
                "save": {
                    "basic": "",
                    "value": ""
                },
                "scaling": {
                    "formula": "",
                    "mode": "none"
                },
                "schema": {
                    "lastMigration": null,
                    "version": 0.649
                },
                "school": {
                    "value": "necromancy"
                },
                "secondarycasters": {
                    "value": ""
                },
                "secondarycheck": {
                    "value": ""
                },
                "slug": null,
                "source": {
                    "value": "https://2e.aonprd.com/Spells.aspx?ID=108"
                },
                "spellType": {
                    "value": "utility"
                },
                "sustained": {
                    "value": false
                },
                "target": {
                    "value": ""
                },
                "time": {
                    "value": "2"
                },
                "traditions": {
                    "value": [
                        "arcane",
                        "occult"
                    ]
                },
                "traits": {
                    "custom": "",
                    "rarity": {
                        "value": "common"
                    },
                    "value": [
                        "necromancy"
                    ]
                }
            },
            "effects": [],
            "flags": {},
            "img": "systems/pf2e/icons/spells/false-life.webp",
            "name": "False Life",
            "sort": 700000,
            "type": "spell"
        },
        {
            "_id": "2QYP5QwQhjJ654da",
            "data": {
                "ability": {
                    "value": ""
                },
                "area": {
                    "areaType": "",
                    "value": null
                },
                "areasize": {
                    "value": ""
                },
                "category": {
                    "value": "spell"
                },
                "components": {
                    "material": false,
                    "somatic": true,
                    "verbal": true
                },
                "cost": {
                    "value": ""
                },
                "damage": {
                    "applyMod": false,
                    "value": ""
                },
                "damageType": {
                    "value": ""
                },
                "description": {
                    "value": "<p>The target is overtaken with uncontrollable laughter. It must attempt a Will save.</p>\n<hr /><strong>Critical Success</strong> The target is unaffected.\n<p><strong>Success</strong> The target is plagued with uncontrollable laugher. It can't use reactions.</p>\n<p><strong>Failure</strong> The target is @Compendium[pf2e.conditionitems.Slowed]{Slowed} 1 and can't use reactions.</p>\n<p><strong>Critical Failure</strong> The target falls @Compendium[pf2e.conditionitems.Prone]{Prone} and can't use actions or reactions for 1 round. It then suffers the failure effects.</p>"
                },
                "duration": {
                    "value": "sustained"
                },
                "hasCounteractCheck": {
                    "value": false
                },
                "level": {
                    "value": 2
                },
                "location": {
                    "value": "MAK7bBt66XWETv0T"
                },
                "materials": {
                    "value": ""
                },
                "prepared": {
                    "value": ""
                },
                "primarycheck": {
                    "value": ""
                },
                "range": {
                    "value": "30 feet"
                },
                "rules": [],
                "save": {
                    "basic": "",
                    "value": "will"
                },
                "scaling": {
                    "formula": "",
                    "mode": "none"
                },
                "schema": {
                    "lastMigration": null,
                    "version": 0.649
                },
                "school": {
                    "value": "enchantment"
                },
                "secondarycasters": {
                    "value": ""
                },
                "secondarycheck": {
                    "value": ""
                },
                "slug": null,
                "source": {
                    "value": "https://2e.aonprd.com/Spells.aspx?ID=150"
                },
                "spellType": {
                    "value": "save"
                },
                "sustained": {
                    "value": false
                },
                "target": {
                    "value": "1 living creature"
                },
                "time": {
                    "value": "2"
                },
                "traditions": {
                    "value": [
                        "arcane",
                        "occult"
                    ]
                },
                "traits": {
                    "custom": "",
                    "rarity": {
                        "value": "common"
                    },
                    "value": [
                        "emotion",
                        "enchantment",
                        "mental"
                    ]
                }
            },
            "effects": [],
            "flags": {},
            "img": "systems/pf2e/icons/spells/hideous-laughter.webp",
            "name": "Hideous Laughter",
            "sort": 800000,
            "type": "spell"
        },
        {
            "_id": "v8STb4kPoxVQ5xzk",
            "data": {
                "ability": {
                    "value": ""
                },
                "area": {
                    "areaType": "",
                    "value": null
                },
                "areasize": {
                    "value": ""
                },
                "category": {
                    "value": "spell"
                },
                "components": {
                    "material": false,
                    "somatic": true,
                    "verbal": true
                },
                "cost": {
                    "value": ""
                },
                "damage": {
                    "applyMod": false,
                    "value": ""
                },
                "damageType": {
                    "value": ""
                },
                "description": {
                    "value": "<p>You shout a command that's hard to ignore. You can command the target to approach you, run away (as if it had the @Compendium[pf2e.conditionitems.Fleeing]{Fleeing} condition), release what it's holding, drop @Compendium[pf2e.conditionitems.Prone]{Prone}, or stand in place. It can't Delay or take any reactions until it has obeyed your command. The effects depend on the target's Will save.</p>\n<hr /><strong>Success</strong> The creature is unaffected.\n<p><strong>Failure</strong> For the first action on its next turn, the creature must use a single action to do as you command.</p>\n<p><strong>Critical Failure</strong> The target must use all its actions on its next turn to obey your command.</p>\n<hr /><strong>Heightened (5th)</strong> You can target up to 10 creatures."
                },
                "duration": {
                    "value": "until the end of the target's next turn"
                },
                "hasCounteractCheck": {
                    "value": false
                },
                "level": {
                    "value": 1
                },
                "location": {
                    "value": "MAK7bBt66XWETv0T"
                },
                "materials": {
                    "value": ""
                },
                "prepared": {
                    "value": ""
                },
                "primarycheck": {
                    "value": ""
                },
                "range": {
                    "value": "30 feet"
                },
                "rules": [],
                "save": {
                    "basic": "",
                    "value": "will"
                },
                "scaling": {
                    "formula": "",
                    "mode": "none"
                },
                "schema": {
                    "lastMigration": null,
                    "version": 0.649
                },
                "school": {
                    "value": "enchantment"
                },
                "secondarycasters": {
                    "value": ""
                },
                "secondarycheck": {
                    "value": ""
                },
                "slug": null,
                "source": {
                    "value": "https://2e.aonprd.com/Spells.aspx?ID=45"
                },
                "spellType": {
                    "value": "save"
                },
                "sustained": {
                    "value": false
                },
                "target": {
                    "value": "1 creature"
                },
                "time": {
                    "value": "2"
                },
                "traditions": {
                    "value": [
                        "arcane",
                        "divine",
                        "occult"
                    ]
                },
                "traits": {
                    "custom": "",
                    "rarity": {
                        "value": "common"
                    },
                    "value": [
                        "auditory",
                        "enchantment",
                        "linguistic",
                        "mental"
                    ]
                }
            },
            "effects": [],
            "flags": {},
            "img": "systems/pf2e/icons/spells/command.webp",
            "name": "Command",
            "sort": 900000,
            "type": "spell"
        },
        {
            "_id": "Z6uXmQzVIeRgJR0R",
            "data": {
                "ability": {
                    "value": ""
                },
                "area": {
                    "areaType": "",
                    "value": null
                },
                "areasize": {
                    "value": ""
                },
                "category": {
                    "value": "ritual"
                },
                "components": {
                    "material": false,
                    "somatic": false,
                    "verbal": false
                },
                "cost": {
                    "value": "black onyx, see Table 7-1"
                },
                "damage": {
                    "applyMod": false,
                    "value": ""
                },
                "damageType": {
                    "value": ""
                },
                "description": {
                    "value": "<p>You transform the target into an undead creature with a level up to that allowed in Table 7-1. There are many versions of this ritual, each specific to a particular type of undead (one ritual for all zombies, one for skeletons, one for ghouls, and so on), and the rituals that create rare undead are also rare. Some forms of undead, such as liches, form using their own unique methods and can't be created with a version of<em>create undead</em>.</p>\n<h2>Table 7-1: Creatures Creation Rituals</h2>\n<table style=\"width: 379px; user-select: text; color: #191813; font-size: 13px; height: 353px;\" border=\"1\">\n<tbody style=\"box-sizing: border-box; user-select: text;\">\n<tr style=\"box-sizing: border-box; user-select: text; height: 25px;\">\n<td style=\"box-sizing: border-box; user-select: text; color: white; height: 17px; width: 103px; text-align: center; background-color: #522e2c;\"><strong>Creature Level</strong></td>\n<td style=\"box-sizing: border-box; user-select: text; color: white; width: 165px; text-align: center; background-color: #522e2c; height: 17px;\"><strong>Spell Level Required</strong></td>\n<td style=\"box-sizing: border-box; user-select: text; color: white; width: 110px; text-align: center; background-color: #522e2c; height: 17px;\"><strong style=\"box-sizing: border-box; user-select: text;\">Cost</strong></td>\n</tr>\n<tr style=\"box-sizing: border-box; user-select: text; height: 17px;\">\n<td style=\"box-sizing: border-box; user-select: text; height: 17px; width: 103px; text-align: center; background-color: #f6f1e1;\">-1 or 0</td>\n<td style=\"box-sizing: border-box; user-select: text; width: 165px; text-align: center; background-color: #f6f1e1; height: 17px;\">2</td>\n<td style=\"box-sizing: border-box; user-select: text; width: 110px; text-align: center; background-color: #f6f1e1; height: 17px;\">15 gp</td>\n</tr>\n<tr style=\"box-sizing: border-box; user-select: text; height: 17px;\">\n<td style=\"box-sizing: border-box; user-select: text; height: 17px; width: 103px; text-align: center; background-color: #eee5c8;\">1</td>\n<td style=\"box-sizing: border-box; user-select: text; width: 165px; text-align: center; background-color: #eee5c8; height: 17px;\">2<span id=\"ctl00_MainContent_DetailedOutput\" style=\"box-sizing: border-box; user-select: text; display: block;\"></span></td>\n<td style=\"box-sizing: border-box; user-select: text; width: 110px; text-align: center; background-color: #eee5c8; height: 17px;\">60 gp</td>\n</tr>\n<tr style=\"box-sizing: border-box; user-select: text; height: 17px;\">\n<td style=\"box-sizing: border-box; user-select: text; height: 17px; width: 103px; text-align: center; background-color: #f6f1e1;\">2</td>\n<td style=\"box-sizing: border-box; user-select: text; width: 165px; text-align: center; background-color: #f6f1e1; height: 17px;\">3</td>\n<td style=\"box-sizing: border-box; user-select: text; width: 110px; text-align: center; background-color: #f6f1e1; height: 17px;\">105 gp</td>\n</tr>\n<tr style=\"box-sizing: border-box; user-select: text; height: 19px;\">\n<td style=\"box-sizing: border-box; user-select: text; height: 19px; width: 103px; text-align: center; background-color: #eee5c8;\">3</td>\n<td style=\"box-sizing: border-box; user-select: text; width: 165px; text-align: center; background-color: #eee5c8; height: 19px;\">3</td>\n<td style=\"box-sizing: border-box; user-select: text; width: 110px; text-align: center; background-color: #eee5c8; height: 19px;\">180 gp</td>\n</tr>\n<tr style=\"height: 19px; background-color: #f6f1e1;\">\n<td style=\"box-sizing: border-box; user-select: text; width: 103px; text-align: center; background-color: #f6f1e1; height: 19px;\">4</td>\n<td style=\"box-sizing: border-box; user-select: text; width: 165px; text-align: center; background-color: #f6f1e1; height: 19px;\">4</td>\n<td style=\"box-sizing: border-box; user-select: text; width: 110px; text-align: center; background-color: #f6f1e1; height: 19px;\">300 gp</td>\n</tr>\n<tr style=\"height: 19px;\">\n<td style=\"box-sizing: border-box; user-select: text; width: 103px; text-align: center; background-color: #eee5c8; height: 19px;\">5</td>\n<td style=\"box-sizing: border-box; user-select: text; width: 165px; text-align: center; background-color: #eee5c8; height: 19px;\">4</td>\n<td style=\"box-sizing: border-box; user-select: text; width: 110px; text-align: center; background-color: #eee5c8; height: 19px;\">480 gp</td>\n</tr>\n<tr style=\"height: 19px; background-color: #f6f1e1;\">\n<td style=\"box-sizing: border-box; user-select: text; width: 103px; text-align: center; background-color: #f6f1e1; height: 19px;\">6</td>\n<td style=\"box-sizing: border-box; user-select: text; width: 165px; text-align: center; background-color: #f6f1e1; height: 19px;\">5</td>\n<td style=\"box-sizing: border-box; user-select: text; width: 110px; text-align: center; background-color: #f6f1e1; height: 19px;\">750 gp</td>\n</tr>\n<tr style=\"height: 19px;\">\n<td style=\"box-sizing: border-box; user-select: text; width: 103px; text-align: center; background-color: #eee5c8; height: 19px;\">7</td>\n<td style=\"box-sizing: border-box; user-select: text; width: 165px; text-align: center; background-color: #eee5c8; height: 19px;\">5</td>\n<td style=\"box-sizing: border-box; user-select: text; width: 110px; text-align: center; background-color: #eee5c8; height: 19px;\">1,080 gp</td>\n</tr>\n<tr style=\"height: 19px;\">\n<td style=\"box-sizing: border-box; user-select: text; width: 103px; text-align: center; background-color: #f6f1e1; height: 19px;\">8</td>\n<td style=\"box-sizing: border-box; user-select: text; width: 165px; text-align: center; background-color: #f6f1e1; height: 19px;\">6</td>\n<td style=\"box-sizing: border-box; user-select: text; width: 110px; text-align: center; background-color: #f6f1e1; height: 19px;\">1,500 gp</td>\n</tr>\n<tr style=\"height: 19px;\">\n<td style=\"box-sizing: border-box; user-select: text; width: 103px; text-align: center; background-color: #eee5c8; height: 19px;\">9</td>\n<td style=\"box-sizing: border-box; user-select: text; width: 165px; text-align: center; background-color: #eee5c8; height: 19px;\">6</td>\n<td style=\"box-sizing: border-box; user-select: text; width: 110px; text-align: center; background-color: #eee5c8; height: 19px;\">2,100 gp</td>\n</tr>\n<tr style=\"height: 19px;\">\n<td style=\"box-sizing: border-box; user-select: text; width: 103px; text-align: center; background-color: #f6f1e1; height: 19px;\">10</td>\n<td style=\"box-sizing: border-box; user-select: text; width: 165px; text-align: center; background-color: #f6f1e1; height: 19px;\">7</td>\n<td style=\"box-sizing: border-box; user-select: text; width: 110px; text-align: center; background-color: #f6f1e1; height: 19px;\">3,000 gp</td>\n</tr>\n<tr style=\"height: 19px;\">\n<td style=\"box-sizing: border-box; user-select: text; width: 103px; text-align: center; background-color: #eee5c8; height: 19px;\">11</td>\n<td style=\"box-sizing: border-box; user-select: text; width: 165px; text-align: center; background-color: #eee5c8; height: 19px;\">7</td>\n<td style=\"box-sizing: border-box; user-select: text; width: 110px; text-align: center; background-color: #eee5c8; height: 19px;\">4,200 gp</td>\n</tr>\n<tr style=\"height: 19px;\">\n<td style=\"box-sizing: border-box; user-select: text; width: 103px; text-align: center; background-color: #f6f1e1; height: 19px;\">12</td>\n<td style=\"box-sizing: border-box; user-select: text; width: 165px; text-align: center; background-color: #f6f1e1; height: 19px;\">8</td>\n<td style=\"box-sizing: border-box; user-select: text; width: 110px; text-align: center; background-color: #f6f1e1; height: 19px;\">6,000 gp</td>\n</tr>\n<tr style=\"height: 19px;\">\n<td style=\"box-sizing: border-box; user-select: text; width: 103px; text-align: center; background-color: #eee5c8; height: 19px;\">13</td>\n<td style=\"box-sizing: border-box; user-select: text; width: 165px; text-align: center; background-color: #eee5c8; height: 19px;\">8</td>\n<td style=\"box-sizing: border-box; user-select: text; width: 110px; text-align: center; background-color: #eee5c8; height: 19px;\">9,000 gp</td>\n</tr>\n<tr style=\"height: 19px;\">\n<td style=\"box-sizing: border-box; user-select: text; width: 103px; text-align: center; background-color: #f6f1e1; height: 19px;\">14</td>\n<td style=\"box-sizing: border-box; user-select: text; width: 165px; text-align: center; background-color: #f6f1e1; height: 19px;\">9</td>\n<td style=\"box-sizing: border-box; user-select: text; width: 110px; text-align: center; background-color: #f6f1e1; height: 19px;\">13,500 gp</td>\n</tr>\n<tr style=\"height: 19px;\">\n<td style=\"box-sizing: border-box; user-select: text; width: 103px; text-align: center; background-color: #eee5c8; height: 19px;\">15</td>\n<td style=\"box-sizing: border-box; user-select: text; width: 165px; text-align: center; background-color: #eee5c8; height: 19px;\">9</td>\n<td style=\"box-sizing: border-box; user-select: text; width: 110px; text-align: center; background-color: #eee5c8; height: 19px;\">19,500 gp</td>\n</tr>\n<tr style=\"height: 19px;\">\n<td style=\"box-sizing: border-box; user-select: text; width: 103px; text-align: center; background-color: #f6f1e1; height: 19px;\">16</td>\n<td style=\"box-sizing: border-box; user-select: text; width: 165px; text-align: center; background-color: #f6f1e1; height: 19px;\">10</td>\n<td style=\"box-sizing: border-box; user-select: text; width: 110px; text-align: center; background-color: #f6f1e1; height: 19px;\">30,000 gp</td>\n</tr>\n<tr style=\"height: 19px;\">\n<td style=\"box-sizing: border-box; user-select: text; width: 103px; text-align: center; background-color: #eee5c8; height: 19px;\">17</td>\n<td style=\"box-sizing: border-box; user-select: text; width: 165px; text-align: center; background-color: #eee5c8; height: 19px;\">10</td>\n<td style=\"box-sizing: border-box; user-select: text; width: 110px; text-align: center; background-color: #eee5c8; height: 19px;\">45,000 gp</td>\n</tr>\n</tbody>\n</table>\n<p><br /><strong>Critical Success</strong> The target becomes an undead creature of the appropriate type. If it's at least 4 levels lower than you, you can make it a minion. This gives it the minion trait, meaning it can use 2 actions when you command it, and commanding it is a single action that has the auditory and concentrate traits. You can have a maximum of four minions under your control. If it's intelligent and doesn't become a minion, the undead is helpful to you for awakening it, though it's still a horrid and evil creature. If it's unintelligent and doesn't become a minion, you can give it one simple command. It pursues that goal single-mindedly, ignoring any of your subsequent commands.<br /><strong>Success</strong> As critical success, except an intelligent undead that doesn't become your minion is only friendly to you, and an unintelligent undead that doesn't become your minion leaves you alone unless you attack it. It marauds the local area rather than following your command.<br /><strong>Failure</strong> You fail to create the undead.<br /><strong>Critical Failure</strong> You create the undead, but its soul, tortured by your foul necromancy, is full of nothing but hatred for you. It attempts to destroy you.<br /></p>"
                },
                "duration": {
                    "value": ""
                },
                "hasCounteractCheck": {
                    "value": false
                },
                "level": {
                    "value": 1
                },
                "location": {
                    "value": "PRbP9Xmm1h81ld5N"
                },
                "materials": {
                    "value": ""
                },
                "prepared": {
                    "value": ""
                },
                "primarycheck": {
                    "value": "Arcana (expert), Occultism (expert), or Religion (expert)"
                },
                "range": {
                    "value": "10 feet"
                },
                "rules": [],
                "save": {
                    "basic": "",
                    "value": ""
                },
                "scaling": {
                    "formula": "",
                    "mode": "none"
                },
                "schema": {
                    "lastMigration": null,
                    "version": 0.649
                },
                "school": {
                    "value": "necromancy"
                },
                "secondarycasters": {
                    "value": "1"
                },
                "secondarycheck": {
                    "value": "Religion"
                },
                "slug": null,
                "source": {
                    "value": ""
                },
                "spellType": {
                    "value": "utility"
                },
                "sustained": {
                    "value": false
                },
                "target": {
                    "value": "1 dead creature"
                },
                "time": {
                    "value": "1 day"
                },
                "traditions": {
                    "custom": "",
                    "value": []
                },
                "traits": {
                    "custom": "",
                    "rarity": {
                        "value": "uncommon"
                    },
                    "value": [
                        "evil",
                        "necromancy"
                    ]
                }
            },
            "effects": [],
            "flags": {},
            "img": "systems/pf2e/icons/spells/create-undead.webp",
            "name": "Create Undead (zombie)",
            "sort": 1000000,
            "type": "spell"
        },
        {
            "_id": "W6JsamyhA1CQYfpD",
            "data": {
                "ability": {
                    "value": ""
                },
                "area": {
                    "areaType": "",
                    "value": null
                },
                "areasize": {
                    "value": ""
                },
                "category": {
                    "value": "spell"
                },
                "components": {
                    "material": false,
                    "somatic": true,
                    "verbal": true
                },
                "cost": {
                    "value": ""
                },
                "damage": {
                    "applyMod": false,
                    "value": ""
                },
                "damageType": {
                    "value": ""
                },
                "description": {
                    "value": "<p>You create up to four floating lights, no two of which are more than 10 feet apart. Each sheds light like a torch. When you Sustain the Spell, you can move any number of lights up to 60 feet. Each light must remain within 120 feet of you and within 10 feet of all others, or it winks out.</p>"
                },
                "duration": {
                    "value": "sustained"
                },
                "hasCounteractCheck": {
                    "value": false
                },
                "level": {
                    "value": 1
                },
                "location": {
                    "value": "MAK7bBt66XWETv0T"
                },
                "materials": {
                    "value": ""
                },
                "prepared": {
                    "value": ""
                },
                "primarycheck": {
                    "value": ""
                },
                "range": {
                    "value": "120 feet"
                },
                "rules": [],
                "save": {
                    "basic": "",
                    "value": ""
                },
                "scaling": {
                    "formula": "",
                    "mode": "none"
                },
                "schema": {
                    "lastMigration": null,
                    "version": 0.649
                },
                "school": {
                    "value": "evocation"
                },
                "secondarycasters": {
                    "value": ""
                },
                "secondarycheck": {
                    "value": ""
                },
                "slug": null,
                "source": {
                    "value": ""
                },
                "spellType": {
                    "value": "utility"
                },
                "sustained": {
                    "value": true
                },
                "target": {
                    "value": ""
                },
                "time": {
                    "value": "2"
                },
                "traditions": {
                    "custom": "",
                    "value": [
                        "arcane",
                        "occult",
                        "primal"
                    ]
                },
                "traits": {
                    "custom": "",
                    "rarity": {
                        "value": "common"
                    },
                    "selected": {
                        "cantrip": "Cantrip",
                        "evocation": "Evocation",
                        "light": "Light"
                    },
                    "value": [
                        "light",
                        "cantrip",
                        "evocation"
                    ]
                }
            },
            "effects": [],
            "flags": {},
            "img": "systems/pf2e/icons/spells/dancing-lights.webp",
            "name": "Dancing Lights",
            "sort": 1100000,
            "type": "spell"
        },
        {
            "_id": "q7LwPhPKMsNWyuYa",
            "data": {
                "ability": {
                    "value": ""
                },
                "area": {
                    "areaType": "",
                    "value": null
                },
                "areasize": {
                    "value": ""
                },
                "category": {
                    "value": "spell"
                },
                "components": {
                    "material": false,
                    "somatic": true,
                    "verbal": true
                },
                "cost": {
                    "value": ""
                },
                "damage": {
                    "applyMod": true,
                    "value": "0"
                },
                "damageType": {
                    "value": "mental"
                },
                "description": {
                    "value": "<p>You cloud the target's mind and daze it with a mental jolt. The jolt deals mental damage equal to your spellcasting ability modifier; the target must attempt a basic Will save. If the target critically fails the save, it is also @Compendium[pf2e.conditionitems.Stunned]{Stunned} 1.</p>\n<hr />\n<p><strong>Heightened (+2)</strong> The damage increases by 1d6.</p>"
                },
                "duration": {
                    "value": "1 round"
                },
                "hasCounteractCheck": {
                    "value": false
                },
                "level": {
                    "value": 1
                },
                "location": {
                    "value": "MAK7bBt66XWETv0T"
                },
                "materials": {
                    "value": ""
                },
                "prepared": {
                    "value": ""
                },
                "primarycheck": {
                    "value": ""
                },
                "range": {
                    "value": "60 feet"
                },
                "rules": [],
                "save": {
                    "basic": "basic",
                    "value": "will"
                },
                "scaling": {
                    "formula": "1d6",
                    "mode": "level2"
                },
                "schema": {
                    "lastMigration": null,
                    "version": 0.649
                },
                "school": {
                    "value": "enchantment"
                },
                "secondarycasters": {
                    "value": ""
                },
                "secondarycheck": {
                    "value": ""
                },
                "slug": null,
                "source": {
                    "value": "https://2e.aonprd.com/Spells.aspx?ID=61"
                },
                "spellType": {
                    "value": "save"
                },
                "sustained": {
                    "value": false
                },
                "target": {
                    "value": "1 creature"
                },
                "time": {
                    "value": "2"
                },
                "traditions": {
                    "value": [
                        "arcane",
                        "divine",
                        "occult"
                    ]
                },
                "traits": {
                    "custom": "",
                    "rarity": {
                        "value": "common"
                    },
                    "selected": {
                        "cantrip": "Cantrip",
                        "enchantment": "Enchantment",
                        "mental": "Mental",
                        "nonlethal": "Nonlethal"
                    },
                    "value": [
                        "cantrip",
                        "enchantment",
                        "mental",
                        "nonlethal"
                    ]
                }
            },
            "effects": [],
            "flags": {},
            "img": "systems/pf2e/icons/spells/daze.webp",
            "name": "Daze",
            "sort": 1200000,
            "type": "spell"
        },
        {
            "_id": "lTnWvjTn6tEQLRi6",
            "data": {
                "ability": {
                    "value": ""
                },
                "area": {
                    "areaType": "",
                    "value": null
                },
                "areasize": {
                    "value": ""
                },
                "category": {
                    "value": "spell"
                },
                "components": {
                    "material": false,
                    "somatic": true,
                    "verbal": true
                },
                "cost": {
                    "value": ""
                },
                "damage": {
                    "applyMod": false,
                    "value": ""
                },
                "damageType": {
                    "value": ""
                },
                "description": {
                    "value": "<p>You plant fear in the target; it must attempt a Will save.</p>\n<hr /><strong>Critical Success</strong> The target is unaffected.\n<p><strong>Success</strong> The target is @Compendium[pf2e.conditionitems.Frightened]{Frightened} 1.</p>\n<p><strong>Failure</strong> The target is @Compendium[pf2e.conditionitems.Frightened]{Frightened} 2.</p>\n<p><strong>Critical Failure</strong> The target is @Compendium[pf2e.conditionitems.Frightened]{Frightened} 3 and @Compendium[pf2e.conditionitems.Fleeing]{Fleeing} for 1 round.</p>\n<hr /><strong>Heightened (3rd)</strong> You can target up to five creatures."
                },
                "duration": {
                    "value": "varies"
                },
                "hasCounteractCheck": {
                    "value": false
                },
                "level": {
                    "value": 1
                },
                "location": {
                    "value": "MAK7bBt66XWETv0T"
                },
                "materials": {
                    "value": ""
                },
                "prepared": {
                    "value": ""
                },
                "primarycheck": {
                    "value": ""
                },
                "range": {
                    "value": "30 feet"
                },
                "rules": [],
                "save": {
                    "basic": "",
                    "value": "will"
                },
                "scaling": {
                    "formula": "",
                    "mode": "none"
                },
                "schema": {
                    "lastMigration": null,
                    "version": 0.649
                },
                "school": {
                    "value": "enchantment"
                },
                "secondarycasters": {
                    "value": ""
                },
                "secondarycheck": {
                    "value": ""
                },
                "slug": null,
                "source": {
                    "value": "https://2e.aonprd.com/Spells.aspx?ID=110"
                },
                "spellType": {
                    "value": "save"
                },
                "sustained": {
                    "value": false
                },
                "target": {
                    "value": "1 creature"
                },
                "time": {
                    "value": "2"
                },
                "traditions": {
                    "value": [
                        "arcane",
                        "divine",
                        "occult",
                        "primal"
                    ]
                },
                "traits": {
                    "custom": "",
                    "rarity": {
                        "value": "common"
                    },
                    "value": [
                        "emotion",
                        "enchantment",
                        "fear",
                        "mental"
                    ]
                }
            },
            "effects": [],
            "flags": {},
            "img": "systems/pf2e/icons/spells/fear.webp",
            "name": "Fear",
            "sort": 1300000,
            "type": "spell"
        },
        {
            "_id": "OVo8UoZODAJoKB91",
            "data": {
                "ability": {
                    "value": ""
                },
                "area": {
                    "areaType": "",
                    "value": null
                },
                "areasize": {
                    "value": ""
                },
                "category": {
                    "value": "spell"
                },
                "components": {
                    "material": false,
                    "somatic": true,
                    "verbal": true
                },
                "cost": {
                    "value": ""
                },
                "damage": {
                    "applyMod": false,
                    "value": ""
                },
                "damageType": {
                    "value": ""
                },
                "description": {
                    "value": "<p>You create an auditory illusion of simple sounds that has a maximum volume equal to four normal humans shouting. The sounds emanate from a square you designate within range. You can't create intelligible words or other intricate sounds (such as music).</p>\n<hr />\n<p><strong>Heightened (3rd)</strong> The range increases to 60 feet.</p>\n<p><strong>Heightened (5th)</strong> The range increases to 120 feet.</p>"
                },
                "duration": {
                    "value": "sustained"
                },
                "hasCounteractCheck": {
                    "value": false
                },
                "level": {
                    "value": 1
                },
                "location": {
                    "value": "MAK7bBt66XWETv0T"
                },
                "materials": {
                    "value": ""
                },
                "prepared": {
                    "value": ""
                },
                "primarycheck": {
                    "value": ""
                },
                "range": {
                    "value": "30 feet"
                },
                "rules": [],
                "save": {
                    "basic": "",
                    "value": ""
                },
                "scaling": {
                    "formula": "",
                    "mode": "none"
                },
                "schema": {
                    "lastMigration": null,
                    "version": 0.649
                },
                "school": {
                    "value": "illusion"
                },
                "secondarycasters": {
                    "value": ""
                },
                "secondarycheck": {
                    "value": ""
                },
                "slug": null,
                "source": {
                    "value": "https://2e.aonprd.com/Spells.aspx?ID=132"
                },
                "spellType": {
                    "value": "utility"
                },
                "sustained": {
                    "value": false
                },
                "target": {
                    "value": ""
                },
                "time": {
                    "value": "2"
                },
                "traditions": {
                    "value": [
                        "arcane",
                        "occult"
                    ]
                },
                "traits": {
                    "custom": "",
                    "rarity": {
                        "value": "common"
                    },
                    "selected": {
                        "auditory": "Auditory",
                        "cantrip": "Cantrip",
                        "illusion": "Illusion"
                    },
                    "value": [
                        "auditory",
                        "cantrip",
                        "illusion"
                    ]
                }
            },
            "effects": [],
            "flags": {},
            "img": "systems/pf2e/icons/spells/ghost-sound.webp",
            "name": "Ghost Sound",
            "sort": 1400000,
            "type": "spell"
        },
        {
            "_id": "MK9bTkEreHuMoHRV",
            "data": {
                "ability": {
                    "value": ""
                },
                "area": {
                    "areaType": "",
                    "value": null
                },
                "areasize": {
                    "value": ""
                },
                "category": {
                    "value": "spell"
                },
                "components": {
                    "material": false,
                    "somatic": false,
                    "verbal": true
                },
                "cost": {
                    "value": ""
                },
                "damage": {
                    "applyMod": false,
                    "value": ""
                },
                "damageType": {
                    "value": ""
                },
                "description": {
                    "value": "<p>You ask for divine guidance, granting the target a +1 status bonus to one attack roll, Perception check, saving throw, or skill check the target attempts before the duration ends. The target chooses which roll to use the bonus on before rolling. If the target uses the bonus, the spell ends. Either way, the target is then temporarily immune for 1 hour.</p>"
                },
                "duration": {
                    "value": "until the start of your next turn"
                },
                "hasCounteractCheck": {
                    "value": false
                },
                "level": {
                    "value": 1
                },
                "location": {
                    "value": "MAK7bBt66XWETv0T"
                },
                "materials": {
                    "value": ""
                },
                "prepared": {
                    "value": ""
                },
                "primarycheck": {
                    "value": ""
                },
                "range": {
                    "value": "30 feet"
                },
                "rules": [],
                "save": {
                    "basic": "",
                    "value": ""
                },
                "scaling": {
                    "formula": "",
                    "mode": "none"
                },
                "schema": {
                    "lastMigration": null,
                    "version": 0.649
                },
                "school": {
                    "value": "divination"
                },
                "secondarycasters": {
                    "value": ""
                },
                "secondarycheck": {
                    "value": ""
                },
                "slug": null,
                "source": {
                    "value": ""
                },
                "spellType": {
                    "value": "utility"
                },
                "sustained": {
                    "value": false
                },
                "target": {
                    "value": "1 creature"
                },
                "time": {
                    "value": "1"
                },
                "traditions": {
                    "custom": "",
                    "value": [
                        "divine",
                        "occult",
                        "primal"
                    ]
                },
                "traits": {
                    "custom": "",
                    "rarity": {
                        "value": "common"
                    },
                    "selected": {
                        "cantrip": "Cantrip",
                        "divination": "Divination"
                    },
                    "value": [
                        "cantrip",
                        "divination"
                    ]
                }
            },
            "effects": [],
            "flags": {},
            "img": "systems/pf2e/icons/spells/guidance.webp",
            "name": "Guidance",
            "sort": 1500000,
            "type": "spell"
        },
        {
            "_id": "KZNdtiCPyPGSzY0u",
            "data": {
                "ability": {
                    "value": ""
                },
                "area": {
                    "areaType": "",
                    "value": null
                },
                "areasize": {
                    "value": ""
                },
                "category": {
                    "value": "spell"
                },
                "components": {
                    "material": false,
                    "somatic": true,
                    "verbal": true
                },
                "cost": {
                    "value": ""
                },
                "damage": {
                    "applyMod": false,
                    "value": ""
                },
                "damageType": {
                    "value": ""
                },
                "description": {
                    "value": "<p>The simplest magic does your bidding. You can perform simple magical effects for as long as you Sustain the Spell. Each time you Sustain the Spell, you can choose one of four options.</p>\n<ul>\n<li><strong>Cook</strong> Cool, warm, or flavor 1 pound of nonliving material.</li>\n<li><strong>Lift</strong> <strong>Slowly</strong> lift an unattended object of light Bulk or less 1 foot off the ground.</li>\n<li><strong>Make</strong> Create a temporary object of negligible Bulk, made of congealed magical substance. The object looks crude and artificial and is extremely fragile-it can't be used as a tool, weapon, or spell component.</li>\n<li><strong>Tidy</strong> Color, clean, or soil an object of light Bulk or less. You can affect an object of 1 Bulk with 10 rounds of concentration, and a larger object a 1 minute per Bulk.</li>\n</ul>\n<p>Prestidigitation can't deal damage or cause adverse conditions. Any actual change to an object (beyond what is noted above) persists only as long as you Sustain the Spell.</p>"
                },
                "duration": {
                    "value": "sustained"
                },
                "hasCounteractCheck": {
                    "value": false
                },
                "level": {
                    "value": 1
                },
                "location": {
                    "value": "MAK7bBt66XWETv0T"
                },
                "materials": {
                    "value": ""
                },
                "prepared": {
                    "value": ""
                },
                "primarycheck": {
                    "value": ""
                },
                "range": {
                    "value": "10 feet"
                },
                "rules": [],
                "save": {
                    "basic": "",
                    "value": ""
                },
                "scaling": {
                    "formula": "",
                    "mode": "none"
                },
                "schema": {
                    "lastMigration": null,
                    "version": 0.649
                },
                "school": {
                    "value": "evocation"
                },
                "secondarycasters": {
                    "value": ""
                },
                "secondarycheck": {
                    "value": ""
                },
                "slug": null,
                "source": {
                    "value": ""
                },
                "spellType": {
                    "value": "utility"
                },
                "sustained": {
                    "value": true
                },
                "target": {
                    "value": "1 object (cook, lift, or tidy only)"
                },
                "time": {
                    "value": "2"
                },
                "traditions": {
                    "custom": "",
                    "value": [
                        "arcane",
                        "divine",
                        "occult",
                        "primal"
                    ]
                },
                "traits": {
                    "custom": "",
                    "rarity": {
                        "value": "common"
                    },
                    "selected": {
                        "cantrip": "Cantrip",
                        "evocation": "Evocation"
                    },
                    "value": [
                        "cantrip",
                        "evocation"
                    ]
                }
            },
            "effects": [],
            "flags": {},
            "img": "systems/pf2e/icons/spells/prestidigitation.webp",
            "name": "Prestidigitation",
            "sort": 1600000,
            "type": "spell"
        },
        {
            "_id": "ND8PMdFmUlldW1W7",
            "data": {
                "ability": {
                    "value": ""
                },
                "area": {
                    "areaType": "",
                    "value": null
                },
                "areasize": {
                    "value": ""
                },
                "category": {
                    "value": "spell"
                },
                "components": {
                    "material": false,
                    "somatic": true,
                    "verbal": true
                },
                "cost": {
                    "value": ""
                },
                "damage": {
                    "applyMod": false,
                    "value": ""
                },
                "damageType": {
                    "value": ""
                },
                "description": {
                    "value": "<p>You ward a creature with protective energy that deters enemy attacks. Creatures attempting to attack the target must attempt a Will save each time. If the target uses a hostile action, the spell ends.</p>\n<hr /><strong>Critical Success</strong> Sanctuary ends.\n<p><strong>Success</strong> The creature can attempt its attack and any other attacks against the target this turn.</p>\n<p><strong>Failure</strong> The creature can't attack the target and wastes the action. It can't attempt further attacks against the target this turn.</p>\n<p><strong>Critical Failure</strong> The creature wastes the action and can't attempt to attack the target for the rest of sanctuary's duration.</p>"
                },
                "duration": {
                    "value": "1 minute"
                },
                "hasCounteractCheck": {
                    "value": false
                },
                "level": {
                    "value": 1
                },
                "location": {
                    "value": "MAK7bBt66XWETv0T"
                },
                "materials": {
                    "value": ""
                },
                "prepared": {
                    "value": ""
                },
                "primarycheck": {
                    "value": ""
                },
                "range": {
                    "value": "touch"
                },
                "rules": [],
                "save": {
                    "basic": "",
                    "value": ""
                },
                "scaling": {
                    "formula": "",
                    "mode": "none"
                },
                "schema": {
                    "lastMigration": null,
                    "version": 0.649
                },
                "school": {
                    "value": "abjuration"
                },
                "secondarycasters": {
                    "value": ""
                },
                "secondarycheck": {
                    "value": ""
                },
                "slug": null,
                "source": {
                    "value": "https://2e.aonprd.com/Spells.aspx?ID=266"
                },
                "spellType": {
                    "value": "utility"
                },
                "sustained": {
                    "value": false
                },
                "target": {
                    "value": "1 creature"
                },
                "time": {
                    "value": "2"
                },
                "traditions": {
                    "value": [
                        "divine",
                        "occult"
                    ]
                },
                "traits": {
                    "custom": "",
                    "rarity": {
                        "value": "common"
                    },
                    "value": [
                        "abjuration"
                    ]
                }
            },
            "effects": [],
            "flags": {},
            "img": "systems/pf2e/icons/spells/sanctuary.webp",
            "name": "Sanctuary",
            "sort": 1700000,
            "type": "spell"
        },
        {
            "_id": "Xwbh2PYzT2wHyRQl",
            "data": {
                "baseItem": null,
                "brokenThreshold": {
                    "value": 0
                },
                "bulkCapacity": {
                    "value": ""
                },
                "collapsed": {
                    "value": false
                },
                "containerId": {
                    "value": ""
                },
                "description": {
                    "value": ""
                },
                "equipped": {
                    "value": false
                },
                "equippedBulk": {
                    "value": ""
                },
                "hardness": {
                    "value": 0
                },
                "hp": {
                    "value": 0
                },
                "identification": {
                    "misidentified": {},
                    "status": "identified",
                    "unidentified": {
                        "data": {
                            "description": {
                                "value": ""
                            }
                        },
                        "img": "",
                        "name": ""
                    }
                },
                "invested": {
                    "value": false
                },
                "level": {
                    "value": 0
                },
                "maxHp": {
                    "value": 0
                },
                "negateBulk": {
                    "value": "0"
                },
                "preciousMaterial": {
                    "value": ""
                },
                "preciousMaterialGrade": {
                    "value": ""
                },
                "price": {
                    "value": "0 gp"
                },
                "quantity": {
                    "value": 1
                },
                "rules": [],
                "schema": {
                    "lastMigration": null,
                    "version": 0.649
                },
                "size": {
                    "value": "med"
                },
                "slug": null,
                "source": {
                    "value": ""
                },
                "stackGroup": {
                    "value": ""
                },
                "traits": {
                    "custom": "",
                    "rarity": {
                        "value": "common"
                    },
                    "value": []
                },
                "usage": {
                    "value": "held-in-one-hand"
                },
                "weight": {
                    "value": 0
                }
            },
            "effects": [],
            "flags": {},
            "img": "systems/pf2e/icons/default-icons/equipment.svg",
            "name": "wand of vampiric touch",
            "sort": 1800000,
            "type": "equipment"
        },
        {
            "_id": "AybiMVaShBq87pT5",
            "data": {
                "baseItem": null,
                "brokenThreshold": {
                    "value": 0
                },
                "bulkCapacity": {
                    "value": ""
                },
                "collapsed": {
                    "value": false
                },
                "containerId": {
                    "value": ""
                },
                "description": {
                    "value": ""
                },
                "equipped": {
                    "value": false
                },
                "equippedBulk": {
                    "value": ""
                },
                "hardness": {
                    "value": 0
                },
                "hp": {
                    "value": 0
                },
                "identification": {
                    "misidentified": {},
                    "status": "identified",
                    "unidentified": {
                        "data": {
                            "description": {
                                "value": ""
                            }
                        },
                        "img": "",
                        "name": ""
                    }
                },
                "invested": {
                    "value": false
                },
                "level": {
                    "value": 0
                },
                "maxHp": {
                    "value": 0
                },
                "negateBulk": {
                    "value": "0"
                },
                "preciousMaterial": {
                    "value": ""
                },
                "preciousMaterialGrade": {
                    "value": ""
                },
                "price": {
                    "value": "0 gp"
                },
                "quantity": {
                    "value": 1
                },
                "rules": [],
                "schema": {
                    "lastMigration": null,
                    "version": 0.649
                },
                "size": {
                    "value": "med"
                },
                "slug": null,
                "source": {
                    "value": ""
                },
                "stackGroup": {
                    "value": ""
                },
                "traits": {
                    "custom": "",
                    "rarity": {
                        "value": "common"
                    },
                    "value": []
                },
                "usage": {
                    "value": "held-in-one-hand"
                },
                "weight": {
                    "value": 0
                }
            },
            "effects": [],
            "flags": {},
            "img": "systems/pf2e/icons/default-icons/equipment.svg",
            "name": "conductor's baton (+1 mace)",
            "sort": 1900000,
            "type": "equipment"
        },
        {
            "_id": "HoxMBM2XQI6h7gl8",
            "data": {
                "attack": {
                    "value": ""
                },
                "attackEffects": {
                    "value": []
                },
                "bonus": {
                    "value": 12
                },
                "damageRolls": {
                    "rhkmlnroyhkg0w69z2ac": {
                        "damage": "2d6+5",
                        "damageType": "bludgeoning"
                    }
                },
                "description": {
                    "value": "<p>(shove)</p>"
                },
                "rules": [],
                "schema": {
                    "lastMigration": null,
                    "version": 0.649
                },
                "slug": null,
                "source": {
                    "value": ""
                },
                "traits": {
                    "custom": "",
                    "rarity": {
                        "value": "common"
                    },
                    "value": [
                        "shove"
                    ]
                },
                "weaponType": {
                    "value": "melee"
                }
            },
            "effects": [],
            "flags": {},
            "img": "systems/pf2e/icons/default-icons/melee.svg",
            "name": "Conductor's Baton",
            "sort": 2000000,
            "type": "melee"
        },
        {
            "_id": "chbfX9FY5nHyKIb3",
            "data": {
                "description": {
                    "value": ""
                },
                "item": {
                    "value": 0
                },
                "mod": {
                    "value": 13
                },
                "proficient": {
                    "value": 0
                },
                "rules": [],
                "schema": {
                    "lastMigration": null,
                    "version": 0.649
                },
                "slug": null,
                "source": {
                    "value": ""
                },
                "traits": {
                    "custom": "",
                    "rarity": {
                        "value": "common"
                    },
                    "value": []
                }
            },
            "effects": [],
            "flags": {},
            "img": "systems/pf2e/icons/default-icons/lore.svg",
            "name": "Lore",
            "sort": 2100000,
            "type": "lore"
        },
        {
            "_id": "KgpWXUZTKVZfYfQZ",
            "data": {
                "description": {
                    "value": ""
                },
                "item": {
                    "value": 0
                },
                "mod": {
                    "value": 13
                },
                "proficient": {
                    "value": 0
                },
                "rules": [],
                "schema": {
                    "lastMigration": null,
                    "version": 0.649
                },
                "slug": null,
                "source": {
                    "value": ""
                },
                "traits": {
                    "custom": "",
                    "rarity": {
                        "value": "common"
                    },
                    "value": []
                }
            },
            "effects": [],
            "flags": {},
            "img": "systems/pf2e/icons/default-icons/lore.svg",
            "name": "Occultism",
            "sort": 2200000,
            "type": "lore"
        },
        {
            "_id": "SFpg0TG1QWcAaKMs",
            "data": {
                "description": {
                    "value": ""
                },
                "item": {
                    "value": 0
                },
                "mod": {
                    "value": 15
                },
                "proficient": {
                    "value": 0
                },
                "rules": [],
                "schema": {
                    "lastMigration": null,
                    "version": 0.649
                },
                "slug": null,
                "source": {
                    "value": ""
                },
                "traits": {
                    "custom": "",
                    "rarity": {
                        "value": "common"
                    },
                    "value": []
                }
            },
            "effects": [],
            "flags": {},
            "img": "systems/pf2e/icons/default-icons/lore.svg",
            "name": "Performance",
            "sort": 2300000,
            "type": "lore"
        },
        {
            "_id": "ynD7dDsDu8ZTbFve",
            "data": {
                "description": {
                    "value": ""
                },
                "item": {
                    "value": 0
                },
                "mod": {
                    "value": 13
                },
                "proficient": {
                    "value": 0
                },
                "rules": [],
                "schema": {
                    "lastMigration": null,
                    "version": 0.649
                },
                "slug": null,
                "source": {
                    "value": ""
                },
                "traits": {
                    "custom": "",
                    "rarity": {
                        "value": "common"
                    },
                    "value": []
                }
            },
            "effects": [],
            "flags": {},
            "img": "systems/pf2e/icons/default-icons/lore.svg",
            "name": "Religion",
            "sort": 2400000,
            "type": "lore"
        }
    ],
    "name": "Doctor Velshun (5-6)",
    "token": {
        "disposition": -1,
        "height": 1,
        "img": "systems/pf2e/icons/default-icons/npc.svg",
        "name": "Doctor Velshun",
        "width": 1
    },
    "type": "npc"
}
