{
    "_id": "b8Wgun7T7sh7NVrd",
    "data": {
        "attributes": {
            "ac": {
                "value": 18
            },
            "hardness": 4,
            "hasHealth": true,
            "hp": {
                "details": "",
                "max": 16,
                "temp": 0,
                "tempmax": 0,
                "value": 16
            },
            "stealth": {
                "details": "",
                "value": 12
            }
        },
        "creatureType": "",
        "details": {
            "description": "Discreet webbing at throat level snags a creature that walks into it.",
            "disable": "DC 18 Survival (trained) or Thievery (expert) to rearrange the webbing",
            "isComplex": false,
            "level": {
                "value": 2
            },
            "reset": "",
            "routine": ""
        },
        "saves": {
            "fortitude": {
                "saveDetail": "",
                "value": 11
            },
            "reflex": {
                "saveDetail": "",
                "value": 5
            },
            "will": {
                "saveDetail": "",
                "value": 0
            }
        },
        "schema": {
            "lastMigration": null,
            "version": 0.649
        },
        "source": {
            "value": "Pathfinder Adventure: Troubles in Otari"
        },
        "statusEffects": [],
        "traits": {
            "ci": [],
            "di": {
                "custom": "",
                "selected": {},
                "value": [
                    "critical-hits",
                    "precision"
                ]
            },
            "dr": [],
            "dv": [],
            "rarity": {
                "value": "common"
            },
            "size": {
                "value": "med"
            },
            "traits": {
                "custom": "",
                "value": [
                    "mechanical"
                ]
            }
        }
    },
    "effects": [],
    "flags": {},
    "img": "systems/pf2e/icons/default-icons/hazard.svg",
    "items": [
        {
            "_id": "NoYQle3HJatFQcgH",
            "data": {
                "attack": {
                    "value": ""
                },
                "attackEffects": {
                    "custom": "",
                    "value": [
                        "Grab"
                    ]
                },
                "bonus": {
                    "value": 13
                },
                "damageRolls": {
                    "e7581qo0z8qw7n88244tf": {
                        "damage": "3d6",
                        "damageType": "bludgeoning"
                    }
                },
                "description": {
                    "value": "<p>The target gains the grabbed condition is and pulled off the ground (Escape DC 22).</p>"
                },
                "rules": [],
                "schema": {
                    "lastMigration": null,
                    "version": 0.649
                },
                "slug": null,
                "source": {
                    "value": ""
                },
                "traits": {
                    "custom": "",
                    "rarity": {
                        "value": "common"
                    },
                    "value": [
                        "deadly-d10"
                    ]
                },
                "weaponType": {
                    "value": "melee"
                }
            },
            "effects": [],
            "flags": {},
            "img": "systems/pf2e/icons/default-icons/mystery-man.svg",
            "name": "Noose",
            "sort": 100000,
            "type": "melee"
        },
        {
            "_id": "l8f0B8czvLKLsc06",
            "data": {
                "actionCategory": {
                    "value": ""
                },
                "actionType": {
                    "value": "reaction"
                },
                "actions": {
                    "value": ""
                },
                "description": {
                    "value": "<p>If a creature steps into the square with the web trip wire, the web lurker noose makes a noose Strike against the creature.</p>"
                },
                "requirements": {
                    "value": ""
                },
                "rules": [],
                "schema": {
                    "lastMigration": null,
                    "version": 0.649
                },
                "slug": null,
                "source": {
                    "value": ""
                },
                "traits": {
                    "custom": "",
                    "rarity": {
                        "value": "common"
                    },
                    "value": [
                        "attack"
                    ]
                },
                "trigger": {
                    "value": ""
                },
                "weapon": {
                    "value": ""
                }
            },
            "effects": [],
            "flags": {},
            "img": "systems/pf2e/icons/actions/Reaction.webp",
            "name": "Web Noose",
            "sort": 200000,
            "type": "action"
        }
    ],
    "name": "Web Lurker Noose",
    "token": {
        "disposition": 0,
        "height": 1,
        "img": "systems/pf2e/icons/default-icons/hazard.svg",
        "name": "Web Lurker Noose",
        "width": 1
    },
    "type": "hazard"
}
